FRA_french_space_decision_category = {

	FRA_run_support_campaigns_short = {
		cost = 75
		icon = political_actions

		is_good = no
		days_remove = 45
		days_re_enable = 7
		fire_only_once = no

		complete_effect = {
			add_to_variable = { FRA_peoples_support = 2.5 }
			subtract_from_variable = { treasury = 5.0 } 
			custom_effect_tooltip = FRA_peoples_support_campaigns_short_TT
		}
		
		ai_will_do = {
			factor = 5

			modifier = {
				add = 0
				is_historical_focus_on = Yes
			}
		}
	}
	FRA_run_support_campaigns_long = {
		cost = 75
		icon = political_actions

		is_good = no
		days_remove = 90
		days_re_enable = 14
		fire_only_once = no

		complete_effect = {
			add_to_variable = { FRA_peoples_support = 5 }
			subtract_from_variable = { treasury = 10.0 } 
			custom_effect_tooltip = FRA_peoples_support_campaigns_long_TT
		}
		
		ai_will_do = {
			factor = 5

			modifier = {
				add = 0
				is_historical_focus_on = Yes
			}
		}
	}
	FRA_rebalance_the_cnes_budget = {
		cost = 100
		icon = Rebalance_CNES_Budget

		days_remove = 45
		fire_only_once = yes
		
		available = {
			has_completed_focus = FRA_cnes_budgeting
			custom_trigger_tooltip = {
				tooltip = fra_has_enough_space_support_tt
				NOT = { check_variable = { FRA_peoples_support < 35 } }
			}
		}

		complete_effect = {
			subtract_from_variable = { treasury = 1.0 }
			add_to_variable = { FRA_space_income_var = 1.0 }
			add_to_variable = { FRA_peoples_support = 5 }
			custom_effect_tooltip = FRA_rebalance_the_cnes_budget_TT
			remove_ideas = FRA_idea_cnes_failing
		}
		
		ai_will_do = {
			factor = 5

			modifier = {
				add = 10
				is_historical_focus_on = yes
			}
		}
	}
	FRA_launch_commercial_satellite = {
		cost = 150
		icon = Launch_Commercial_Satellite
		
		days_remove = 120
		days_re_enable = 25
		
		available = {
			has_completed_focus = FRA_french_space
			custom_trigger_tooltip = {
				tooltip = fra_has_enough_space_support_tt
				NOT = { check_variable = { FRA_peoples_support < 35 } }
			}
		}
		
		complete_effect = {
			subtract_from_variable = { treasury = 3.0 }
			add_to_variable = { FRA_space_income_var = 1.0 }
			subtract_from_variable = { FRA_peoples_support = 5.0 }
			custom_effect_tooltip = FRA_launch_commercial_satellite_TT
		}
	}
	FRA_prep_international_space_station = {
		cost = 100
		icon = Prepare_an_ISS_Launch
		
		days_remove = 30
		days_re_enable = 120
		
		available = {
			has_completed_focus = FRA_french_space
			NOT = { has_idea = FRA_idea_space_research }
			custom_trigger_tooltip = {
				tooltip = fra_has_enough_space_support_tt
				NOT = { check_variable = { FRA_peoples_support < 35 } }
			}
		}
		
		complete_effect = {
			add_timed_idea = {
				idea = FRA_idea_prep_the_launch
				days = 120
			}
			subtract_from_variable = { FRA_peoples_support = 5.0 }
		}
	}
	FRA_french_iss_launch = {
		cost = 100
		icon = French_ISS_Launch
		
		days_remove = 30
		days_re_enable = 120
		
		available = {
			has_completed_focus = FRA_french_space
			NOT = { has_idea = FRA_idea_prep_the_launch }
			NOT = {	has_idea = FRA_idea_space_research }
			custom_trigger_tooltip = {
				tooltip = fra_has_enough_space_support_tt
				NOT = { check_variable = { FRA_peoples_support < 35 } }
			}
			has_decision = FRA_prep_international_space_station
		}
		
		complete_effect = {
			add_timed_idea = {
				idea = FRA_idea_space_research
				days = 365
			}
			subtract_from_variable = { FRA_peoples_support = 5.0 }
			add_to_variable = { FRA_space_income_var = 1.0 }
		}
	}
	
	FRA_collect_income_mission = {
		icon = political_actions
		available = {
			always = no
		}
		activation = {
			has_completed_focus = FRA_french_space
		}
		is_good = yes
		days_mission_timeout = 365
		timeout_effect = {
			country_event = france_md.12
		}
		fire_only_once = no
		days_remove = 0
	}
	
}

FRA_francosphere_decision_category = {

	FRA_decision_align_algeria = {
		icon = political_actions 
		cost = 50
		available = { 
			has_completed_focus = FRA_north_africa_sphere
		}
		days_remove = 60
		days_re_enable = 15
		is_good = yes 
		
		complete_effect = {
			ALG = {
				FRA_effect_francosphere_gain_french_influence_10 = yes
			}
		}
	}
	
	FRA_decision_align_morroco = {
		icon = political_actions 
		cost = 50
		available = { 
			has_completed_focus = FRA_north_africa_sphere
		}
		days_remove = 60
		days_re_enable = 15
		is_good = yes 
		
		complete_effect = {
			MOR = {
				FRA_effect_francosphere_gain_french_influence_10 = yes
			}
		}
	}
	
	FRA_decision_align_tunisia = {
		icon = political_actions 
		cost = 50
		available = { 
			has_completed_focus = FRA_north_africa_sphere
		}
		days_remove = 60
		days_re_enable = 15
		is_good = yes 
		
		complete_effect = {
			TUN = {
				FRA_effect_francosphere_gain_french_influence_10 = yes
			}
		}
	}
	
	FRA_decision_align_senegal = {
		icon = political_actions 
		cost = 50
		available = { 
			has_completed_focus = FRA_senegal
		}
		days_remove = 60
		days_re_enable = 15
		is_good = yes 
		
		complete_effect = {
			SEN = {
				FRA_effect_francosphere_gain_french_influence_10 = yes
			}
		}
	}
	
	FRA_decision_align_ivory_coast = {
		icon = political_actions
		cost = 50
		available = { 
			has_completed_focus = FRA_ivory_coast
		}
		days_remove = 60
		days_re_enable = 15
		is_good = yes 
		
		complete_effect = {
			CDI = {
				FRA_effect_francosphere_gain_french_influence_10 = yes
			}
		}
	}

	FRA_decision_align_madagascar = {
		icon = political_actions 
		cost = 50
		available = { 
			has_completed_focus = FRA_madagascar
		}
		days_remove = 60
		days_re_enable = 15
		is_good = yes 
		
		complete_effect = {
			MAD = {
				FRA_effect_francosphere_gain_french_influence_10 = yes
			}
		}
	}
	
	FRA_decision_align_lebanon = {
		icon = political_actions
		cost = 50		
		available = { 
			has_completed_focus = FRA_lebanon
		}
		days_remove = 60
		days_re_enable = 15
		is_good = yes 
		
		complete_effect = {
			LEB = {
				FRA_effect_francosphere_gain_french_influence_10 = yes
			}
		}
	}
	
	FRA_decision_align_syria = {
		icon = political_actions 
		cost = 50
		available = { 
			has_completed_focus = FRA_syria
		}
		days_remove = 60
		days_re_enable = 15
		is_good = yes 
		
		complete_effect = {
			SYR = {
				FRA_effect_francosphere_gain_french_influence_10 = yes
			}
		}
	}
	
	FRA_decision_align_indochina = {
		icon = political_actions 
		cost = 100
		available = {
			has_completed_focus = FRA_indochine_francaise
		}
		days_remove = 120
		days_re_enable = 30
		is_good = yes 
		
		complete_effect = {
			VIE = {
				FRA_effect_francosphere_gain_french_influence_10 = yes
			}
			LAO = {
				FRA_effect_francosphere_gain_french_influence_10 = yes
			}
			CBD = {
				FRA_effect_francosphere_gain_french_influence_10 = yes
			}
			
		}
	}
}