focus_tree = {

	id = serbia
	
	country = {
		factor = 0
		modifier = {
			add = 0
			tag = SER
		}
	}
	
	continuous_focus_position = { x = 1340 y = 400 }
	
	#Political development
	focus = {
		id = SER_political_development
		icon = tripartite_pact
		
		x = 8
		y = 0
		
		cost = 10
		
		prerequisite = { }
		mutually_exclusive = { }
		available = { }
		historical_ai = { }
		select_effect = { }
		bypass = { }
		cancel = { }

		cancel_if_invalid = yes
		continue_if_invalid = yes
		available_if_capitulated = no
		
		complete_tooltip = { }
		completion_reward = {
			add_political_power = 150
		}

		ai_will_do = {
			base = 10
		}
	}
	#Path to democracy
	focus = {
		id = SER_bulldozer_revolution
		icon = national_unity
		
		x = -3
		y = 1
		relative_position_id = SER_political_development
		
		cost = 10
		
		prerequisite = {
			focus = SER_political_development
		}
		mutually_exclusive = { focus = SER_forgive_milosevic }
		available = { }
		historical_ai = { }
		select_effect = { }
		bypass = { }
		cancel = { }

		cancel_if_invalid = yes
		continue_if_invalid = yes
		available_if_capitulated = no
		
		complete_tooltip = { }
		completion_reward = {
			add_popularity = {
				ideology = nationalist
				popularity = -0.15
			}

		}

		ai_will_do = {
			base = 10
		}
	}
	#Path to authoritarian regime
	focus = {
		id = SER_forgive_milosevic
		icon = propaganda
		
		x = 3
		y = 1
		relative_position_id = SER_political_development
		
		cost = 10
		
		prerequisite = {
			focus = SER_political_development
		}
		mutually_exclusive = { focus = SER_bulldozer_revolution }
		available = { }
		historical_ai = { }
		select_effect = { }
		bypass = { }
		cancel = { }

		cancel_if_invalid = yes
		continue_if_invalid = yes
		available_if_capitulated = no
		
		complete_tooltip = { }
		completion_reward = {
			add_popularity = {
				ideology = democratic
				popularity = -0.15
			}

		}

		ai_will_do = {
			base = 10
		}
	}

	#################################
	#	Path to Western outlook	#
	#################################

	focus = {
		id = SER_focus_on_liberty
		icon = democracy
		
		x = -11
		y = 1
		relative_position_id = SER_bulldozer_revolution
		
		cost = 10
		
		prerequisite = {
			focus = SER_bulldozer_revolution
		}
		mutually_exclusive = { focus = SER_the_eastern_path }
		available = { }
		historical_ai = { }
		select_effect = { }
		bypass = { }
		cancel = { }

		cancel_if_invalid = yes
		continue_if_invalid = yes
		available_if_capitulated = no
		
		complete_tooltip = { 
		}
		completion_reward = {
			add_political_power = 100
			add_popularity = {
				ideology = democratic
				popularity = 0.3
			}

		}

		ai_will_do = {
			base = 10
		}
	}

	focus = {
		id = SER_arrest_slodoban_milosevic
		icon = arrest_general_cedillo
		
		x = 0
		y = 1
		relative_position_id = SER_focus_on_liberty
		
		cost = 10
		
		prerequisite = {
			focus = SER_focus_on_liberty
		}
		mutually_exclusive = { }
		available = { }
		historical_ai = { }
		select_effect = { }
		bypass = { }
		cancel = { }

		cancel_if_invalid = yes
		continue_if_invalid = yes
		available_if_capitulated = no
		
		complete_tooltip = { }
		completion_reward = {
			if = {
				limit = { NOT = { has_government = democratic } }
				set_politics = {
				ruling_party = democratic
				}
			}
			

		}

		ai_will_do = {
			base = 10
		}
	}
	focus = {
		id = SER_end_journalist_assassination
		icon = self_management
		
		x = -1
		y = 1
		relative_position_id = SER_arrest_slodoban_milosevic
		
		cost = 10
		
		prerequisite = {
			focus = SER_arrest_slodoban_milosevic
		}
		mutually_exclusive = { }
		available = { }
		historical_ai = { }
		select_effect = { }
		bypass = { }
		cancel = { }

		cancel_if_invalid = yes
		continue_if_invalid = yes
		available_if_capitulated = no
		
		complete_tooltip = { }
		completion_reward = {

		}

		ai_will_do = {
			base = 10
		}
	}
	focus = {
		id = SER_put_an_end_to_nationalist_newspaper
		icon = renounce_treaty
		
		x = 1
		y = 1
		relative_position_id = SER_arrest_slodoban_milosevic
		
		cost = 10
		
		prerequisite = {
			focus = SER_arrest_slodoban_milosevic
		}
		mutually_exclusive = { }
		available = { }
		historical_ai = { }
		select_effect = { }
		bypass = { }
		cancel = { }

		cancel_if_invalid = yes
		continue_if_invalid = yes
		available_if_capitulated = no
		
		complete_tooltip = { }
		completion_reward = {
			add_popularity = {
				ideology = nationalist
				popularity = -0.15
			}
		}

		ai_will_do = {
			base = 10
		}
	}
	focus = {
		id = SER_fight_the_corruption
		icon = stolen_papers
		
		x = -1
		y = 1
		relative_position_id = SER_put_an_end_to_nationalist_newspaper
		
		cost = 10
		
		prerequisite = {
			focus = SER_put_an_end_to_nationalist_newspaper
		}
		prerequisite = {
			focus = SER_end_journalist_assassination
		}
		mutually_exclusive = { }
		available = { }
		historical_ai = { }
		select_effect = { }
		bypass = { }
		cancel = { }

		cancel_if_invalid = yes
		continue_if_invalid = yes
		available_if_capitulated = no
		
		complete_tooltip = { }
		completion_reward = {
			if = {
				limit = { has_idea = paralyzing_corruption }
				swap_ideas = { remove_idea = paralyzing_corruption add_idea = crippling_corruption }
			}
			if = {
				limit = { has_idea = crippling_corruption }
				swap_ideas = { remove_idea = crippling_corruption add_idea = rampant_corruption }
			}
			if = {
				limit = { has_idea = rampant_corruption }
				swap_ideas = { remove_idea = rampant_corruption add_idea = unrestrained_corruption }
			}
			if = {
				limit = { has_idea = unrestrained_corruption }
				swap_ideas = { remove_idea = unrestrained_corruption add_idea = systematic_corruption }
			}
			if = {
				limit = { has_idea = systematic_corruption }
				swap_ideas = { remove_idea = systematic_corruption add_idea = widespread_corruption }
			}
			if = {
				limit = { has_idea = widespread_corruption }
				swap_ideas = { remove_idea = widespread_corruption add_idea = medium_corruption }
			}
			if = {
				limit = { has_idea = medium_corruption }
				swap_ideas = { remove_idea = medium_corruption add_idea = modest_corruption }
			}
			if = {
				limit = { has_idea = modest_corruption }
				add_political_power = 150 #if desired corruption level is reached before PP is rewarded instead
			}
		}

		ai_will_do = {
			base = 10
		}
	}
	focus = {
		id = SER_recognize_kosovo
		icon = treaty3
		
		x = -2
		y = 1
		relative_position_id = SER_fight_the_corruption
		
		cost = 10
		
		prerequisite = {
			focus = SER_fight_the_corruption
		}
		mutually_exclusive = {
			focus = SER_give_more_autonomy_to_kosovo

		}
		available = { }
		historical_ai = { }
		select_effect = { }
		bypass = { }
		cancel = { }

		cancel_if_invalid = yes
		continue_if_invalid = yes
		available_if_capitulated = no
		
		complete_tooltip = { }
		completion_reward = {
			133 = { set_demilitarized_zone = no }
			if = {
				limit = { NOT = { country_exists = KOS }  }
				release = KOS
			}
		}

		ai_will_do = {
			base = 10
		}
	}
	focus = {
		id = SER_give_more_autonomy_to_kosovo
		icon = treaty
		
		x = 2
		y = 1
		relative_position_id = SER_fight_the_corruption
		
		cost = 10
		
		prerequisite = {
			focus = SER_fight_the_corruption
		}

		mutually_exclusive = {
			focus = SER_recognize_kosovo
		
		}
		available = { }
		historical_ai = { }
		select_effect = { }
		bypass = { }
		cancel = { }

		cancel_if_invalid = yes
		continue_if_invalid = yes
		available_if_capitulated = no
		
		complete_tooltip = { }
		completion_reward = {
			133 = { set_demilitarized_zone = no }
			if = {
				limit = { NOT = { country_exists = KOS }  }
				release_puppet = KOS
			}
			else = {
				set_autonomy = {
					target = KOS
					autonomy_state = autonomy_satellite_state
				}
			}

		}

		ai_will_do = {
			base = 10
		}
	}
	focus = {
		id = SER_apply_for_nato
		icon = nato
		
		x = -1
		y = 1
		relative_position_id = SER_recognize_kosovo
		
		cost = 10
		
		prerequisite = {
			focus = SER_recognize_kosovo
		}
		mutually_exclusive = { }
		available = { 
			has_government = democratic
			USA = { has_government = democratic }
			}
		historical_ai = { }
		select_effect = { }
		bypass = { }
		cancel = { }

		cancel_if_invalid = yes
		continue_if_invalid = yes
		available_if_capitulated = no
		
		complete_tooltip = { }
		completion_reward = {
			USA = {
				country_event = NATO.14
			}
		}

		ai_will_do = {
			base = 10
		}
	}
	focus = {
		id = SER_nato_military_advisors
		icon = nato3
		
		x = 0
		y = 1
		relative_position_id = SER_apply_for_nato
		
		cost = 10
		
		prerequisite = {
			focus = SER_apply_for_nato
		}
		mutually_exclusive = { }
		available = { }
		historical_ai = { }
		select_effect = { }
		bypass = { }
		cancel = { }

		cancel_if_invalid = yes
		continue_if_invalid = yes
		available_if_capitulated = no
		
		complete_tooltip = { }
		completion_reward = {
			army_experience = 30
			navy_experience = 30
			air_experience = 30
		}

		ai_will_do = {
			base = 10
		}
	}

	focus = {
		id = SER_apply_for_eu
		icon = align_to_europe
		
		x = 1
		y = 1
		relative_position_id = SER_recognize_kosovo
		
		cost = 10
		
		prerequisite = {
			focus = SER_recognize_kosovo
		}
		mutually_exclusive = { }
		available = { }
		historical_ai = { }
		select_effect = { }
		bypass = { }
		cancel = { }

		cancel_if_invalid = yes
		continue_if_invalid = yes
		available_if_capitulated = no
		
		complete_tooltip = { }
		completion_reward = {
			#EVENT
		}

		ai_will_do = {
			base = 10
		}
	}
	focus = {
		id = SER_the_european_integration
		icon = trade_with_europe
		
		x = 0
		y = 1
		relative_position_id = SER_apply_for_eu
		
		cost = 20
		
		prerequisite = {
			focus = SER_apply_for_eu
		}
		mutually_exclusive = { }
		available = { }
		historical_ai = { }
		select_effect = { }
		bypass = { }
		cancel = { }

		cancel_if_invalid = yes
		continue_if_invalid = yes
		available_if_capitulated = no
		
		complete_tooltip = { }
		completion_reward = {
			add_ideas = EU_member
		}

		ai_will_do = {
			base = 10
		}
	}
	focus = {
		id = SER_the_euro
		icon = euro
		
		x = 0
		y = 1
		relative_position_id = SER_the_european_integration
		
		cost = 10
		
		prerequisite = {
			focus = SER_the_european_integration
		}
		mutually_exclusive = { }
		available = { }
		historical_ai = { }
		select_effect = { }
		bypass = { }
		cancel = { }

		cancel_if_invalid = yes
		continue_if_invalid = yes
		available_if_capitulated = no
		
		complete_tooltip = { }
		completion_reward = {
			#Decrease debt
		}

		ai_will_do = {
			base = 10
		}
	}
	focus = {
		id = SER_the_budapest_belgrad_sofia_line
		icon = construct_infrastructure
		
		x = -2
		y = 1
		relative_position_id = SER_the_european_integration
		
		cost = 10
		
		prerequisite = {
			focus = SER_the_european_integration
		}
		mutually_exclusive = { }
		available = { }
		historical_ai = { }
		select_effect = { }
		bypass = { }
		cancel = { }

		cancel_if_invalid = yes
		continue_if_invalid = yes
		available_if_capitulated = no
		
		complete_tooltip = { }
		completion_reward = {
			121 = {
				add_building_construction = {
					type = infrastructure
					level = 1
					instant_build = yes
				}
			}
			122 = {
				add_building_construction = {
					type = infrastructure
					level = 1
					instant_build = yes
				}
			}
			130 = {
				add_building_construction = {
					type = infrastructure
					level = 1
					instant_build = yes
				}
			}
			131 = {
				add_building_construction = {
					type = infrastructure
					level = 1
					instant_build = yes
				}
			}
			132 = {
				add_building_construction = {
					type = infrastructure
					level = 1
					instant_build = yes
				}
			}
			153 = {
				add_building_construction = {
					type = infrastructure
					level = 1
					instant_build = yes
				}
			}

		}

		ai_will_do = {
			base = 10
		}
	}
	focus = {
		id = SER_seek_foreign_industrial_investments
		icon = global_community
		
		x = 0
		y = 1
		relative_position_id = SER_the_budapest_belgrad_sofia_line
		
		cost = 10
		
		prerequisite = {
			focus = SER_the_budapest_belgrad_sofia_line
		}
		mutually_exclusive = { }
		available = { }
		historical_ai = { }
		select_effect = { }
		bypass = { }
		cancel = { }

		cancel_if_invalid = yes
		continue_if_invalid = yes
		available_if_capitulated = no
		
		complete_tooltip = { }
		completion_reward = {
			add_offsite_building = { type = industrial_complex level = 2 }
		}

		ai_will_do = {
			base = 10
		}
	}

	focus = {
		id = SER_fiat_investments
		icon = motorized
		
		x = -1
		y = 1
		relative_position_id = SER_seek_foreign_industrial_investments
		
		cost = 10
		
		prerequisite = {
			focus = SER_seek_foreign_industrial_investments
		}
		mutually_exclusive = { 
			focus = SER_volkswagen_investments
		}
		available = { }
		historical_ai = { }
		select_effect = { }
		bypass = { }
		cancel = { }

		cancel_if_invalid = yes
		continue_if_invalid = yes
		available_if_capitulated = no
		
		complete_tooltip = { }
		completion_reward = {
			131 = {
				add_extra_state_shared_building_slots = 1
				add_building_construction = {
					type = industrial_complex
					level = 1
					instant_build = yes
				}

			}
			ITA = {
			add_opinion_modifier = {
				target = SER
				modifier = trade_mission
			} }
		}

		ai_will_do = {
			base = 10
		}
	}
	focus = {
		id = SER_volkswagen_investments
		icon = volkswagen
		
		x = 1
		y = 1
		relative_position_id = SER_seek_foreign_industrial_investments
		
		cost = 10
		
		prerequisite = {
			focus = SER_seek_foreign_industrial_investments
		}
		mutually_exclusive = { 
			focus = SER_fiat_investments
		}
		available = { }
		historical_ai = { }
		select_effect = { }
		bypass = { }
		cancel = { }

		cancel_if_invalid = yes
		continue_if_invalid = yes
		available_if_capitulated = no
		
		complete_tooltip = { }
		completion_reward = {
			132 = {
				add_extra_state_shared_building_slots = 1
				add_building_construction = {
					type = industrial_complex
					level = 1
					instant_build = yes
				}

			}
			GER = {
			add_opinion_modifier = {
				target = SER
				modifier = trade_mission
			} }

		}

		ai_will_do = {
			base = 10
		}
	}

	focus = {
		id = SER_improve_the_welfare_system
		icon = concessions
		
		x = 1
		y = 1
		relative_position_id = SER_the_euro
		
		cost = 10
		
		prerequisite = {
			focus = SER_the_euro
			focus = SER_balkan_trade_treaty
		}
		mutually_exclusive = { }
		available = { }
		historical_ai = { }
		select_effect = { }
		bypass = { }
		cancel = { }

		cancel_if_invalid = yes
		continue_if_invalid = yes
		available_if_capitulated = no
		
		complete_tooltip = { }
		completion_reward = {
			if = {
				limit = { has_idea = social_01 }
				swap_ideas = { remove_idea = social_01 add_idea = social_02 }
			}
			if = {
				limit = { has_idea = social_02 }
				swap_ideas = { remove_idea = social_02 add_idea = social_03 }
			}
			if = {
				limit = { has_idea = social_03 }
				swap_ideas = { remove_idea = social_03 add_idea = social_04 }
			}
			if = {
				limit = { has_idea = social_04 }
				swap_ideas = { remove_idea = social_04 add_idea = social_05 }
			}
			if = {
				limit = { has_idea = social_05 }
				swap_ideas = { remove_idea = social_05 add_idea = social_06 }
			}

		}

		ai_will_do = {
			base = 10
		}
	}

	focus = {
		id = SER_university_of_belgrad
		icon = research
		
		x = 0
		y = 1
		relative_position_id = SER_improve_the_welfare_system
		
		cost = 10
		
		prerequisite = {
			focus = SER_improve_the_welfare_system
		}
		mutually_exclusive = { }
		available = { }
		historical_ai = { }
		select_effect = { }
		bypass = { }
		cancel = { }

		cancel_if_invalid = yes
		continue_if_invalid = yes
		available_if_capitulated = no
		
		complete_tooltip = { }
		completion_reward = {
			add_research_slot = 2
		}

		ai_will_do = {
			base = 10
		}
	}

	focus = {
		id = SER_balkan_cooperation_pact
		icon = industry_democratic
		
		x = 0
		y = 1
		relative_position_id = SER_give_more_autonomy_to_kosovo
		
		cost = 10
		
		prerequisite = {
			focus = SER_give_more_autonomy_to_kosovo
		}
		mutually_exclusive = {
		}
		available = { 
				is_in_faction = no
		}
		historical_ai = { }
		select_effect = { }
		bypass = { }
		cancel = { }

		cancel_if_invalid = yes
		continue_if_invalid = yes
		available_if_capitulated = no
		
		complete_tooltip = { }
		completion_reward = {
			set_rule = {
				can_create_factions = yes
			}
			create_faction = "Balkan's Cooperation Pact"
		}

		ai_will_do = {
			base = 10
		}
	}

	focus = {
		id = SER_give_autonomy_to_montenegro
		icon = concessions2
		
		x = 2
		y = 1
		relative_position_id = SER_give_more_autonomy_to_kosovo
		
		cost = 10
		
		prerequisite = {
			focus = SER_give_more_autonomy_to_kosovo
		}
		mutually_exclusive = {
		}
		available = { }
		historical_ai = { }
		select_effect = { }
		bypass = { }
		cancel = { }

		cancel_if_invalid = yes
		continue_if_invalid = yes
		available_if_capitulated = no
		
		complete_tooltip = { }
		completion_reward = {
			if = {
				limit = { country_exists = MNT }
				set_autonomy = {
					target = MNT
					autonomy_state = autonomy_associated_state
				}
			}
			else = {
				release_puppet = MNT
				set_autonomy = {
					target = MNT
					autonomy_state = autonomy_autonomous_state
				}
			}
		}

		ai_will_do = {
			base = 10
		}
	}

	focus = {
		id = SER_balkan_cooperation_invite_bosnia
		icon = improve_relations_cyan
		
		x = 0
		y = 1
		relative_position_id = SER_balkan_cooperation_pact
		
		cost = 10
		
		prerequisite = {
			focus = SER_balkan_cooperation_pact
		}
		mutually_exclusive = {
		}
		available = { }
		historical_ai = { }
		select_effect = { }
		bypass = { }
		cancel = { }

		cancel_if_invalid = yes
		continue_if_invalid = yes
		available_if_capitulated = no
		
		complete_tooltip = { }
		completion_reward = {
			add_to_faction = BOS #Replace this by an event later
		}

		ai_will_do = {
			base = 10
		}
	}

	focus = {
		id = SER_balkan_cooperation_invite_macedonia
		icon = improve_relations_blue
		
		x = 2
		y = 1
		relative_position_id = SER_balkan_cooperation_pact
		
		cost = 10
		
		prerequisite = {
			focus = SER_balkan_cooperation_pact
		}
		mutually_exclusive = {
		}
		available = { }
		historical_ai = { }
		select_effect = { }
		bypass = { }
		cancel = { }

		cancel_if_invalid = yes
		continue_if_invalid = yes
		available_if_capitulated = no
		
		complete_tooltip = { }
		completion_reward = {
			add_to_faction = FYR #Replace this by an event later

		}

		ai_will_do = {
			base = 10
		}
	}

	focus = {
		id = SER_balkan_trade_treaty
		icon = neutrality
		
		x = -1
		y = 1
		relative_position_id = SER_balkan_cooperation_invite_macedonia
		
		cost = 10
		
		prerequisite = {
			focus = SER_balkan_cooperation_invite_macedonia
		}
		prerequisite = {
			focus = SER_balkan_cooperation_invite_bosnia
		}
		mutually_exclusive = {
		}
		available = { }
		historical_ai = { }
		select_effect = { }
		bypass = { }
		cancel = { }

		cancel_if_invalid = yes
		continue_if_invalid = yes
		available_if_capitulated = no
		
		complete_tooltip = { }
		completion_reward = {
			131 = {
				add_building_construction = {
					type = infrastructure
					level = 1
					instant_build = yes
				}
			}
			134 = {
				add_building_construction = {
					type = infrastructure
					level = 1
					instant_build = yes
				}
			}
			133 = {
				add_building_construction = {
					type = infrastructure
					level = 1
					instant_build = yes
				}
			}
		}

		ai_will_do = {
			base = 10
		}
	}

	focus = {
		id = SER_befriend_neighbours
		icon = tripartite_pact
		
		x = 1
		y = 1
		relative_position_id = SER_balkan_trade_treaty
		
		cost = 10
		
		prerequisite = {
			focus = SER_balkan_trade_treaty
		}
		mutually_exclusive = {
		}
		available = { }
		historical_ai = { }
		select_effect = { }
		bypass = { }
		cancel = { }

		cancel_if_invalid = yes
		continue_if_invalid = yes
		available_if_capitulated = no
		
		complete_tooltip = { }
		completion_reward = {
			ALB = {
				add_opinion_modifier = {
					target = SER
					modifier = has_expressed_loyalty
				}
			}
			BUL = {
				add_opinion_modifier = {
					target = SER
					modifier = has_expressed_loyalty
				}
			}
			CRO = {
				add_opinion_modifier = {
					target = SER
					modifier = has_expressed_loyalty
				}
			}
		}

		ai_will_do = {
			base = 10
		}
	}

	focus = {
		id = SER_develop_national_car_industry
		icon = industry_civilian
		
		x = 4
		y = 1
		relative_position_id = SER_balkan_trade_treaty
		
		cost = 10
		
		prerequisite = {
			focus = SER_balkan_trade_treaty
			focus = SER_industrial_cooperation_with_the_east
		}
		mutually_exclusive = {
		}
		available = { }
		historical_ai = { }
		select_effect = { }
		bypass = { }
		cancel = { }

		cancel_if_invalid = yes
		continue_if_invalid = yes
		available_if_capitulated = no
		
		complete_tooltip = { }
		completion_reward = {
		131 = {
			add_building_construction = {
			type = industrial_complex
   			level = 1
			instant_build = yes
			}
			add_extra_state_shared_building_slots = 1
		} }

		ai_will_do = {
			base = 10
		}
	}

	focus = {
		id = SER_zastava_automobili
		icon = motorized
		
		x = 0
		y = 1
		relative_position_id = SER_develop_national_car_industry
		
		cost = 10
		
		prerequisite = {
			focus = SER_develop_national_car_industry
		}
		mutually_exclusive = {
		}
		available = { }
		historical_ai = { }
		select_effect = { }
		bypass = { }
		cancel = { }

		cancel_if_invalid = yes
		continue_if_invalid = yes
		available_if_capitulated = no
		
		complete_tooltip = { }
		completion_reward = {
		131 = {
			add_building_construction = {
			type = industrial_complex
   			level = 1
			instant_build = yes
			}
			add_extra_state_shared_building_slots = 1
			}
		}

		ai_will_do = {
			base = 10
		}
	}

	focus = {
		id = SER_balkan_cooperation_invite_croatia
		icon = improve_relations_orange
		
		x = -1
		y = 1
		relative_position_id = SER_befriend_neighbours
		
		cost = 10
		
		prerequisite = {
			focus = SER_befriend_neighbours
		}
		mutually_exclusive = {
		}
		available = { }
		historical_ai = { }
		select_effect = { }
		bypass = { }
		cancel = { }

		cancel_if_invalid = yes
		continue_if_invalid = yes
		available_if_capitulated = no
		
		complete_tooltip = { 

		}
		completion_reward = {
			add_to_faction = CRO #Replace this by an event later

		}

		ai_will_do = {
			base = 10
		}
	}

	focus = {
		id = SER_balkan_cooperation_invite_albania
		icon = improve_relations_purple
		
		x = 1
		y = 1
		relative_position_id = SER_befriend_neighbours
		
		cost = 10
		
		prerequisite = {
			focus = SER_befriend_neighbours
		}
		mutually_exclusive = {
		}
		available = { }
		historical_ai = { }
		select_effect = { }
		bypass = { }
		cancel = { }

		cancel_if_invalid = yes
		continue_if_invalid = yes
		available_if_capitulated = no
		
		complete_tooltip = { }
		completion_reward = {
			add_to_faction = ALB #Replace this by an event later

		}

		ai_will_do = {
			base = 10
		}
	}

	focus = {
		id = SER_balkan_cooperation_invite_bulgaria
		icon = improve_relations_green
		
		x = -1
		y = 1
		relative_position_id = SER_balkan_cooperation_invite_albania
		
		cost = 10
		
		prerequisite = {
			focus = SER_balkan_cooperation_invite_albania
			focus = SER_balkan_cooperation_invite_croatia
		}
		mutually_exclusive = {
		}
		available = { }
		historical_ai = { }
		select_effect = { }
		bypass = { }
		cancel = { }

		cancel_if_invalid = yes
		continue_if_invalid = yes
		available_if_capitulated = no
		
		complete_tooltip = { }
		completion_reward = {
			add_to_faction = BUL #Replace this by an event later

		}

		ai_will_do = {
			base = 10
		}
	}


	#################################
	#	Path to emerging outlook   #
	#################################

	focus = {
		id = SER_the_eastern_path
		icon = demand_territory2
		
		x = -3
		y = 1
		relative_position_id = SER_bulldozer_revolution
		
		cost = 10
		
		prerequisite = {
			focus = SER_bulldozer_revolution
		}
		mutually_exclusive = { focus = SER_focus_on_liberty }
		available = { }
		historical_ai = { }
		select_effect = { }
		bypass = { }
		cancel = { }

		cancel_if_invalid = yes
		continue_if_invalid = yes
		available_if_capitulated = no
		
		complete_tooltip = { }
		completion_reward = {

		}

		ai_will_do = {
			base = 10
		}
	}
	focus = {
		id = SER_free_trade_with_russia
		icon = trade_with_russia
		
		x = -1
		y = 1
		relative_position_id = SER_the_eastern_path
		
		cost = 10
		
		prerequisite = {
			focus = SER_the_eastern_path
		}
		mutually_exclusive = { }
		available = { }
		historical_ai = { }
		select_effect = { }
		bypass = { }
		cancel = { }

		cancel_if_invalid = yes
		continue_if_invalid = yes
		available_if_capitulated = no
		
		complete_tooltip = { }
		completion_reward = {

		}

		ai_will_do = {
			base = 10
		}
	}

	focus = {
		id = SER_befriend_vladimir
		icon = putin
		
		x = 1
		y = 1
		relative_position_id = SER_the_eastern_path
		
		cost = 10
		
		prerequisite = {
			focus = SER_the_eastern_path
		}
		mutually_exclusive = { }
		available = { }
		historical_ai = { }
		select_effect = { }
		bypass = { }
		cancel = { }

		cancel_if_invalid = yes
		continue_if_invalid = yes
		available_if_capitulated = no
		
		complete_tooltip = { }
		completion_reward = {

		}

		ai_will_do = {
			base = 10
		}
	}

	focus = {
		id = SER_rehold_elections
		icon = democracy5
		
		x = -1
		y = 1
		relative_position_id = SER_befriend_vladimir
		
		cost = 10
		
		prerequisite = {
			focus = SER_befriend_vladimir
			focus = SER_free_trade_with_russia
		}
		mutually_exclusive = { }
		available = { }
		historical_ai = { }
		select_effect = { }
		bypass = { }
		cancel = { }

		cancel_if_invalid = yes
		continue_if_invalid = yes
		available_if_capitulated = no
		
		complete_tooltip = { }
		completion_reward = {

		}

		ai_will_do = {
			base = 10
		}
	}

	focus = {
		id = SER_befrind_bricks
		icon = volunteer_alliance
		
		x = -1
		y = 1
		relative_position_id = SER_rehold_elections
		
		cost = 10
		
		prerequisite = {
			focus = SER_rehold_elections
		}
		mutually_exclusive = { }
		available = { }
		historical_ai = { }
		select_effect = { }
		bypass = { }
		cancel = { }

		cancel_if_invalid = yes
		continue_if_invalid = yes
		available_if_capitulated = no
		
		complete_tooltip = { }
		completion_reward = {

		}

		ai_will_do = {
			base = 10
		}
	}

	focus = {
		id = SER_china_investments
		icon = peoples_republic_of_china
		
		x = 0
		y = 1
		relative_position_id = SER_befrind_bricks
		
		cost = 10
		
		prerequisite = {
			focus = SER_befrind_bricks
		}
		mutually_exclusive = { }
		available = { }
		historical_ai = { }
		select_effect = { }
		bypass = { }
		cancel = { }

		cancel_if_invalid = yes
		continue_if_invalid = yes
		available_if_capitulated = no
		
		complete_tooltip = { }
		completion_reward = {

		}

		ai_will_do = {
			base = 10
		}
	}

	focus = {
		id = SER_apply_for_csto
		icon = align_to_csto
		
		x = 1
		y = 1
		relative_position_id = SER_rehold_elections
		
		cost = 10
		
		prerequisite = {
			focus = SER_rehold_elections
		}
		mutually_exclusive = { }
		available = { }
		historical_ai = { }
		select_effect = { }
		bypass = { }
		cancel = { }

		cancel_if_invalid = yes
		continue_if_invalid = yes
		available_if_capitulated = no
		
		complete_tooltip = { }
		completion_reward = {

		}
	}

	focus = {
		id = SER_joint_military_exercises
		icon = military_mission2
		
		x = 0
		y = 1
		relative_position_id = SER_apply_for_csto
		
		cost = 10
		
		prerequisite = {
			focus = SER_apply_for_csto
		}
		mutually_exclusive = { }
		available = { }
		historical_ai = { }
		select_effect = { }
		bypass = { }
		cancel = { }

		cancel_if_invalid = yes
		continue_if_invalid = yes
		available_if_capitulated = no
		
		complete_tooltip = { }
		completion_reward = {

		}
	}

	focus = {
		id = SER_industrial_cooperation_with_the_east
		icon = industry_civilian
		
		x = 0
		y = 1
		relative_position_id = SER_china_investments
		
		cost = 10
		
		prerequisite = {
			focus = SER_china_investments
			focus = SER_joint_military_exercises
		}
		mutually_exclusive = { }
		available = { }
		historical_ai = { }
		select_effect = { }
		bypass = { }
		cancel = { }

		cancel_if_invalid = yes
		continue_if_invalid = yes
		available_if_capitulated = no
		
		complete_tooltip = { }
		completion_reward = {

		}
	}

	focus = {
		id = SER_pipeline_from_the_east
		icon = oil_trade
		
		x = 0
		y = 1
		relative_position_id = SER_industrial_cooperation_with_the_east
		
		cost = 10
		
		prerequisite = {
			focus = SER_industrial_cooperation_with_the_east
		}
		mutually_exclusive = { }
		available = { }
		historical_ai = { }
		select_effect = { }
		bypass = { }
		cancel = { }

		cancel_if_invalid = yes
		continue_if_invalid = yes
		available_if_capitulated = no
		
		complete_tooltip = { }
		completion_reward = {

		}
	}

	focus = {
		id = SER_technological_alliance_with_russia
		icon = research2
		
		x = 2
		y = 1
		relative_position_id = SER_china_investments
		
		cost = 10
		
		prerequisite = {
			focus = SER_joint_military_exercises
		}
		mutually_exclusive = { }
		available = { }
		historical_ai = { }
		select_effect = { }
		bypass = { }
		cancel = { }

		cancel_if_invalid = yes
		continue_if_invalid = yes
		available_if_capitulated = no
		
		complete_tooltip = { }
		completion_reward = {

		}
	}

	focus = {
		id = SER_refuse_kosovo_independance
		icon = deadly_deal
		
		x = 0
		y = 1
		relative_position_id = SER_technological_alliance_with_russia
		
		cost = 10
		
		prerequisite = {
			focus = SER_technological_alliance_with_russia
		}
		mutually_exclusive = { }
		available = { }
		historical_ai = { }
		select_effect = { }
		bypass = { }
		cancel = { }

		cancel_if_invalid = yes
		continue_if_invalid = yes
		available_if_capitulated = no
		
		complete_tooltip = { }
		completion_reward = {

		}
	}

	focus = {
		id = SER_befriend_montenegro
		icon = improve_relations
		
		x = -1
		y = 1
		relative_position_id = SER_refuse_kosovo_independance
		
		cost = 10
		
		prerequisite = {
			focus = SER_refuse_kosovo_independance
		}
		mutually_exclusive = { }
		available = { }
		historical_ai = { }
		select_effect = { }
		bypass = { }
		cancel = { }

		cancel_if_invalid = yes
		continue_if_invalid = yes
		available_if_capitulated = no
		
		complete_tooltip = { }
		completion_reward = {

		}
	}

	focus = {
		id = SER_invite_montenegro_to_csto
		icon = race_relations2
		
		x = 1
		y = 1
		relative_position_id = SER_befriend_montenegro
		
		cost = 10
		
		prerequisite = {
			focus = SER_befriend_montenegro
		}
		mutually_exclusive = { }
		available = { }
		historical_ai = { }
		select_effect = { }
		bypass = { }
		cancel = { }

		cancel_if_invalid = yes
		continue_if_invalid = yes
		available_if_capitulated = no
		
		complete_tooltip = { }
		completion_reward = {

		}
	}

	focus = {
		id = SER_the_conscription_reform
		icon = conscription
		
		x = 1
		y = 1
		relative_position_id = SER_refuse_kosovo_independance
		
		cost = 10
		
		prerequisite = {
			focus = SER_refuse_kosovo_independance
		}
		mutually_exclusive = { }
		available = { }
		historical_ai = { }
		select_effect = { }
		bypass = { }
		cancel = { }

		cancel_if_invalid = yes
		continue_if_invalid = yes
		available_if_capitulated = no
		
		complete_tooltip = { }
		completion_reward = {

		}
	}
	#################################
	#	Path to nationalism		#
	#################################

	focus = {
		id = SER_arrest_the_leader_of_opposition
		icon = arrest_general_cedillo
		
		x = -1
		y = 1
		relative_position_id = SER_forgive_milosevic
		
		cost = 10
		
		prerequisite = {
			focus = SER_forgive_milosevic
		}
		mutually_exclusive = { focus = SER_nostalgia_of_the_past }
		available = { }
		historical_ai = { }
		select_effect = { }
		bypass = { }
		cancel = { }

		cancel_if_invalid = yes
		continue_if_invalid = yes
		available_if_capitulated = no
		
		complete_tooltip = { }
		completion_reward = {

		}

		ai_will_do = {
			base = 10
		}
	}

	focus = {
		id = SER_promote_the_nationalism
		icon = fascism
		
		x = 0
		y = 1
		relative_position_id = SER_arrest_the_leader_of_opposition
		
		cost = 10
		
		prerequisite = {
			focus = SER_arrest_the_leader_of_opposition
		}
		mutually_exclusive = { }
		available = { }
		historical_ai = { }
		select_effect = { }
		bypass = { }
		cancel = { }

		cancel_if_invalid = yes
		continue_if_invalid = yes
		available_if_capitulated = no
		
		complete_tooltip = { }
		completion_reward = {

		}

		ai_will_do = {
			base = 10
		}
	}

	focus = {
		id = SER_put_an_end_to_liberty_of_speech
		icon = continuous_restrict_freedom
		
		x = -1
		y = 1
		relative_position_id = SER_promote_the_nationalism
		
		cost = 10
		
		prerequisite = {
			focus = SER_promote_the_nationalism
		}
		mutually_exclusive = { }
		available = { }
		historical_ai = { }
		select_effect = { }
		bypass = { }
		cancel = { }

		cancel_if_invalid = yes
		continue_if_invalid = yes
		available_if_capitulated = no
		
		complete_tooltip = { }
		completion_reward = {

		}

		ai_will_do = {
			base = 10
		}
	}

	focus = {
		id = SER_limit_the_freedom_of_religion
		icon = islamophobia2
		
		x = 1
		y = 1
		relative_position_id = SER_promote_the_nationalism
		
		cost = 10
		
		prerequisite = {
			focus = SER_promote_the_nationalism
		}
		mutually_exclusive = { }
		available = { }
		historical_ai = { }
		select_effect = { }
		bypass = { }
		cancel = { }

		cancel_if_invalid = yes
		continue_if_invalid = yes
		available_if_capitulated = no
		
		complete_tooltip = { }
		completion_reward = {

		}

		ai_will_do = {
			base = 10
		}
	}

	focus = {
		id = SER_claim_the_old_yugoslavian_borders
		icon = position_armies
		
		x = -1
		y = 1
		relative_position_id = SER_limit_the_freedom_of_religion
		
		cost = 10
		
		prerequisite = {
			focus = SER_put_an_end_to_liberty_of_speech
			focus = SER_limit_the_freedom_of_religion
		}
		mutually_exclusive = { }
		available = { }
		historical_ai = { }
		select_effect = { }
		bypass = { }
		cancel = { }

		cancel_if_invalid = yes
		continue_if_invalid = yes
		available_if_capitulated = no
		
		complete_tooltip = { }
		completion_reward = {

		}

		ai_will_do = {
			base = 10
		}
	}

	focus = {
		id = SER_secure_the_access_to_the_see
		icon = political_pressure_blue
		
		x = -1
		y = 1
		relative_position_id = SER_claim_the_old_yugoslavian_borders
		
		cost = 10
		
		prerequisite = {
			focus = SER_claim_the_old_yugoslavian_borders
		}
		mutually_exclusive = { }
		available = { }
		historical_ai = { }
		select_effect = { }
		bypass = { }
		cancel = { }

		cancel_if_invalid = yes
		continue_if_invalid = yes
		available_if_capitulated = no
		
		complete_tooltip = { }
		completion_reward = {

		}

		ai_will_do = {
			base = 10
		}
	}

	focus = {
		id = SER_ultimatum_to_bosnia
		icon = ultimatum
		
		x = 1
		y = 1
		relative_position_id = SER_claim_the_old_yugoslavian_borders
		
		cost = 10
		
		prerequisite = {
			focus = SER_claim_the_old_yugoslavian_borders
		}
		mutually_exclusive = { }
		available = { }
		historical_ai = { }
		select_effect = { }
		bypass = { }
		cancel = { }

		cancel_if_invalid = yes
		continue_if_invalid = yes
		available_if_capitulated = no
		
		complete_tooltip = { }
		completion_reward = {

		}

		ai_will_do = {
			base = 10
		}
	}

	focus = {
		id = SER_form_greater_yugoslavia
		icon = lion
		
		x = -1
		y = 1
		relative_position_id = SER_ultimatum_to_bosnia
		
		cost = 10
		
		prerequisite = {
			focus = SER_ultimatum_to_bosnia
		}
		prerequisite = {
			focus = SER_secure_the_access_to_the_see
		}
		mutually_exclusive = { }
		available = { }
		historical_ai = { }
		select_effect = { }
		bypass = { }
		cancel = { }

		cancel_if_invalid = yes
		continue_if_invalid = yes
		available_if_capitulated = no
		
		complete_tooltip = { }
		completion_reward = {

		}

		ai_will_do = {
			base = 10
		}
	}

	focus = {
		id = SER_protect_serbian_minorities_in_kosovo
		icon = flames_of_rebellion
		
		x = 2
		y = 1
		relative_position_id = SER_ultimatum_to_bosnia
		
		cost = 10
		
		prerequisite = {
			focus = SER_ultimatum_to_bosnia
			focus = SER_secure_the_access_to_the_see
		}
		mutually_exclusive = { }
		available = { }
		historical_ai = { }
		select_effect = { }
		bypass = { }
		cancel = { }

		cancel_if_invalid = yes
		continue_if_invalid = yes
		available_if_capitulated = no
		
		complete_tooltip = { }
		completion_reward = {

		}

		ai_will_do = {
			base = 10
		}
	}

	focus = {
		id = SER_strengthen_the_slavic_identity
		icon = orthodox_patriarchy
		
		x = -2
		y = 1
		relative_position_id = SER_form_greater_yugoslavia
		
		cost = 10
		
		prerequisite = {
			focus = SER_form_greater_yugoslavia
		}
		mutually_exclusive = { }
		available = { }
		historical_ai = { }
		select_effect = { }
		bypass = { }
		cancel = { }

		cancel_if_invalid = yes
		continue_if_invalid = yes
		available_if_capitulated = no
		
		complete_tooltip = { }
		completion_reward = {

		}

		ai_will_do = {
			base = 10
		}
	}

	focus = {
		id = SER_nationalism_befriend_russia
		icon = align_to_russia
		
		x = -2
		y = 1
		relative_position_id = SER_strengthen_the_slavic_identity
		
		cost = 10
		
		prerequisite = {
			focus = SER_strengthen_the_slavic_identity
		}
		mutually_exclusive = { }
		available = { }
		historical_ai = { }
		select_effect = { }
		bypass = { }
		cancel = { }

		cancel_if_invalid = yes
		continue_if_invalid = yes
		available_if_capitulated = no
		
		complete_tooltip = { }
		completion_reward = {

		}

		ai_will_do = {
			base = 10
		}
	}

	focus = {
		id = SER_improve_the_research_budget
		icon = continuous_research
		
		x = -1
		y = 1
		relative_position_id = SER_nationalism_befriend_russia
		
		cost = 10
		
		prerequisite = {
			focus = SER_nationalism_befriend_russia
			focus = SER_technological_alliance_with_russia
		}
		mutually_exclusive = { }
		available = { }
		historical_ai = { }
		select_effect = { }
		bypass = { }
		cancel = { }

		cancel_if_invalid = yes
		continue_if_invalid = yes
		available_if_capitulated = no
		
		complete_tooltip = { }
		completion_reward = {

		}

		ai_will_do = {
			base = 10
		}
	}

	focus = {
		id = SER_zastava_arms
		icon = grenade
		
		x = -1
		y = 1
		relative_position_id = SER_improve_the_research_budget
		
		cost = 10
		
		prerequisite = {
			focus = SER_improve_the_research_budget
		}
		mutually_exclusive = { 
			focus = SER_srbijagas
		}
		available = { }
		historical_ai = { }
		select_effect = { }
		bypass = { }
		cancel = { }

		cancel_if_invalid = yes
		continue_if_invalid = yes
		available_if_capitulated = no
		
		complete_tooltip = { }
		completion_reward = {

		}

		ai_will_do = {
			base = 10
		}
	}

	focus = {
		id = SER_krusik_valjevo
		icon = small_arms2
		
		x = 0
		y = 1
		relative_position_id = SER_zastava_arms
		
		cost = 10
		
		prerequisite = {
			focus = SER_zastava_arms
		}
		available = { }
		historical_ai = { }
		select_effect = { }
		bypass = { }
		cancel = { }

		cancel_if_invalid = yes
		continue_if_invalid = yes
		available_if_capitulated = no
		
		complete_tooltip = { }
		completion_reward = {

		}

		ai_will_do = {
			base = 10
		}
	}

	focus = {
		id = SER_srbijagas
		icon = small_arms2
		
		x = 1
		y = 1
		relative_position_id = SER_improve_the_research_budget
		
		cost = 10
		
		prerequisite = {
			focus = SER_improve_the_research_budget
		}
		mutually_exclusive = { 
			focus = SER_zastava_arms
		}
		available = { }
		historical_ai = { }
		select_effect = { }
		bypass = { }
		cancel = { }

		cancel_if_invalid = yes
		continue_if_invalid = yes
		available_if_capitulated = no
		
		complete_tooltip = { }
		completion_reward = {

		}

		ai_will_do = {
			base = 10
		}
	}

	focus = {
		id = SER_nicolas_tesla_powerplant
		icon = industry2
		
		x = 0
		y = 1
		relative_position_id = SER_srbijagas
		
		cost = 10
		
		prerequisite = {
			focus = SER_srbijagas
		}
		mutually_exclusive = { }
		available = { }
		historical_ai = { }
		select_effect = { }
		bypass = { }
		cancel = { }

		cancel_if_invalid = yes
		continue_if_invalid = yes
		available_if_capitulated = no
		
		complete_tooltip = { }
		completion_reward = {

		}

		ai_will_do = {
			base = 10
		}
	}

	focus = {
		id = SER_expend_the_industrial_zones
		icon = industry3
		
		x = -1
		y = 1
		relative_position_id = SER_nicolas_tesla_powerplant
		
		cost = 10
		
		prerequisite = {
			focus = SER_krusik_valjevo
			focus = SER_nicolas_tesla_powerplant
		}
		mutually_exclusive = { }
		available = { }
		historical_ai = { }
		select_effect = { }
		bypass = { }
		cancel = { }

		cancel_if_invalid = yes
		continue_if_invalid = yes
		available_if_capitulated = no
		
		complete_tooltip = { }
		completion_reward = {

		}

		ai_will_do = {
			base = 10
		}
	}

	focus = {
		id = SER_the_serbian_youth
		icon = conscription
		
		x = 0
		y = 1
		relative_position_id = SER_strengthen_the_slavic_identity
		
		cost = 10
		
		prerequisite = {
			focus = SER_strengthen_the_slavic_identity
		}
		mutually_exclusive = { }
		available = { }
		historical_ai = { }
		select_effect = { }
		bypass = { }
		cancel = { }

		cancel_if_invalid = yes
		continue_if_invalid = yes
		available_if_capitulated = no
		
		complete_tooltip = { }
		completion_reward = {

		}

		ai_will_do = {
			base = 10
		}
	}


	focus = {
		id = SER_the_serbian_orthodox_church
		icon = orthodox_reform
		
		x = 0
		y = 1
		relative_position_id = SER_the_serbian_youth
		
		cost = 10
		
		prerequisite = {
			focus = SER_the_serbian_youth
		}
		mutually_exclusive = { }
		available = { }
		historical_ai = { }
		select_effect = { }
		bypass = { }
		cancel = { }

		cancel_if_invalid = yes
		continue_if_invalid = yes
		available_if_capitulated = no
		
		complete_tooltip = { }
		completion_reward = {

		}

		ai_will_do = {
			base = 10
		}
	}

	focus = {
		id = SER_threaten_croatia
		icon = banovina_of_croatia
		
		x = 0
		y = 1
		relative_position_id = SER_form_greater_yugoslavia
		
		cost = 10
		
		prerequisite = {
			focus = SER_form_greater_yugoslavia
		}
		mutually_exclusive = { }
		available = { }
		historical_ai = { }
		select_effect = { }
		bypass = { }
		cancel = { }

		cancel_if_invalid = yes
		continue_if_invalid = yes
		available_if_capitulated = no
		
		complete_tooltip = { }
		completion_reward = {

		}

		ai_will_do = {
			base = 10
		}
	}

	focus = {
		id = SER_invade_slovenia
		icon = ultimatum
		
		x = 0
		y = 1
		relative_position_id = SER_threaten_croatia
		
		cost = 10
		
		prerequisite = {
			focus = SER_threaten_croatia
		}
		mutually_exclusive = { }
		available = { }
		historical_ai = { }
		select_effect = { }
		bypass = { }
		cancel = { }

		cancel_if_invalid = yes
		continue_if_invalid = yes
		available_if_capitulated = no
		
		complete_tooltip = { }
		completion_reward = {

		}

		ai_will_do = {
			base = 10
		}
	}

	focus = {
		id = SER_retake_nothern_macedonia
		icon = war4
		
		x = 2
		y = 1
		relative_position_id = SER_form_greater_yugoslavia
		
		cost = 10
		
		prerequisite = {
			focus = SER_form_greater_yugoslavia
		}
		prerequisite = {
			focus = SER_protect_serbian_minorities_in_kosovo
		}
		mutually_exclusive = { }
		available = { }
		historical_ai = { }
		select_effect = { }
		bypass = { }
		cancel = { }

		cancel_if_invalid = yes
		continue_if_invalid = yes
		available_if_capitulated = no
		
		complete_tooltip = { }
		completion_reward = {

		}

		ai_will_do = {
			base = 10
		}
	}

	focus = {
		id = SER_claim_greek_macedonia
		icon = ultimatum
		
		x = 0
		y = 1
		relative_position_id = SER_retake_nothern_macedonia
		
		cost = 10
		
		prerequisite = {
			focus = SER_retake_nothern_macedonia
		}
		mutually_exclusive = { }
		available = { }
		historical_ai = { }
		select_effect = { }
		bypass = { }
		cancel = { }

		cancel_if_invalid = yes
		continue_if_invalid = yes
		available_if_capitulated = no
		
		complete_tooltip = { }
		completion_reward = {

		}

		ai_will_do = {
			base = 10
		}
	}

	focus = {
		id = SER_claim_bulgaria
		icon = attack_democracy2
		
		x = 1
		y = 1
		relative_position_id = SER_claim_greek_macedonia
		
		cost = 10
		
		prerequisite = {
			focus = SER_claim_greek_macedonia
		}
		mutually_exclusive = { 
			focus = SER_influence_bulgaria
		}
		available = { }
		historical_ai = { }
		select_effect = { }
		bypass = { }
		cancel = { }

		cancel_if_invalid = yes
		continue_if_invalid = yes
		available_if_capitulated = no
		
		complete_tooltip = { }
		completion_reward = {

		}

		ai_will_do = {
			base = 10
		}
	}

	focus = {
		id = SER_ultimatum_to_bulgaria
		icon = ultimatum2
		
		x = 0
		y = 1
		relative_position_id = SER_claim_bulgaria
		
		cost = 10
		
		prerequisite = {
			focus = SER_claim_bulgaria
		}
		available = { }
		historical_ai = { }
		select_effect = { }
		bypass = { }
		cancel = { }

		cancel_if_invalid = yes
		continue_if_invalid = yes
		available_if_capitulated = no
		
		complete_tooltip = { }
		completion_reward = {

		}

		ai_will_do = {
			base = 10
		}
	}

	focus = {
		id = SER_influence_bulgaria
		icon = propaganda
		
		x = -1
		y = 1
		relative_position_id = SER_claim_greek_macedonia
		
		cost = 10
		
		prerequisite = {
			focus = SER_claim_greek_macedonia
		}
		mutually_exclusive = { 
			focus = SER_claim_bulgaria
		}
		available = { }
		historical_ai = { }
		select_effect = { }
		bypass = { }
		cancel = { }

		cancel_if_invalid = yes
		continue_if_invalid = yes
		available_if_capitulated = no
		
		complete_tooltip = { }
		completion_reward = {

		}

		ai_will_do = {
			base = 10
		}
	}

	focus = {
		id = SER_stage_a_coup_in_bulgaria
		icon = infiltration
		
		x = 0
		y = 1
		relative_position_id = SER_influence_bulgaria
		
		cost = 10
		
		prerequisite = {
			focus = SER_influence_bulgaria
		}
		available = { }
		historical_ai = { }
		select_effect = { }
		bypass = { }
		cancel = { }

		cancel_if_invalid = yes
		continue_if_invalid = yes
		available_if_capitulated = no
		
		complete_tooltip = { }
		completion_reward = {

		}

		ai_will_do = {
			base = 10
		}
	}

	focus = {
		id = SER_ultimatum_to_greece
		icon = attack_greece
		
		x = 3
		y = 1
		relative_position_id = SER_claim_greek_macedonia
		
		cost = 10
		
		prerequisite = {
			focus = SER_claim_greek_macedonia
		}
		mutually_exclusive = { }
		available = { }
		historical_ai = { }
		select_effect = { }
		bypass = { }
		cancel = { }

		cancel_if_invalid = yes
		continue_if_invalid = yes
		available_if_capitulated = no
		
		complete_tooltip = { }
		completion_reward = {

		}

		ai_will_do = {
			base = 10
		}
	}

	focus = {
		id = SER_secure_the_bosphore
		icon = attack_turkey
		
		x = 0
		y = 3
		relative_position_id = SER_invade_slovenia
		
		cost = 10
		
		prerequisite = {
			focus = SER_invade_slovenia
		}
		prerequisite = {
			focus = SER_the_serbian_orthodox_church
		}
		prerequisite = {
			focus = SER_stage_a_coup_in_bulgaria
			focus = SER_ultimatum_to_bulgaria
		}
		mutually_exclusive = { }
		available = { }
		historical_ai = { }
		select_effect = { }
		bypass = { }
		cancel = { }

		cancel_if_invalid = yes
		continue_if_invalid = yes
		available_if_capitulated = no
		
		complete_tooltip = { }
		completion_reward = {

		}

		ai_will_do = {
			base = 10
		}
	}


	#################################
	#	Path to communism		  #
	#################################

	focus = {
		id = SER_nostalgia_of_the_past
		icon = money_on_fire
		
		x = 12
		y = 1
		relative_position_id = SER_forgive_milosevic
		
		cost = 10
		
		prerequisite = {
			focus = SER_forgive_milosevic
		}
		mutually_exclusive = { focus = SER_arrest_the_leader_of_opposition }
		available = { }
		historical_ai = { }
		select_effect = { }
		bypass = { }
		cancel = { }

		cancel_if_invalid = yes
		continue_if_invalid = yes
		available_if_capitulated = no
		
		complete_tooltip = { }
		completion_reward = {

			add_popularity = {
				ideology = neutrality
				popularity = 0.2
			}

			set_party_name = { 
				ideology = neutrality 
				long_name = SER_communism_long
				name = SER_communism
			}

		}

		ai_will_do = {
			base = 10
		}
	}

	focus = {
		id = SER_refuse_to_give_milosevic_to_the_un
		icon = communist_purge
		
		x = 0
		y = 1
		relative_position_id = SER_nostalgia_of_the_past
		
		cost = 10
		
		prerequisite = {
			focus = SER_nostalgia_of_the_past
		}
		mutually_exclusive = { }
		available = { }
		historical_ai = { }
		select_effect = { }
		bypass = { }
		cancel = { }

		cancel_if_invalid = yes
		continue_if_invalid = yes
		available_if_capitulated = no
		
		complete_tooltip = { }
		completion_reward = {

			add_popularity = {
				ideology = neutrality
				popularity = 0.1
			}
			add_ideas = { neutral_outlook }
			every_country {
				limit = { 
					has_idea = NATO_member 
					NOT = { original_tag = SER }
				}
				add_opinion_modifier = {
					target = SER
   	 				modifier = diplomatic_distance
				}
			}

		}

		ai_will_do = {
			base = 10
		}
	}

	focus = {
		id = SER_enhance_multi_ethnic_feeling
		icon = communism6
		
		x = -1
		y = 1
		relative_position_id = SER_refuse_to_give_milosevic_to_the_un
		
		cost = 10
		
		prerequisite = {
			focus = SER_refuse_to_give_milosevic_to_the_un
		}
		mutually_exclusive = { 
		focus = SER_enhance_panslavic_feeling
		}
		available = { }
		historical_ai = { }
		select_effect = { }
		bypass = { }
		cancel = { }

		cancel_if_invalid = yes
		continue_if_invalid = yes
		available_if_capitulated = no
		
		complete_tooltip = { }
		completion_reward = {

			add_popularity = {
				ideology = neutrality
				popularity = 0.2
			}
			BOS = { add_opinion_modifier = { target = SER modifier = diplomatic_distance } }
			CRO = { add_opinion_modifier = { target = SER modifier = diplomatic_distance } }
			SLV = { add_opinion_modifier = { target = SER modifier = diplomatic_distance } }
			FYR = { add_opinion_modifier = { target = SER modifier = diplomatic_distance } }
			if = {
				limit = { country_exists = KOS }
				KOS = { add_opinion_modifier = { target = SER modifier = diplomatic_distance } }
			}
			if = {
				limit = { country_exists = MNT }
				MNT = { add_opinion_modifier = { target = SER modifier = diplomatic_distance } }
			}
			set_politics = {
				ruling_party = neutrality
			}

		}

		ai_will_do = {
			base = 10
		}
	}
	focus = {
		id = SER_influence_the_neighbours
		icon = propaganda
		
		x = 0
		y = 1
		relative_position_id = SER_enhance_multi_ethnic_feeling
		
		cost = 10
		
		prerequisite = {
			focus = SER_enhance_multi_ethnic_feeling
		}
		mutually_exclusive = { }
		available = { }
		historical_ai = { }
		select_effect = { }
		bypass = { }
		cancel = { }

		cancel_if_invalid = yes
		continue_if_invalid = yes
		available_if_capitulated = no
		
		complete_tooltip = { }
		completion_reward = {
			BOS = { add_ideas = { neutral_outlook } }
			CRO = { add_ideas = { neutral_outlook } }
			SLV = { add_ideas = { neutral_outlook } }
			FYR = { add_ideas = { neutral_outlook } }
			if = {
				limit = { country_exists = KOS }
				KOS = { add_ideas = { neutral_outlook } }
			}
			if = {
				limit = { country_exists = MNT }
				MNT = { add_ideas = { neutral_outlook } }
			}
		}
	}

	focus = {
		id = SER_enhance_panslavic_feeling
		icon = communism5
		
		x = 1
		y = 1
		relative_position_id = SER_refuse_to_give_milosevic_to_the_un
		
		cost = 10
		
		prerequisite = {
			focus = SER_refuse_to_give_milosevic_to_the_un
		}
		mutually_exclusive = {
		focus = SER_enhance_multi_ethnic_feeling
		}
		available = { }
		historical_ai = { }
		select_effect = { }
		bypass = { }
		cancel = { }

		cancel_if_invalid = yes
		continue_if_invalid = yes
		available_if_capitulated = no
		
		complete_tooltip = { }
		completion_reward = {
			set_politics = {
				ruling_party = neutrality
			}

			if = {
				limit = { country_exists = KOS }
				add_state_claim = 134
			}
			if = {
				limit = { country_exists = MNT }
				MNT = { add_opinion_modifier = { target = SER modifier = diplomatic_distance } }
				add_state_claim = 133
			}
			add_state_claim = 128
			add_state_claim = 129
			add_state_claim = 126
			add_state_claim = 127
			add_state_claim = 124
			add_state_claim = 125
		}
		ai_will_do = {
			base = 10
		}
	}
	focus = {
		id = SER_finance_communist_group_in_the_balkans
		icon = balkan_conflict
		
		x = 0
		y = 1
		relative_position_id = SER_enhance_panslavic_feeling
		
		cost = 10
		
		prerequisite = {
			focus = SER_enhance_panslavic_feeling
		}
		mutually_exclusive = { }
		available = { }
		historical_ai = { }
		select_effect = { }
		bypass = { }
		cancel = { }

		cancel_if_invalid = yes
		continue_if_invalid = yes
		available_if_capitulated = no
		
		complete_tooltip = { }
		completion_reward = {
			BOS = { add_popularity = { ideology = neutrality popularity = 0.2 } }
			CRO = { add_popularity = { ideology = neutrality popularity = 0.2 } }
			SLV = { add_popularity = { ideology = neutrality popularity = 0.2 } }
			FYR = { add_popularity = { ideology = neutrality popularity = 0.2 } }
			if = {
				limit = { country_exists = KOS }
				KOS = { add_popularity = { ideology = neutrality popularity = 0.2 } }
			}
			if = {
				limit = { country_exists = MNT }
				MNT = { add_popularity = { ideology = neutrality popularity = 0.2 } }
			}
		}

		ai_will_do = {
			base = 10
		}
	}

	focus = {
		id = SER_the_kosovo_negociations
		icon = treaty4
		
		x = -3
		y = 1
		relative_position_id = SER_influence_the_neighbours
		
		cost = 10
		
		prerequisite = {
			focus = SER_influence_the_neighbours
		}
		mutually_exclusive = { }
		available = { }
		historical_ai = { }
		select_effect = { }
		bypass = { }
		cancel = { }

		cancel_if_invalid = yes
		continue_if_invalid = yes
		available_if_capitulated = no
		
		complete_tooltip = { }
		completion_reward = {
			if = {
				limit = { country_exists = KOS }
				set_autonomy = {
					target = KOS
					autonomy_state = autonomy_autonomous_state
				}
			}
			else = {
				if = {
					limit = { 133 = { is_demilitarized_zone = yes } }
					133 = { set_demilitarized_zone = no }
				}
			}
		}

		ai_will_do = {
			base = 10
		}
	}

	focus = {
		id = SER_the_montenegro_negociations
		icon = diplomatic_treaty
		
		x = 0
		y = 1
		relative_position_id = SER_the_kosovo_negociations
		
		cost = 10
		
		prerequisite = {
			focus = SER_the_kosovo_negociations
		}
		mutually_exclusive = { }
		available = { country_exists = MNT }
		historical_ai = { }
		select_effect = { }
		bypass = { }
		cancel = { }

		cancel_if_invalid = yes
		continue_if_invalid = yes
		available_if_capitulated = no
		
		complete_tooltip = { }
		completion_reward = {
			set_autonomy = {
				target = MNT
				autonomy_state = autonomy_autonomous_state
			}
			

		}

		ai_will_do = {
			base = 10
		}
	}

	focus = {
		id = SER_form_the_socialist_union_of_yugoslavia
		icon = communism9
		
		x = -1
		y = 1
		relative_position_id = SER_influence_the_neighbours 
		
		cost = 10
		
		prerequisite = {
			focus = SER_influence_the_neighbours
		}
		mutually_exclusive = { }
		available = { }
		historical_ai = { }
		select_effect = { }
		bypass = { }
		cancel = { }

		cancel_if_invalid = yes
		continue_if_invalid = yes
		available_if_capitulated = no
		
		complete_tooltip = { }
		completion_reward = {
			create_faction = "Union of Socialist Peoples"

		}

		ai_will_do = {
			base = 10
		}
	}

	focus = {
		id = SER_ask_bosnia_to_join_the_union
		icon = labor_unions
		
		x = 0
		y = 1
		relative_position_id = SER_form_the_socialist_union_of_yugoslavia
		
		cost = 10
		
		prerequisite = {
			focus = SER_form_the_socialist_union_of_yugoslavia
		}
		mutually_exclusive = { }
		available = { }
		historical_ai = { }
		select_effect = { }
		bypass = { }
		cancel = { }

		cancel_if_invalid = yes
		continue_if_invalid = yes
		available_if_capitulated = no
		
		complete_tooltip = { }
		completion_reward = {
			add_to_faction = BOS #Replace with event
		}

		ai_will_do = {
			base = 10
		}
	}

	focus = {
		id = SER_ask_croatia_to_join_the_union
		icon = labor_unions
		
		x = -5
		y = 1
		relative_position_id = SER_ask_bosnia_to_join_the_union
		
		cost = 10
		
		prerequisite = {
			focus = SER_ask_bosnia_to_join_the_union
		}
		mutually_exclusive = { }
		available = { }
		historical_ai = { }
		select_effect = { }
		bypass = { }
		cancel = { }

		cancel_if_invalid = yes
		continue_if_invalid = yes
		available_if_capitulated = no
		
		complete_tooltip = { }
		completion_reward = {
			add_to_faction = CRO #Replace with event
		}

		ai_will_do = {
			base = 10
		}
	}

	focus = {
		id = SER_invite_slovenia
		icon = union_negotiations
		
		x = -3
		y = 1
		relative_position_id = SER_ask_bosnia_to_join_the_union
		
		cost = 10
		
		prerequisite = {
			focus = SER_ask_bosnia_to_join_the_union
		}
		mutually_exclusive = { }
		available = { }
		historical_ai = { }
		select_effect = { }
		bypass = { }
		cancel = { }

		cancel_if_invalid = yes
		continue_if_invalid = yes
		available_if_capitulated = no
		
		complete_tooltip = { }
		completion_reward = {
			add_to_faction = SLO #Replace with event
		}

		ai_will_do = {
			base = 10
		}
	}

	focus = {
		id = SER_infleunce_bulgaria_communism
		icon = money_on_fire
		
		x = -1
		y = 1
		relative_position_id = SER_invite_slovenia
		
		cost = 10
		
		prerequisite = {
			focus = SER_invite_slovenia
		}
		mutually_exclusive = { }
		available = { }
		historical_ai = { }
		select_effect = { }
		bypass = { }
		cancel = { }

		cancel_if_invalid = yes
		continue_if_invalid = yes
		available_if_capitulated = no
		
		complete_tooltip = { }
		completion_reward = {
			add_popularity = {
				ideology = neutrality
				popularity = 0.2
			}

		}

		ai_will_do = {
			base = 10
		}
	}

	focus = {
		id = SER_rally_bulgaria
		icon = communist_army
		
		x = 0
		y = 1
		relative_position_id = SER_infleunce_bulgaria_communism
		
		cost = 10
		
		prerequisite = {
			focus = SER_infleunce_bulgaria_communism
		}
		mutually_exclusive = { }
		available = { }
		historical_ai = { }
		select_effect = { }
		bypass = { }
		cancel = { }

		cancel_if_invalid = yes
		continue_if_invalid = yes
		available_if_capitulated = no
		
		complete_tooltip = { }
		completion_reward = {
			add_to_faction = SLO #Replace with event
		}

		ai_will_do = {
			base = 10
		}
	}

	focus = {
		id = SER_infleunce_albania
		icon = money_on_fire
		
		x = 1
		y = 1
		relative_position_id = SER_invite_slovenia
		
		cost = 10
		
		prerequisite = {
			focus = SER_invite_slovenia
		}
		mutually_exclusive = { }
		available = { }
		historical_ai = { }
		select_effect = { }
		bypass = { }
		cancel = { }

		cancel_if_invalid = yes
		continue_if_invalid = yes
		available_if_capitulated = no
		
		complete_tooltip = { }
		completion_reward = {
			add_popularity = {
				ideology = neutrality
				popularity = 0.2
			}

		}

		ai_will_do = {
			base = 10
		}
	}

	focus = {
		id = SER_rally_albania
		icon = communist_army
		
		x = 0
		y = 1
		relative_position_id = SER_infleunce_albania
		
		cost = 10
		
		prerequisite = {
			focus = SER_infleunce_albania
		}
		mutually_exclusive = { }
		available = { }
		historical_ai = { }
		select_effect = { }
		bypass = { }
		cancel = { }

		cancel_if_invalid = yes
		continue_if_invalid = yes
		available_if_capitulated = no
		
		complete_tooltip = { }
		completion_reward = {
			add_to_faction = ALB #Replace with event

		}

		ai_will_do = {
			base = 10
		}
	}

	focus = {
		id = SER_integrated_rail_network
		icon = industry_communism
		
		x = -1
		y = 1
		relative_position_id = SER_ask_bosnia_to_join_the_union
		
		cost = 10
		
		prerequisite = {
			focus = SER_ask_bosnia_to_join_the_union
		}
		mutually_exclusive = { 
			focus = SER_centralize_the_rail_network_in_serbia
		}
		available = { }
		historical_ai = { }
		select_effect = { }
		bypass = { }
		cancel = { }

		cancel_if_invalid = yes
		continue_if_invalid = yes
		available_if_capitulated = no
		
		complete_tooltip = { }
		completion_reward = {
			131 = {
				add_building_construction = {
					type = infrastructure
					level = 1
					instant_build = yes
				}
			}
			128 = {
				add_building_construction = {
					type = infrastructure
					level = 1
					instant_build = yes
				}
			}
			126 = {
				add_building_construction = {
					type = infrastructure
					level = 1
					instant_build = yes
				}
			}

		}

		ai_will_do = {
			base = 10
		}
	}

	focus = {
		id = SER_the_balkanic_academy
		icon = communist_scientists
		
		x = 1
		y = 1
		relative_position_id = SER_integrated_rail_network
		
		cost = 10
		
		prerequisite = {
			focus = SER_integrated_rail_network
			focus = SER_centralize_the_rail_network_in_serbia
		}

		available = { }
		historical_ai = { }
		select_effect = { }
		bypass = { }
		cancel = { }

		cancel_if_invalid = yes
		continue_if_invalid = yes
		available_if_capitulated = no
		
		complete_tooltip = { }
		completion_reward = {
			add_research_slot = 1

		}

		ai_will_do = {
			base = 10
		}
	}

	focus = {
		id = SER_stage_a_coup_in_slovenia
		icon = attack_communism
		
		x = 0
		y = 1
		relative_position_id = SER_the_balkanic_academy
		
		cost = 10
		
		prerequisite = {
			focus = SER_the_balkanic_academy
		}

		mutually_exclusive = { 
			focus = SER_invite_slovenia_in_the_union
		}
		available = { SLO = { NOT = { has_government = neutrality } } }
		historical_ai = { }
		select_effect = { }
		bypass = { }
		cancel = { }

		cancel_if_invalid = yes
		continue_if_invalid = yes
		available_if_capitulated = no
		
		complete_tooltip = { }
		completion_reward = {
		SLO = {
			add_popularity = { ideology = neutrality  popularity = 0.2 }

			start_civil_war = {
				ruling_party = neutrality
				ideology = ROOT
				size = 0.75
				only_own_territory = no
			}
		} }

		ai_will_do = {
			base = 10
		}
	}

	focus = {
		id = SER_invite_slovenia_in_the_union
		icon = gunpoint_diplomacy
		
		x = 2
		y = 1
		relative_position_id = SER_the_balkanic_academy
		
		cost = 10
		
		prerequisite = {
			focus = SER_the_balkanic_academy
		}
		mutually_exclusive = { 
			focus = SER_stage_a_coup_in_slovenia
		}
		available = { }
		historical_ai = { }
		select_effect = { }
		bypass = { }
		cancel = { }

		cancel_if_invalid = yes
		continue_if_invalid = yes
		available_if_capitulated = no
		
		complete_tooltip = { }
		completion_reward = {
			add_to_faction = SLO #Replace with event
		}

		ai_will_do = {
			base = 10
		}
	}

	focus = {
		id = SER_open_relations_with_abroad_communist_country
		icon = race_relations2
		
		x = 3
		y = 1
		relative_position_id = SER_integrated_rail_network
		
		cost = 10
		
		prerequisite = {
			focus = SER_integrated_rail_network
			focus = SER_centralize_the_rail_network_in_serbia
		}
		available = { }
		historical_ai = { }
		select_effect = { }
		bypass = { }
		cancel = { }

		cancel_if_invalid = yes
		continue_if_invalid = yes
		available_if_capitulated = no
		
		complete_tooltip = { }
		completion_reward = {
			CHI = { add_opinion_modifier = { target = SER modifier = diplomatic_proximity } }
			PMR = { add_opinion_modifier = { target = SER modifier = diplomatic_proximity } }
			NKO = { add_opinion_modifier = { target = SER modifier = diplomatic_proximity } }
			VIE = { add_opinion_modifier = { target = SER modifier = diplomatic_proximity } }
			CUB = { add_opinion_modifier = { target = SER modifier = diplomatic_proximity } }

		}

		ai_will_do = {
			base = 10
		}
	}

	focus = {
		id = SER_centralize_the_rail_network_in_serbia
		icon = industry_communist2
		
		x = 1
		y = 1
		relative_position_id = SER_ask_bosnia_to_join_the_union
		
		cost = 10
		
		prerequisite = {
			focus = SER_ask_bosnia_to_join_the_union
		}
		mutually_exclusive = { 
			focus = SER_integrated_rail_network
		}
		available = { }
		historical_ai = { }
		select_effect = { }
		bypass = { }
		cancel = { }

		cancel_if_invalid = yes
		continue_if_invalid = yes
		available_if_capitulated = no
		
		complete_tooltip = { }
		completion_reward = {

			131 = {
				add_building_construction = {
					type = infrastructure
					level = 1
					instant_build = yes
				}
			}
			
			130 = {
				add_building_construction = {
					type = infrastructure
					level = 1
					instant_build = yes
				}
			}
			
			132 = {
				add_building_construction = {
					type = infrastructure
					level = 1
					instant_build = yes
				}
			}

		}

		ai_will_do = {
			base = 10
		}
	}

	focus = {
		id = SER_nationalize_the_automobile_industry
		icon = motorized
		
		x = 1
		y = 1
		relative_position_id = SER_influence_the_neighbours
		
		cost = 10
		
		prerequisite = {
			focus = SER_influence_the_neighbours
			focus = SER_finance_communist_group_in_the_balkans
		}
		mutually_exclusive = { }
		available = { }
		historical_ai = { }
		select_effect = { }
		bypass = { }
		cancel = { }

		cancel_if_invalid = yes
		continue_if_invalid = yes
		available_if_capitulated = no
		
		complete_tooltip = { }
		completion_reward = {
			131 = {
				add_building_construction = {
					type = industrial_complex
   					level = 1
					instant_build = yes
				}
				add_extra_state_shared_building_slots = 1
			} 

		}

		ai_will_do = {
			base = 10
		}
	}

	focus = {
		id = SER_developp_krusik_valjevo
		icon = communist_factories
		
		x = 0
		y = 1
		relative_position_id = SER_nationalize_the_automobile_industry
		
		cost = 10
		
		prerequisite = {
			focus = SER_nationalize_the_automobile_industry
		}
		mutually_exclusive = { }
		available = { }
		historical_ai = { }
		select_effect = { }
		bypass = { }
		cancel = { }

		cancel_if_invalid = yes
		continue_if_invalid = yes
		available_if_capitulated = no
		
		complete_tooltip = { }
		completion_reward = {
			131 = {
				add_building_construction = {
					type = arms_factory
   					level = 1
					instant_build = yes
				}
				add_extra_state_shared_building_slots = 1
			} 

		}

		ai_will_do = {
			base = 10
		}
	}

	focus = {
		id = SER_liberate_the_bosnian_people
		icon = attack_democracy4
		
		x = 2
		y = 1
		relative_position_id = SER_finance_communist_group_in_the_balkans
		
		cost = 10
		
		prerequisite = {
			focus = SER_finance_communist_group_in_the_balkans
		}
		mutually_exclusive = { }
		available = { }
		historical_ai = { }
		select_effect = { }
		bypass = { }
		cancel = { }

		cancel_if_invalid = yes
		continue_if_invalid = yes
		available_if_capitulated = no
		
		complete_tooltip = { }
		completion_reward = {
			declare_war_on = {
				target = BOS
				type = annex_everything
			}
			add_state_core = 128
			add_state_core = 129

		}

		ai_will_do = {
			base = 10
		}
	}

	focus = {
		id = SER_stage_a_coup_in_croatia
		icon = attack_communism
		
		x = -1
		y = 1
		relative_position_id = SER_liberate_the_bosnian_people
		
		cost = 10
		
		prerequisite = {
			focus = SER_liberate_the_bosnian_people
		}
		mutually_exclusive = { 
			focus = SER_align_croatia_by_force
		}
		available = { }
		historical_ai = { }
		select_effect = { }
		bypass = { }
		cancel = { }

		cancel_if_invalid = yes
		continue_if_invalid = yes
		available_if_capitulated = no
		
		complete_tooltip = { }
		completion_reward = {
			add_popularity = { ideology = neutrality  popularity = 0.2 }

			start_civil_war = {
				ruling_party = neutrality
				ideology = ROOT
				size = 0.75
				only_own_territory = no
			}
	

		}

		ai_will_do = {
			base = 10
		}
	}

	focus = {
		id = SER_align_croatia_by_force
		icon = ultimatum
		
		x = 1
		y = 1
		relative_position_id = SER_liberate_the_bosnian_people
		
		cost = 10
		
		prerequisite = {
			focus = SER_liberate_the_bosnian_people
		}
		mutually_exclusive = { 
			focus = SER_stage_a_coup_in_croatia
		}
		available = { }
		historical_ai = { }
		select_effect = { }
		bypass = { }
		cancel = { }

		cancel_if_invalid = yes
		continue_if_invalid = yes
		available_if_capitulated = no
		
		complete_tooltip = { }
		completion_reward = {
			declare_war_on = {
				target = CRO
				type = annex_everything
			}

		}

		ai_will_do = {
			base = 10
		}
	}

	focus = {
		id = SER_form_the_socialist_federal_republic_of_yugoslavia
		icon = communism3
		
		x = -1
		y = 1
		relative_position_id = SER_align_croatia_by_force
		
		cost = 10
		
		prerequisite = {
			focus = SER_align_croatia_by_force
			focus = SER_stage_a_coup_in_croatia
		}
		mutually_exclusive = { }
		available = { }
		historical_ai = { }
		select_effect = { }
		bypass = { }
		cancel = { }

		cancel_if_invalid = yes
		continue_if_invalid = yes
		available_if_capitulated = no
		
		complete_tooltip = { }
		completion_reward = {

		}

		ai_will_do = {
			base = 10
		}
	}

	focus = {
		id = SER_stage_a_coup_in_slovenia2
		icon = attack_communism
		
		x = -1
		y = 1
		relative_position_id = SER_form_the_socialist_federal_republic_of_yugoslavia
		
		cost = 10
		
		prerequisite = {
			focus = SER_form_the_socialist_federal_republic_of_yugoslavia
		}
		mutually_exclusive = { 
			focus = SER_align_slovenia_by_force
		}
		available = { }
		historical_ai = { }
		select_effect = { }
		bypass = { }
		cancel = { }

		cancel_if_invalid = yes
		continue_if_invalid = yes
		available_if_capitulated = no
		
		complete_tooltip = { }
		completion_reward = {
			add_popularity = { ideology = neutrality  popularity = 0.2 }

			start_civil_war = {
				ruling_party = neutrality
				ideology = ROOT
				size = 0.75
				only_own_territory = no
			}

		}

		ai_will_do = {
			base = 10
		}
	}

	focus = {
		id = SER_align_slovenia_by_force
		icon = ultimatum
		
		x = 1
		y = 1
		relative_position_id = SER_form_the_socialist_federal_republic_of_yugoslavia
		
		cost = 10
		
		prerequisite = {
			focus = SER_form_the_socialist_federal_republic_of_yugoslavia
		}
		
		mutually_exclusive = { 
			focus = SER_stage_a_coup_in_slovenia
		}
		available = { }
		historical_ai = { }
		select_effect = { }
		bypass = { }
		cancel = { }

		cancel_if_invalid = yes
		continue_if_invalid = yes
		available_if_capitulated = no
		
		complete_tooltip = { }
		completion_reward = {
			declare_war_on = {
				target = SLO
				type = annex_everything
			}

		}

		ai_will_do = {
			base = 10
		}
	}

	focus = {
		id = SER_liberate_the_macedonian_people
		icon = labor_unions
		
		x = -1
		y = 1
		relative_position_id = SER_align_slovenia_by_force
		
		cost = 10
		
		prerequisite = {
			focus = SER_stage_a_coup_in_slovenia2
			focus = SER_align_slovenia_by_force
		}
		
		mutually_exclusive = { }
		available = { }
		historical_ai = { }
		select_effect = { }
		bypass = { }
		cancel = { }

		cancel_if_invalid = yes
		continue_if_invalid = yes
		available_if_capitulated = no
		
		complete_tooltip = { }
		completion_reward = {
			declare_war_on = {
				target = FYR
				type = annex_everything
			}

		}

		ai_will_do = {
			base = 10
		}
	}

	focus = {
		id = SER_the_international_revolution
		icon = fourth_international
		
		x = 0
		y = 1
		relative_position_id = SER_liberate_the_macedonian_people
		
		cost = 10
		
		prerequisite = {
			focus = SER_liberate_the_macedonian_people
		}
		
		mutually_exclusive = { }
		available = { }
		historical_ai = { }
		select_effect = { }
		bypass = { }
		cancel = { }

		cancel_if_invalid = yes
		continue_if_invalid = yes
		available_if_capitulated = no
		
		complete_tooltip = { }
		completion_reward = {

		}

		ai_will_do = {
			base = 10
		}
	}

	focus = {
		id = SER_planified_economy
		icon = better_money_on_fire
		
		x = 3
		y = 1
		relative_position_id = SER_form_the_socialist_federal_republic_of_yugoslavia
		
		cost = 10
		
		prerequisite = {
			focus = SER_form_the_socialist_federal_republic_of_yugoslavia
		}
		
		mutually_exclusive = { }
		available = { }
		historical_ai = { }
		select_effect = { }
		bypass = { }
		cancel = { }

		cancel_if_invalid = yes
		continue_if_invalid = yes
		available_if_capitulated = no
		
		complete_tooltip = { }
		completion_reward = {
			add_ideas = { idea_focus_generic_public_service_investment }
		}

		ai_will_do = {
			base = 10
		}
	}

	focus = {
		id = SER_proletarian_youth
		icon = vladimir_lenin
		
		x = 0
		y = 1
		relative_position_id = SER_planified_economy
		
		cost = 10
		
		prerequisite = {
			focus = SER_planified_economy
		}
		
		mutually_exclusive = { }
		available = { }
		historical_ai = { }
		select_effect = { }
		bypass = { }
		cancel = { }

		cancel_if_invalid = yes
		continue_if_invalid = yes
		available_if_capitulated = no
		
		complete_tooltip = { }
		completion_reward = {
			add_ideas = { communist_militias }
		}

		ai_will_do = {
			base = 10
		}
	}



	####################################
	###		 INDUSTRIAL		   ###
	####################################

	focus = {
		id = SER_rebuild_the_country
		icon = industry2
		
		x = 26
		y = 0
		
		cost = 10
		
		prerequisite = { }
		
		mutually_exclusive = { }
		available = { }
		historical_ai = { }
		select_effect = { }
		bypass = { }
		cancel = { }

		cancel_if_invalid = yes
		continue_if_invalid = yes
		available_if_capitulated = no
		
		complete_tooltip = { }
		completion_reward = {

		}

		ai_will_do = {
			base = 10
		}
	}

	focus = {
		id = SER_improve_serbian_railway
		icon = construct_infrastructure
		
		x = -1
		y = 1

		relative_position_id = SER_rebuild_the_country
		
		cost = 10
		
		prerequisite = { 
			focus = SER_rebuild_the_country
		}
		
		mutually_exclusive = { }
		available = { }
		historical_ai = { }
		select_effect = { }
		bypass = { }
		cancel = { }

		cancel_if_invalid = yes
		continue_if_invalid = yes
		available_if_capitulated = no
		
		complete_tooltip = { }
		completion_reward = {

		}

		ai_will_do = {
			base = 10
		}
	}

	focus = {
		id = SER_modernization_of_the_iron_gate_dam
		icon = industry_civilian
		
		x = 0
		y = 1

		relative_position_id = SER_improve_serbian_railway
		
		cost = 10
		
		prerequisite = { 
			focus = SER_improve_serbian_railway
		}
		
		mutually_exclusive = { }
		available = { }
		historical_ai = { }
		select_effect = { }
		bypass = { }
		cancel = { }

		cancel_if_invalid = yes
		continue_if_invalid = yes
		available_if_capitulated = no
		
		complete_tooltip = { }
		completion_reward = {

		}

		ai_will_do = {
			base = 10
		}
	}

	focus = {
		id = SER_developp_the_coal_industry
		icon = production2
		
		x = 1
		y = 1

		relative_position_id = SER_rebuild_the_country
		
		cost = 10
		
		prerequisite = { 
			focus = SER_rebuild_the_country
		}
		
		mutually_exclusive = { }
		available = { }
		historical_ai = { }
		select_effect = { }
		bypass = { }
		cancel = { }

		cancel_if_invalid = yes
		continue_if_invalid = yes
		available_if_capitulated = no
		
		complete_tooltip = { }
		completion_reward = {

		}

		ai_will_do = {
			base = 10
		}
	}

	focus = {
		id = SER_developp_the_mining_capacity
		icon = steel_production2
		
		x = 0
		y = 1

		relative_position_id = SER_developp_the_coal_industry
		
		cost = 10
		
		prerequisite = { 
			focus = SER_developp_the_coal_industry
		}
		
		mutually_exclusive = { }
		available = { }
		historical_ai = { }
		select_effect = { }
		bypass = { }
		cancel = { }

		cancel_if_invalid = yes
		continue_if_invalid = yes
		available_if_capitulated = no
		
		complete_tooltip = { }
		completion_reward = {

		}

		ai_will_do = {
			base = 10
		}
	}

	focus = {
		id = SER_ikarbus_beograd
		icon = ikarus
		
		x = 3
		y = 1

		relative_position_id = SER_rebuild_the_country
		
		cost = 10
		
		prerequisite = { 
			focus = SER_rebuild_the_country
		}
		
		mutually_exclusive = { }
		available = { }
		historical_ai = { }
		select_effect = { }
		bypass = { }
		cancel = { }

		cancel_if_invalid = yes
		continue_if_invalid = yes
		available_if_capitulated = no
		
		complete_tooltip = { }
		completion_reward = {

		}

		ai_will_do = {
			base = 10
		}
	}
	




################################### GENERIC
###########################################
###########################################
###########################################
###########################################


focus = {
		id = SER_bonus_tech_slots
		icon = research
		
		x = 32
		y = 0
		cost = 10

		available_if_capitulated = yes
		
		ai_will_do = {
			factor = 100
		}

		completion_reward = {
			add_research_slot = 1
		}
	}
	
	focus = {
		id = SER_Generic_4K_GDPC_slot
		icon = research
		prerequisite = { focus = SER_bonus_tech_slots }
		
		x = -1
		y = 1

		relative_position_id = SER_bonus_tech_slots

		cost = 10


		available_if_capitulated = yes
		
		available = {
		custom_trigger_tooltip = {
				tooltip = GDP4K
				OR = {
					has_idea = gdp_3
					has_idea = gdp_4
					has_idea = gdp_5
					has_idea = gdp_6
					has_idea = gdp_7
					has_idea = gdp_8
					has_idea = gdp_9
					has_idea = gdp_10
					has_idea = gdp_11
					has_idea = gdp_12
				}				
			}
		}
		
		ai_will_do = {
			factor = 100
		}

		completion_reward = {
			add_research_slot = 1
		}
	}
	focus = {
		id = SER_Generic_15K_GDPC_slot
		icon = research
		prerequisite = { focus = SER_Generic_4K_GDPC_slot }
		
		x = 0
		y = 1
		relative_position_id = SER_Generic_4K_GDPC_slot
		cost = 10

		available_if_capitulated = yes
		
		available = {
		custom_trigger_tooltip = {
				tooltip = GDP15K
				OR = {
					has_idea = gdp_6
					has_idea = gdp_7
					has_idea = gdp_8
					has_idea = gdp_9
					has_idea = gdp_10
					has_idea = gdp_11
					has_idea = gdp_12
				}				
			}
		}
		
		ai_will_do = {
			factor = 100
		}

		completion_reward = {
			add_research_slot = 1
		}
	}
	
	focus = {
		id = SER_Generic_30K_GDPC_slot
		icon = research
		prerequisite = { focus = SER_Generic_15K_GDPC_slot }
		
		x = 0
		y = 1
		relative_position_id = SER_Generic_15K_GDPC_slot
		cost = 10

		available_if_capitulated = yes
		
		available = {
		custom_trigger_tooltip = {
				tooltip = GDP30K
				OR = {
					has_idea = gdp_8
					has_idea = gdp_9
					has_idea = gdp_10
					has_idea = gdp_11
					has_idea = gdp_12
				}				
			}
		}
		
		ai_will_do = {
			factor = 100
		}

		completion_reward = {
			add_research_slot = 1
		}
	}
	focus = {
		id = SER_Generic_90K_GDPC_slot
		icon = research
		prerequisite = { focus = SER_Generic_30K_GDPC_slot }
		
		x = 0
		y = 1
		relative_position_id = SER_Generic_30K_GDPC_slot
		cost = 10

		available_if_capitulated = yes
		
		available = {
		custom_trigger_tooltip = {
				tooltip = GDP90K
				OR = {
					has_idea = gdp_10
					has_idea = gdp_11
					has_idea = gdp_12
				}				
			}
		}
		
		ai_will_do = {
			factor = 100
		}

		completion_reward = {
			add_research_slot = 1
		}
	}
	focus = {
		id = SER_Generic_4_IC_slot
		icon = research
		prerequisite = { focus = SER_bonus_tech_slots }
		
		x = 1
		y = 1
		relative_position_id = SER_bonus_tech_slots
		cost = 10

		available_if_capitulated = yes
		cancel_if_invalid = no
		continue_if_invalid = yes
		
		available = {
			num_of_factories > 4
		}
		
		ai_will_do = {
			factor = 100
		}

		completion_reward = {
			add_research_slot = 1
		}
	}
	focus = {
		id = SER_Generic_8_IC_slot
		icon = research
		prerequisite = { focus = SER_Generic_4_IC_slot }
		
		x = 0
		y = 1
		relative_position_id = SER_Generic_4_IC_slot
		cost = 10

		available_if_capitulated = yes
		cancel_if_invalid = no
		continue_if_invalid = yes
		
		available = {
			num_of_factories > 8
		}
		
		ai_will_do = {
			factor = 100
		}

		completion_reward = {
			add_research_slot = 1
		}
	}
	focus = {
		id = SER_Generic_16_IC_slot
		icon = research
		prerequisite = { focus = SER_Generic_8_IC_slot }
		
		x = 0
		y = 1
		relative_position_id = SER_Generic_8_IC_slot
		cost = 10

		available_if_capitulated = yes
		cancel_if_invalid = no
		continue_if_invalid = yes
		
		available = {
			num_of_factories > 16
		}
		
		ai_will_do = {
			factor = 100
		}

		completion_reward = {
			add_research_slot = 1
		}
	}
	focus = {
		id = SER_Generic_30_IC_slot
		icon = research
		prerequisite = { focus = SER_Generic_16_IC_slot }
		
		x = 0
		y = 1
		relative_position_id = SER_Generic_16_IC_slot
		cost = 10

		available_if_capitulated = yes
		cancel_if_invalid = no
		continue_if_invalid = yes
		
		available = {
			num_of_factories > 30
		}
		
		ai_will_do = {
			factor = 100
		}

		completion_reward = {
			add_research_slot = 1
		}
	}
	focus = {
		id = SER_Generic_50_IC_slot
		icon = research
		prerequisite = { focus = SER_Generic_30_IC_slot }
		
		x = 0
		y = 1
		relative_position_id = SER_Generic_30_IC_slot
		cost = 10

		available_if_capitulated = yes
		cancel_if_invalid = no
		continue_if_invalid = yes
		
		available = {
			num_of_factories > 50
		}
		
		ai_will_do = {
			factor = 100
		}

		completion_reward = {
			add_research_slot = 1
		}
	}
	focus = {
		id = SER_Generic_85_IC_slot
		icon = research
		prerequisite = { focus = SER_Generic_50_IC_slot }
		
		x = 0
		y = 1
		relative_position_id = SER_Generic_50_IC_slot
		cost = 10

		available_if_capitulated = yes
		cancel_if_invalid = no
		continue_if_invalid = yes
		
		available = {
			num_of_factories > 85
		}
		
		ai_will_do = {
			factor = 100
		}

		completion_reward = {
			add_research_slot = 1
		}
	}
	focus = {
		id = SER_Generic_130_IC_slot
		icon = research
		prerequisite = { focus = SER_Generic_85_IC_slot }
		
		x = 0
		y = 1
		relative_position_id = SER_Generic_85_IC_slot
		cost = 10

		available_if_capitulated = yes
		cancel_if_invalid = no
		continue_if_invalid = yes
		
		available = {
			num_of_factories > 130
		}
		
		ai_will_do = {
			factor = 100
		}

		completion_reward = {
			add_research_slot = 1
		}
	}
	focus = {
		id = SER_Generic_190_IC_slot
		icon = research
		prerequisite = { focus = SER_Generic_130_IC_slot }
		
		x = 0
		y = 1
		relative_position_id = SER_Generic_130_IC_slot
		cost = 10

		available_if_capitulated = yes
		cancel_if_invalid = no
		continue_if_invalid = yes
		
		available = {
			num_of_factories > 190
		}
		
		ai_will_do = {
			factor = 100
		}

		completion_reward = {
			add_research_slot = 1
		}
	}
	focus = {
		id = SER_Generic_280_IC_slot
		icon = research
		prerequisite = { focus = SER_Generic_190_IC_slot }
		
		x = 0
		y = 1
		relative_position_id = SER_Generic_190_IC_slot
		cost = 10

		available_if_capitulated = yes
		cancel_if_invalid = no
		continue_if_invalid = yes
		
		available = {
			num_of_factories > 280
		}
		
		ai_will_do = {
			factor = 100
		}

		completion_reward = {
			add_research_slot = 1
		}
	}
	focus = {
		id = SER_Generic_380_IC_slot
		icon = research
		prerequisite = { focus = SER_Generic_280_IC_slot }
		
		x = 0
		y = 1
		relative_position_id = SER_Generic_280_IC_slot
		cost = 10

		available_if_capitulated = yes
		cancel_if_invalid = no
		continue_if_invalid = yes
		
		available = {
			num_of_factories > 380
		}
		
		ai_will_do = {
			factor = 100
		}

		completion_reward = {
			add_research_slot = 1
		}
	}
	focus = {
		id = SER_Generic_500_IC_slot
		icon = research
		prerequisite = { focus = SER_Generic_380_IC_slot }
		
		x = 0
		y = 1
		relative_position_id = SER_Generic_380_IC_slot
		cost = 10

		available_if_capitulated = yes
		cancel_if_invalid = no
		continue_if_invalid = yes
		
		available = {
			num_of_factories > 500
		}
		
		ai_will_do = {
			factor = 100
		}

		completion_reward = {
			add_research_slot = 1
		}
	}
	
	######################################################################################
	## 								END OF RESEARCH SLOT FOCUSES
	######################################################################################
	
	focus = {
		id = SER_army_effort
		icon = infantry_axis
		
		x = 4
		y = 0
		relative_position_id = SER_bonus_tech_slots
		cost = 10

		available_if_capitulated = yes
		
		ai_will_do = {
			factor = 100
		}

		completion_reward = {
			army_experience = 5
			add_tech_bonus = {
				name = land_doc_bonus
				bonus = 0.5
				uses = 1
				category = land_doctrine
			}
		}
	}

	focus = {
		id = SER_equipment_effort
		icon = small_arms
		prerequisite = { focus = SER_army_effort }
		
		x = -1
		y = 1
		relative_position_id = SER_army_effort
		cost = 10

		available_if_capitulated = yes
		
		ai_will_do = {
			factor = 100
		}

		completion_reward = {
			add_tech_bonus = {
				name = infantry_weapons_bonus
				bonus = 0.25
				uses = 1
				category = Cat_INF_WEP
				category = Cat_ARTY 
			}
		}
	}

	focus = {
		id = SER_motorization_effort
		icon = motorized
		prerequisite = { focus = SER_army_effort }
		
		#bypass = { has_tech = motorised_infantry }
		
		x = 1
		y = 1
		relative_position_id = SER_army_effort
		cost = 10

		available_if_capitulated = yes
		
		ai_will_do = {
			factor = 100
		}

		completion_reward = {
			add_tech_bonus = {
				name = motorized_bonus
				ahead_reduction = 0.5
				uses = 1
				category = Cat_UTIL
			}
		}
	}

	focus = {
		id = SER_doctrine_effort
		icon = army_doctrine
		prerequisite = { focus = SER_army_effort }
		
		x = 0
		y = 2
		relative_position_id = SER_army_effort
		cost = 10

		available_if_capitulated = yes
		
		ai_will_do = {
			factor = 100
		}

		completion_reward = {
			army_experience = 5
			add_tech_bonus = {
				name = land_doc_bonus
				bonus = 0.25
				uses = 1
				category = land_doctrine
			}
		}
	}

	focus = {
		id = SER_equipment_effort_2
		icon = small_arms2
		prerequisite = { focus = SER_equipment_effort }
		
		x = 0
		y = 2
		relative_position_id = SER_equipment_effort
		cost = 10

		available_if_capitulated = yes
		
		ai_will_do = {
			factor = 100
		}

		completion_reward = {
			add_tech_bonus = {
				name = infantry_artillery_bonus
				bonus = 0.5
				uses = 1
				category = Cat_INF_WEP
				category = Cat_ARTY
			}
		}
	}

	focus = {
		id = SER_mechanization_effort
		icon = army_logistics
		prerequisite = { focus = SER_motorization_effort }
		
		x = 0
		y = 2
		relative_position_id = SER_motorization_effort
		cost = 10

		available_if_capitulated = yes
		
		ai_will_do = {
			factor = 100
		}

		completion_reward = {
			add_tech_bonus = {
				name = mechanization_effort
				ahead_reduction = 0.5
				uses = 1
				category = Cat_IFV
			}
		}
	}

	focus = {
		id = SER_doctrine_effort_2
		icon = army_doctrine
		prerequisite = { focus = SER_doctrine_effort }
		
		x = 0
		y = 2
		relative_position_id = SER_doctrine_effort
		cost = 10

		available_if_capitulated = yes
		
		ai_will_do = {
			factor = 100
		}

		completion_reward = {
			army_experience = 10
			add_tech_bonus = {
				name = land_doc_bonus
				bonus = 0.5
				uses = 1
				category = land_doctrine
			}
		}
	}

	focus = {
		id = SER_equipment_effort_3
		icon = artillery
		prerequisite = { focus = SER_equipment_effort_2 }
		
		x = 0
		y = 2
		relative_position_id = SER_equipment_effort_2
		cost = 10

		available_if_capitulated = yes
		
		ai_will_do = {
			factor = 100
		}

		completion_reward = {
			add_tech_bonus = {
				name = infantry_artillery_bonus
				ahead_reduction = 0.75
				uses = 1
				category = Cat_INF_WEP
				category = Cat_ARTY
			}
		}
	}

	focus = {
		id = SER_armor_effort
		icon = tanks4
		prerequisite = { focus = SER_mechanization_effort }
		
		x = 0
		y = 2
		relative_position_id = SER_mechanization_effort
		cost = 10

		available_if_capitulated = yes
		
		ai_will_do = {
			factor = 100
		}

		completion_reward = {
			add_tech_bonus = {
				name = armor_bonus
				bonus = 0.25
				uses = 2
				category = Cat_ARMOR
			}
		}
	}

	focus = {
		id = SER_special_forces
		icon = special_forces
		prerequisite = { focus = SER_equipment_effort_3 }
		prerequisite = { focus = SER_doctrine_effort_2 }
		prerequisite = { focus = SER_armor_effort }
		
		x = 0
		y = 2
		relative_position_id = SER_doctrine_effort_2
		cost = 10

		available_if_capitulated = yes
		
		ai_will_do = {
			factor = 100
		}

		completion_reward = {
		army_experience = 15
			add_tech_bonus = {
				name = special_forces
				ahead_reduction = 0.25
				uses = 1
				category = Cat_NVG
				category = Cat_TRANS_SHIP
			}
		}
	}
	
	######################################################################################
	## 								END OF ARMY FOCUSES
	######################################################################################

	focus = {
		id = SER_aviation_effort
		icon = escort_fighters
		
		x = 4
		y = 0
		relative_position_id = SER_army_effort
		cost = 10

		available_if_capitulated = yes
		
		ai_will_do = {
			factor = 100
		}

		complete_tooltip = {
			air_experience = 25
			if = { limit = { has_country_flag = aviation_effort_AB }
				add_building_construction = {
					type = air_base
					level = 2
					instant_build = yes
				}
			}			
			add_tech_bonus = {
				name = air_doc_bonus
				bonus = 0.5
				uses = 1
				category = air_doctrine
			}			
		}

		completion_reward = {
			air_experience = 25

			if = {
				limit = {
					capital_scope = {
						NOT = {
							free_building_slots = {
								building = air_base
								size > 1
							}
						}
					}
				}
				random_owned_controlled_state = {
					limit = {
						free_building_slots = {
							building = air_base
							size > 1
						}
					}
					add_building_construction = {
						type = air_base
						level = 2
						instant_build = yes
					}
					ROOT = { set_country_flag = aviation_effort_AB }
				}
			}
			if = {
				limit = {
					capital_scope = {
						free_building_slots = {
							building = air_base
							size > 1
						}
					}
				}
				capital_scope = {
					add_building_construction = {
						type = air_base
						level = 2
						instant_build = yes
					}
					ROOT = { set_country_flag = aviation_effort_AB }
				}
			}
			add_tech_bonus = {
				name = air_doc_bonus
				bonus = 0.5
				uses = 1
				category = air_doctrine
			}
		}
	}

	focus = {
		id = SER_fighter_focus
		icon = fighters2
		prerequisite = { focus = aviation_effort }
		mutually_exclusive = { focus = SER_bomber_focus }
		
		x = -1
		y = 1
		relative_position_id = SER_aviation_effort
		cost = 10

		available_if_capitulated = yes
		
		ai_will_do = {
			factor = 100
		}

		completion_reward = {
			add_tech_bonus = {
				name = fighter_bonus
				bonus = 0.25
				uses = 2
				category = Cat_FIGHTER
				category = Cat_AS_FIGHTER
			}
		}
	}

	focus = {
		id = SER_bomber_focus
		icon = bombers
		prerequisite = { focus = aviation_effort }
		mutually_exclusive = { focus = SER_fighter_focus }
		
		x = 1
		y = 1
		relative_position_id = SER_aviation_effort
		cost = 10

		available_if_capitulated = yes
		
		ai_will_do = {
			factor = 100
		}

		completion_reward = {
			add_tech_bonus = {
				name = bomber_bonus
				bonus = 0.5
				uses = 2
				technology = strategic_bomber1
				technology = strategic_bomber2
				technology = strategic_bomber3
				category = Cat_STR_BOMBER
			}
		}
	}

	focus = {
		id = SER_aviation_effort_2
		icon = air_doctrine
		prerequisite = { focus = SER_bomber_focus focus = SER_fighter_focus }
		
		x = 0
		y = 2
		relative_position_id = SER_aviation_effort
		cost = 10

		available_if_capitulated = yes


		complete_tooltip = {
			air_experience = 25
			if = { limit = { has_country_flag = aviation_effort_2_AB }
				add_building_construction = {
					type = air_base
					level = 2
					instant_build = yes
				}
			}
			add_tech_bonus = {
				name = air_doc_bonus
				bonus = 0.5
				uses = 1
				category = air_doctrine
			}
		}
		
		ai_will_do = {
			factor = 100
		}
		
		completion_reward = {
			air_experience = 25
			if = {
				limit = {
					capital_scope = {
						OR = {
							NOT = { is_controlled_by = ROOT }
							NOT = {
								free_building_slots = {
									building = air_base
									size > 1
								}
							}
						}
					}
				}
				random_owned_controlled_state = {
					limit = {
						free_building_slots = {
							building = air_base
							size > 1
						}
					}
					add_building_construction = {
						type = air_base
						level = 2
						instant_build = yes
					}
					ROOT = { set_country_flag = aviation_effort_2_AB }
				}
			}
			if = {
				limit = {
					capital_scope = {
						is_controlled_by = ROOT
						free_building_slots = {
							building = air_base
							size > 1
						}
					}
				}
				capital_scope = {
					add_building_construction = {
						type = air_base
						level = 2
						instant_build = yes
					}				
					ROOT = { set_country_flag = aviation_effort_2_AB }
				}
			}
			add_tech_bonus = {
				name = air_doc_bonus
				bonus = 0.5
				uses = 1
				category = air_doctrine
			}
		}
	}

	focus = {
		id = SER_CAS_effort
		icon = close_air_support
		prerequisite = { focus = aviation_effort_2 }
		prerequisite = { focus = SER_motorization_effort }
		
		x = 0
		y = 2
		relative_position_id = SER_fighter_focus
		cost = 10

		available_if_capitulated = yes
		
		ai_will_do = {
			factor = 100
		}

		completion_reward = {
			add_tech_bonus = {
				name = CAS_bonus
				bonus = 0.5
				ahead_reduction = 1
				uses = 1
				category = Cat_CAS
			}
		}
	}

	focus = {
		id = SER_rocket_effort
		icon = rocketry
		prerequisite = { focus = SER_aviation_effort_2 }
		#prerequisite = { focus = SER_infrastructure_effort } #no such focus
		
		x = 0
		y = 2
		relative_position_id = SER_aviation_effort_2
		cost = 10

		available_if_capitulated = yes
		
		ai_will_do = {
			factor = 100
		}

		completion_reward = {
		add_political_power = 50
			add_tech_bonus = {
				name = jet_rocket_bonus
				ahead_reduction = 0.5
				uses = 2
				category = rocketry
				category = jet_technology
			}
		}
	}

	focus = {
		id = SER_NAV_effort
		icon = naval_bombers
		prerequisite = { focus = aviation_effort_2 }
		prerequisite = { focus = SER_flexible_navy }
		
		x = 0
		y = 2
		relative_position_id = SER_bomber_focus
		cost = 10

		available_if_capitulated = yes
		
		ai_will_do = {
			factor = 100
		}

		completion_reward = {
			add_tech_bonus = {
				name = nav_bomber_bonus
				bonus = 0.5
				ahead_reduction = 1
				uses = 1
				category = Cat_NAVAL_PLANE
			}
		}
	}
	
	######################################################################################
	## 								END OF AIR FOCUSES
	######################################################################################

	focus = {
		id = SER_naval_effort
		icon = naval_dockyard
		
		x = 4
		y = 0
		relative_position_id = SER_aviation_effort
		cost = 10

		available_if_capitulated = yes


		available = {
			any_owned_state = {
				is_coastal = yes
				free_building_slots = {
					building = dockyard
					size > 1
					include_locked = no
				}
			}
		}

		complete_tooltip = {
			navy_experience = 25
			add_extra_state_shared_building_slots = 2
			add_building_construction = {
				type = dockyard
				level = 2
				instant_build = yes
			}
		}
		
		ai_will_do = {
			factor = 100
		}
		
		completion_reward = {
			navy_experience = 25
			if = {
				limit = {
					NOT = {
						any_owned_state = {
							dockyard > 0
							free_building_slots = {
								building = dockyard
								size > 1
								include_locked = no
							}
						}
					}
					any_owned_state = {
						is_coastal = yes
					}
				}
				random_owned_controlled_state = {
					limit = {
						is_coastal = yes
						free_building_slots = {
							building = dockyard
							size > 1
							include_locked = no
						}
					}
					add_building_construction = {
						type = dockyard
						level = 2
						instant_build = yes
					}
				}
				set_country_flag = naval_effort_built
			}
			if = {
				limit = {
					NOT = { has_country_flag = naval_effort_built }
					any_owned_state = {
						dockyard > 0
						free_building_slots = {
							building = dockyard
							size > 1
							include_locked = no
						}
					}
				}
				random_owned_controlled_state = {
					limit = {
						dockyard > 0
						free_building_slots = {
							building = dockyard
							size > 1
							include_locked = no
						}
					}
					add_building_construction = {
						type = dockyard
						level = 2
						instant_build = yes
					}
				}
				set_country_flag = naval_effort_built
			}
			if = {
				limit = {
					NOT = { has_country_flag = naval_effort_built }
					NOT = {
						any_owned_state = {
							free_building_slots = {
								building = dockyard
								size > 1
								include_locked = yes
							}
						}
					}
				}
				random_state = {
					limit = {
						controller = { tag = ROOT }
						free_building_slots = {
							building = dockyard
							size > 1
							include_locked = no
						}
					}
					add_building_construction = {
						type = dockyard
						level = 2
						instant_build = yes
					}
				}
			}			
		}
	}

	focus = {
		id = SER_flexible_navy
		icon = navy
		prerequisite = { focus = SER_naval_effort }
		mutually_exclusive = { focus = SER_large_navy }
		
		x = -1
		y = 1
		relative_position_id = SER_naval_effort
		cost = 10

		available_if_capitulated = yes


		ai_will_do = {
			factor = 100
			modifier = {
				factor = 0
				all_owned_state = {
					OR = {
						is_coastal = no
						dockyard < 1
					}
				}
			}
		}

		completion_reward = {
			add_tech_bonus = {
				name = flexible_navy
				bonus = 0.25
				uses = 2
				category = Cat_NAVAL_EQP
			}
		}
	}

	focus = {
		id = SER_large_navy
		icon = naval_doctrine
		prerequisite = { focus = SER_naval_effort }
		mutually_exclusive = { focus = SER_flexible_navy }
		
		x = 1
		y = 1
		relative_position_id = SER_naval_effort
		cost = 10

		available_if_capitulated = yes


		ai_will_do = {
			factor = 100
			modifier = {
				factor = 0
				all_owned_state = {
					OR = {
						is_coastal = no
						dockyard < 1
					}
				}
			}
		}

		completion_reward = {
			add_tech_bonus = {
				name = large_navy
				bonus = 0.5
				uses = 2
				category = Cat_CARRIER
			}
		}
	}

	focus = {
		id = SER_submarine_effort
		icon = submarines
		prerequisite = { focus = SER_flexible_navy focus = SER_large_navy }
		
		x = 0
		y = 1
		relative_position_id = SER_flexible_navy
		cost = 10

		available_if_capitulated = yes


		ai_will_do = {
			factor = 100
			modifier = {
				factor = 0
				all_owned_state = {
					OR = {
						is_coastal = no
						dockyard < 1
					}
				}
			}
		}

		completion_reward = {
			add_tech_bonus = {
				name = submarine_effort
				bonus = 0.5
				uses = 1
				category = Cat_SUB
			}
		}
	}

	focus = {
		id = SER_cruiser_effort
		icon = cruisers
		prerequisite = { focus = SER_large_navy focus = SER_flexible_navy }
		
		x = 0
		y = 1
		relative_position_id = SER_large_navy
		cost = 10

		available_if_capitulated = yes


		ai_will_do = {
			factor = 100
			modifier = {
				factor = 0
				all_owned_state = {
					OR = {
						is_coastal = no
						dockyard < 1
					}
				}
			}
		}

		completion_reward = {
			add_tech_bonus = {
				name = flexible_navy
				bonus = 0.5
				uses = 2
				category = Cat_N_CRUISER
				category = Cat_M_Cruiser
			}
		}
	}

	focus = {
		id = SER_destroyer_effort
		icon = destroyers
		prerequisite = { focus = SER_submarine_effort }
		
		x = 0
		y = 1
		relative_position_id = SER_submarine_effort
		cost = 10

		available_if_capitulated = yes


		ai_will_do = {
			factor = 100
			modifier = {
				factor = 0
				all_owned_state = {
					OR = {
						is_coastal = no
						dockyard < 1
					}
				}
			}
		}

		completion_reward = {
			add_tech_bonus = {
				name = destroyer_effort
				bonus = 0.25
				uses = 2
				category = Cat_FRIGATE
				category = Cat_SURFACE_SHIP
			}
		}
	}

	focus = {
		id = SER_capital_ships_effort
		icon = battleships2
		prerequisite = { focus = SER_cruiser_effort }
		
		x = 0
		y = 1
		relative_position_id = SER_cruiser_effort
		cost = 10

		available_if_capitulated = yes


		ai_will_do = {
			factor = 100
			modifier = {
				factor = 0
				all_owned_state = {
					OR = {
						is_coastal = no
						dockyard < 1
					}
				}
			}
		}

		completion_reward = {
			add_tech_bonus = {
				name = capital_ships_effort
				bonus = 0.5
				uses = 1
				category = Cat_N_CV
				category = Cat_LPD
				category = Cat_LHA
			}
		}
	}
}