################
##### Decisions for MD politics ######
################

generic_coalition_politics_desicions = {
	
	icon = generic_political_actions
	
	available = {
		hidden_trigger = { is_ai = no }
	}
	visible = {
		has_civil_war = no
	}
	
	priority = {
		base = 2
	}
	
}


coalition_desicions = {
	
	icon = generic
	
	available = {
		hidden_trigger = { is_ai = no }
	}
	visible = {
		AND = {
			has_country_flag = coalition_forming
			check_variable = { government_coalition_strength_elect < majority_threshold } #not strong enough
		}
	}
	priority = {
		base = 10
	}
}
