ideas = {

	Vehicle_Company = {
	
		designer = yes
		
		GER_krauss_maffei_vehicle_company = {
		
			picture = Krauss_Maffei_GER
			
			allowed = {
				tag = GER
			}
			cost = 150
			
			removal_cost = 10
			
			research_bonus = {
				Cat_ARMOR = 0.279
			}
			
			traits = {
				Cat_ARMOR_9
			
			}
			ai_will_do = {
				factor = 0.9 #All countries need a land army, vehicles are part of modern warfare
				
				modifier = {
					num_of_military_factories > 10 #has the industry to take advantage of the company
					factor = 1
				}
				modifier = {
					is_major = yes #Majors project power
					factor = 1
				}
			}
			
		}
	}
	
	Infantry_Weapon_Company = {
	
		designer = yes
		
		GER_rheinmetall_infantry_weapon_company = {
		
			picture = Rheinmetall_GER
			
			allowed = {
				tag = GER
			}
			cost = 150
			
			removal_cost = 10
			
			research_bonus = {
				Cat_INF = 0.279
			}
			
			traits = {
				Cat_INF_9
			
			}
			ai_will_do = {
				factor = 0.9 #All countries need a land army, vehicles are part of modern warfare
				
				modifier = {
					num_of_military_factories > 5 #has the industry to take advantage of the company
					factor = 1
				}
				modifier = {
					is_major = yes #Majors project power
					factor = 1
				}
			}
			
		}
	}
	
	Vehicle_Company = {
	
		designer = yes
		
		GER_rheinmetall_vehicle_company = {
		
			picture = Rheinmetall_GER
			
			allowed = {
				tag = GER
			}
			cost = 150
			
			removal_cost = 10
			
			research_bonus = {
				Cat_ARMOR = 0.279
			}
			
			traits = {
				Cat_ARMOR_9
			
			}
			ai_will_do = {
				factor = 0.9 #All countries need a land army, vehicles are part of modern warfare
				
				modifier = {
					num_of_military_factories > 10 #has the industry to take advantage of the company
					factor = 1
				}
				modifier = {
					is_major = yes #Majors project power
					factor = 1
				}
			}
			
		}
	}
	
	Infantry_Weapon_Company = {
	
		designer = yes
		
		GER_heckler_koch_infantry_weapon_company = {
		
			picture = Heckler_Koch_GER
			
			allowed = {
				tag = GER
			}
			cost = 150
			
			removal_cost = 10
			
			research_bonus = {
				Cat_INF_WEP = 0.279
			}
			
			traits = {
				Cat_INF_WEP_9
			
			}
			ai_will_do = {
				factor = 0.9 #All countries need a land army, vehicles are part of modern warfare
				
				modifier = {
					num_of_military_factories > 5 #has the industry to take advantage of the company
					factor = 1
				}
				modifier = {
					is_major = yes #Majors project power
					factor = 1
				}
			}
			
		}
	}
	
	Aircraft_Company = {
	
		designer = yes
		
		GER_airbus_defence_aircraft_company = {
		
			picture = Airbus_Defence_GER
			
			allowed = {
				tag = GER
			}
			cost = 150
			
			removal_cost = 10
			
			research_bonus = {
				CAT_FIXED_WING = 0.279
			}
			
			traits = {
				CAT_FIXED_WING_9
			
			}
			ai_will_do = {
				factor = 0.9 #Most countries don't have decent airforces
				
				modifier = {
					or = {
						has_tech = AS_Fighter2 #has semi-modern tech
						has_tech = MR_Fighter2
						has_tech = Strike_fighter2
						has_tech = L_Strike_fighter2
						has_tech = Air_UAV1
					}
					factor = 1
				}
				modifier = {
					or = {
						has_tech = strategic_bomber3 #has semi-modern tech, most countries dont have it
						has_tech = transport_plane2
						has_tech = naval_plane3
						has_tech = cas2
					}
					factor = 1
				}
				modifier = {
					is_major = yes #Majors project power
					factor = 1
				}
			}
			
		}
	}
	
	Helicopter_Company = {
	
		designer = yes
		
		GER_airbus_helicopters_helicopter_company = {
		
			picture = Airbus_Helicopters_GER
			
			allowed = {
				tag = GER
			}
			cost = 150
			
			removal_cost = 10
			
			research_bonus = {
				Cat_HELI = 0.248
			}
			
			traits = {
				Cat_HELI_8
			
			}
			ai_will_do = {
				factor = 0.8 #Most countries don't have decent airforces
				
				modifier = {
					has_tech = attack_helicopter2 #has semi-modern tech, most countries dont have it
					factor = 1
				}
				modifier = {
					has_tech = transport_helicopter2 #has semi-modern tech, most countries dont have it
					factor = 1
				}
				modifier = {
					is_major = yes #Majors project power
					factor = 1
				}
			}
			
		}
	}
	
	Ship_Company = {
	
		designer = yes
		
		GER_thyssenkrupp_marine_ship_company = {
		
			picture = ThyssenKrupp_Marine_GER
			
			allowed = {
				tag = GER
			}
			cost = 150
			
			removal_cost = 10
			
			research_bonus = {
				Cat_SURFACE_SHIP = 0.248
			}
			
			traits = {
				Cat_NAVAL_EQP_8
			
			}
			ai_will_do = {
				factor = 0.8
				
				modifier = {
					has_navy_size = { size > 25 } #has a large navy
					factor = 1
				}
				modifier = {
					num_of_naval_factories > 3 #has the industry to take advantage of the company
					factor = 1
				}
				modifier = {
					is_major = yes #Majors project power
					factor = 1
				}
				modifier = {
					NOT = { #need to have ports
						any_owned_state = {
							is_coastal = yes
						}
					}
					factor = 10
				}
			}
			
		}
	}
	
	Submarine_Company = {
	
		designer = yes
		
		GER_thyssenkrupp_marine_submarine_company = {
		
			picture = ThyssenKrupp_Marine_GER
			
			allowed = {
				tag = GER
			}
			cost = 150
			
			removal_cost = 10
			
			research_bonus = {
				Cat_D_SUB = 0.248
			}
			
			traits = {
				Cat_D_SUB_8
			
			}
			ai_will_do = {
				factor = 0.8
				
				modifier = {
					has_navy_size = { size > 25 } #has a large navy
					factor = 1
				}
				modifier = {
					num_of_naval_factories > 3 #has the industry to take advantage of the company
					factor = 1
				}
				modifier = {
					is_major = yes #Majors project power
						factor = 1
				}
				modifier = {
					NOT = { #need to have ports
						any_owned_state = {
						is_coastal = yes
						}
					}
					factor = 10
				}
			}
			
		}
	}
	
	Ship_Company = {
	
		designer = yes
		
		GER_lurssen_werft_ship_company = {
		
			picture = Lurssen_Werft_GER
			
			allowed = {
				tag = GER
			}
			cost = 150
			
			removal_cost = 10
			
			research_bonus = {
				Cat_SURFACE_SHIP = 0.248
			}
			
			traits = {
				Cat_NAVAL_EQP_8
			
			}
			ai_will_do = {
				factor = 0.8
				
				modifier = {
					has_navy_size = { size > 25 } #has a large navy
					factor = 1
				}
				modifier = {
					num_of_naval_factories > 3 #has the industry to take advantage of the company
					factor = 1
				}
				modifier = {
					is_major = yes #Majors project power
					factor = 1
				}
				modifier = {
					NOT = { #need to have ports
						any_owned_state = {
							is_coastal = yes
						}
					}
					factor = 10
				}
			}
			
		}
	}
	
}
