##contents:
#
# ComSur (South American Alliance),
#	starting up its AI file,
#		and events leading to it
#			by scud
#
#######################################


##AI SLIDERS!
#[democratic/political_left/free_market/freedom/professional_army/defense_lobby/interventionism]
event = {
	id = 7781000
	random = no
	persistent = yes
	
	trigger = {
		ai = yes
		flag = comsur_bra_go
		OR = {
			can_change_policy = { type = interventionism value = 1 }
			can_change_policy = { type = free_market value = 1 }
			can_change_policy = { type = defense_lobby value = 1 }
		}
		OR = {
			country = BRA 	#brazil
			country = ARG 	#argentina
			country = CHL 	#chile
			country = URU 	#uruguay
			country = PAR 	#paraguay
			country = BOL 	#bolivia
			country = PRU 	#peru
			country = ECU 	#ecuador
			country = VEN	#venezuela
			country = COL 	#colombia
			country = MEX 	#mexico
			country = NIC 	#nicaragua
			country = SCO 	#caribean
			country = SPR 	#suriname
			country = SAL 	#salvador
			country = PAN	#panama
			country = HON 	#honduras
			country = GUA	#central america
			country = DOM 	#dominikana
			country = HAI 	#haiti
			country = DFR 	#barbados
			country = CXB 	#trynidad
			country = CUB 	#cuba
			country = CSX 	#jamaica
			country = CSA 	#belize
			country = COS 	#costa rica
			country = BRU	#bahamas
			country = ALS	#grenada
		}
	}
	
	date = { day = 1 month = january year = 2003 }
	offset = 360	#will happen anyway every 360 days (HoI year)
	deathdate = { day = 1 month = july year = 2122 }
	
	name = "AI_EVENT" 
	desc = ""
	#picture = "professional"
	style = 0
	
	
	action_a = {
		name = "OK"
		command = { type = domestic which = free_market value = 1 }
		command = { type = domestic which = interventionism value = 1 }
		command = { type = domestic which = defense_lobby value = 1 }
	}

}

##The alliance is a GO
event = {
	id = 7781001
	random = no
	country = BRA
	
	trigger = {
		alliance = { country = BRA country = ARG }
	}
	
	date = { day = 1 month = january year = 2003 }
	offset = 300
	deathdate = { day = 1 month = july year = 2022 }
	
	name = "The South American Alliance" 
	desc = "We have allied with Argentina. This may be a good moment to consider building up our political position for creating a larger block, possibly even allying with all other South American countries. This would guarantee event better cooperation on the continent than the Mercosur trade group."
	#picture = "shipport"
	style = 0
	
	
	action_a = {
		name = "Let's consider this."
	ai_chance = 99
		command = { type = setflag which = comsur_bra_go }
	}

	action_b = {
		name = "We are not really interested in anything more"
	ai_chance = 1
		command = { }
	}
}
####enabling ai
event = {
	id = 7781002
	random = no
	country = BRA
	
	trigger = {
		ai = yes
		flag = comsur_bra_go
	}
	
	date = { day = 1 month = january year = 2003 }
	offset = 90
	deathdate = { day = 1 month = july year = 2022 }
	
	name = "AI_EVENT" 
	desc = ""
	#picture = "shipport"
	style = 0
	
	
	action_a = {
		name = "OK"
		command = { type = ai which = comsur.ai }
	}
}
event = {
	id = 7781003
	random = no
	country = ARG
	
	trigger = {
		ai = yes
		flag = comsur_bra_go
	}
	
	date = { day = 1 month = january year = 2003 }
	offset = 90
	deathdate = { day = 1 month = july year = 2022 }
	
	name = "AI_EVENT" 
	desc = ""
	#picture = "shipport"
	style = 0
	
	
	action_a = {
		name = "OK"
		command = { type = ai which = comsur.ai }
	}
}
event = {
	id = 7781004
	random = no
	country = CHL
	
	trigger = {
		ai = yes
		alliance = { country = CHL country = BRA }
		flag = comsur_bra_go
	}
	
	date = { day = 1 month = january year = 2003 }
	offset = 90
	deathdate = { day = 1 month = july year = 2022 }
	
	name = "AI_EVENT" 
	desc = ""
	#picture = "shipport"
	style = 0
	
	
	action_a = {
		name = "OK"
		command = { type = ai which = comsur_minor.ai }
	}
}
event = {
	id = 7781005
	random = no
	country = VEN
	
	trigger = {
		ai = yes
		alliance = { country = VEN country = BRA }
		flag = comsur_bra_go
	}
	
	date = { day = 1 month = january year = 2003 }
	offset = 90
	deathdate = { day = 1 month = july year = 2022 }
	
	name = "AI_EVENT" 
	desc = ""
	#picture = "shipport"
	style = 0
	
	
	action_a = {
		name = "OK"
		command = { type = ai which = comsur_minor.ai }
	}
}
event = {
	id = 7781006
	random = no
	country = PAR
	
	trigger = {
		ai = yes
		alliance = { country = PAR country = BRA }
		flag = comsur_bra_go
	}
	
	date = { day = 1 month = january year = 2003 }
	offset = 90
	deathdate = { day = 1 month = july year = 2022 }
	
	name = "AI_EVENT" 
	desc = ""
	#picture = "shipport"
	style = 0
	
	
	action_a = {
		name = "OK"
		command = { type = ai which = comsur_minor.ai }
	}
}
event = {
	id = 7781007
	random = no
	country = URU
	
	trigger = {
		ai = yes
		alliance = { country = URU country = BRA }
		flag = comsur_bra_go
	}
	
	date = { day = 1 month = january year = 2003 }
	offset = 90
	deathdate = { day = 1 month = july year = 2022 }
	
	name = "AI_EVENT" 
	desc = ""
	#picture = "shipport"
	style = 0
	
	
	action_a = {
		name = "OK"
		command = { type = ai which = comsur_minor.ai }
	}
}
event = {
	id = 7781008
	random = no
	country = BOL
	
	trigger = {
		ai = yes
		alliance = { country = BOL country = BRA }
		flag = comsur_bra_go
	}
	
	date = { day = 1 month = january year = 2003 }
	offset = 90
	deathdate = { day = 1 month = july year = 2022 }
	
	name = "AI_EVENT" 
	desc = ""
	#picture = "shipport"
	style = 0
	
	
	action_a = {
		name = "OK"
		command = { type = ai which = comsur_minor.ai }
	}
}
event = {
	id = 7781009
	random = no
	country = PRU
	
	trigger = {
		ai = yes
		alliance = { country = PRU country = BRA }
		flag = comsur_bra_go
	}
	
	date = { day = 1 month = january year = 2003 }
	offset = 90
	deathdate = { day = 1 month = july year = 2022 }
	
	name = "AI_EVENT" 
	desc = ""
	#picture = "shipport"
	style = 0
	
	
	action_a = {
		name = "OK"
		command = { type = ai which = comsur_minor.ai }
	}
}
event = {
	id = 7781010
	random = no
	country = ECU
	
	trigger = {
		ai = yes
		alliance = { country = ECU country = BRA }
		flag = comsur_bra_go
	}
	
	date = { day = 1 month = january year = 2003 }
	offset = 90
	deathdate = { day = 1 month = july year = 2022 }
	
	name = "AI_EVENT" 
	desc = ""
	#picture = "shipport"
	style = 0
	
	
	action_a = {
		name = "OK"
		command = { type = ai which = comsur_minor.ai }
	}
}
event = {
	id = 7781011
	random = no
	country = COL
	
	trigger = {
		ai = yes
		alliance = { country = COL country = BRA }
		flag = comsur_bra_go
	}
	
	date = { day = 1 month = january year = 2003 }
	offset = 90
	deathdate = { day = 1 month = july year = 2022 }
	
	name = "AI_EVENT" 
	desc = ""
	#picture = "shipport"
	style = 0
	
	
	action_a = {
		name = "OK"
		command = { type = ai which = comsur_minor.ai }
	}
}
event = {
	id = 7781012
	random = no
	country = MEX
	
	trigger = {
		ai = yes
		alliance = { country = MEX country = BRA }
		flag = comsur_bra_go
	}
	
	date = { day = 1 month = january year = 2003 }
	offset = 90
	deathdate = { day = 1 month = july year = 2022 }
	
	name = "AI_EVENT" 
	desc = ""
	#picture = "shipport"
	style = 0
	
	
	action_a = {
		name = "OK"
		command = { type = ai which = comsur.ai }
	}
}
event = {
	id = 7781013
	random = no
	country = NIC
	
	trigger = {
		ai = yes
		alliance = { country = NIC country = BRA }
		flag = comsur_bra_go
	}
	
	date = { day = 1 month = january year = 2003 }
	offset = 90
	deathdate = { day = 1 month = july year = 2022 }
	
	name = "AI_EVENT" 
	desc = ""
	#picture = "shipport"
	style = 0
	
	
	action_a = {
		name = "OK"
		command = { type = ai which = comsur_minor.ai }
	}
}
event = {
	id = 7781014
	random = no
	country = SCO
	
	trigger = {
		ai = yes
		alliance = { country = SCO country = BRA }
		flag = comsur_bra_go
	}
	
	date = { day = 1 month = january year = 2003 }
	offset = 90
	deathdate = { day = 1 month = july year = 2022 }
	
	name = "AI_EVENT" 
	desc = ""
	#picture = "shipport"
	style = 0
	
	
	action_a = {
		name = "OK"
		command = { type = ai which = comsur_minor.ai }
	}
}
event = {
	id = 7781015
	random = no
	country = SPR
	
	trigger = {
		ai = yes
		alliance = { country = SPR country = BRA }
		flag = comsur_bra_go
	}
	
	date = { day = 1 month = january year = 2003 }
	offset = 90
	deathdate = { day = 1 month = july year = 2022 }
	
	name = "AI_EVENT" 
	desc = ""
	#picture = "shipport"
	style = 0
	
	
	action_a = {
		name = "OK"
		command = { type = ai which = comsur_minor.ai }
	}
}
event = {
	id = 7781016
	random = no
	country = SAL
	
	trigger = {
		ai = yes
		alliance = { country = SAL country = BRA }
		flag = comsur_bra_go
	}
	
	date = { day = 1 month = january year = 2003 }
	offset = 90
	deathdate = { day = 1 month = july year = 2022 }
	
	name = "AI_EVENT" 
	desc = ""
	#picture = "shipport"
	style = 0
	
	
	action_a = {
		name = "OK"
		command = { type = ai which = comsur_minor.ai }
	}
}
event = {
	id = 7781017
	random = no
	country = PAN
	
	trigger = {
		ai = yes
		alliance = { country = PAN country = BRA }
		flag = comsur_bra_go
	}
	
	date = { day = 1 month = january year = 2003 }
	offset = 90
	deathdate = { day = 1 month = july year = 2022 }
	
	name = "AI_EVENT" 
	desc = ""
	#picture = "shipport"
	style = 0
	
	
	action_a = {
		name = "OK"
		command = { type = ai which = comsur_minor.ai }
	}
}
event = {
	id = 7781018
	random = no
	country = HON
	
	trigger = {
		ai = yes
		alliance = { country = HON country = BRA }
		flag = comsur_bra_go
	}
	
	date = { day = 1 month = january year = 2003 }
	offset = 90
	deathdate = { day = 1 month = july year = 2022 }
	
	name = "AI_EVENT" 
	desc = ""
	#picture = "shipport"
	style = 0
	
	
	action_a = {
		name = "OK"
		command = { type = ai which = comsur_minor.ai }
	}
}
event = {
	id = 7781019
	random = no
	country = GUA
	
	trigger = {
		ai = yes
		alliance = { country = GUA country = BRA }
		flag = comsur_bra_go
	}
	
	date = { day = 1 month = january year = 2003 }
	offset = 90
	deathdate = { day = 1 month = july year = 2022 }
	
	name = "AI_EVENT" 
	desc = ""
	#picture = "shipport"
	style = 0
	
	
	action_a = {
		name = "OK"
		command = { type = ai which = comsur_minor.ai }
	}
}
event = {
	id = 7781020
	random = no
	country = DOM
	
	trigger = {
		ai = yes
		alliance = { country = DOM country = BRA }
		flag = comsur_bra_go
	}
	
	date = { day = 1 month = january year = 2003 }
	offset = 90
	deathdate = { day = 1 month = july year = 2022 }
	
	name = "AI_EVENT" 
	desc = ""
	#picture = "shipport"
	style = 0
	
	
	action_a = {
		name = "OK"
		command = { type = ai which = comsur_minor.ai }
	}
}
event = {
	id = 7781021
	random = no
	country = HAI
	
	trigger = {
		ai = yes
		alliance = { country = HAI country = BRA }
		flag = comsur_bra_go
	}
	
	date = { day = 1 month = january year = 2003 }
	offset = 90
	deathdate = { day = 1 month = july year = 2022 }
	
	name = "AI_EVENT" 
	desc = ""
	#picture = "shipport"
	style = 0
	
	
	action_a = {
		name = "OK"
		command = { type = ai which = comsur_minor.ai }
	}
}
event = {
	id = 7781022
	random = no
	country = DFR
	
	trigger = {
		ai = yes
		alliance = { country = DFR country = BRA }
		flag = comsur_bra_go
	}
	
	date = { day = 1 month = january year = 2003 }
	offset = 90
	deathdate = { day = 1 month = july year = 2022 }
	
	name = "AI_EVENT" 
	desc = ""
	#picture = "shipport"
	style = 0
	
	
	action_a = {
		name = "OK"
		command = { type = ai which = comsur_minor.ai }
	}
}
event = {
	id = 7781023
	random = no
	country = CXB
	
	trigger = {
		ai = yes
		alliance = { country = CXB country = BRA }
		flag = comsur_bra_go
	}
	
	date = { day = 1 month = january year = 2003 }
	offset = 90
	deathdate = { day = 1 month = july year = 2022 }
	
	name = "AI_EVENT" 
	desc = ""
	#picture = "shipport"
	style = 0
	
	
	action_a = {
		name = "OK"
		command = { type = ai which = comsur_minor.ai }
	}
}
event = {
	id = 7781024
	random = no
	country = CUB
	
	trigger = {
		ai = yes
		alliance = { country = CUB country = BRA }
		flag = comsur_bra_go
	}
	
	date = { day = 1 month = january year = 2003 }
	offset = 90
	deathdate = { day = 1 month = july year = 2022 }
	
	name = "AI_EVENT" 
	desc = ""
	#picture = "shipport"
	style = 0
	
	
	action_a = {
		name = "OK"
		command = { type = ai which = comsur_minor.ai }
	}
}
event = {
	id = 7781025
	random = no
	country = CSX
	
	trigger = {
		ai = yes
		alliance = { country = CSX country = BRA }
		flag = comsur_bra_go
	}
	
	date = { day = 1 month = january year = 2003 }
	offset = 90
	deathdate = { day = 1 month = july year = 2022 }
	
	name = "AI_EVENT" 
	desc = ""
	#picture = "shipport"
	style = 0
	
	
	action_a = {
		name = "OK"
		command = { type = ai which = comsur_minor.ai }
	}
}
event = {
	id = 7781026
	random = no
	country = CSA
	
	trigger = {
		ai = yes
		alliance = { country = CSA country = BRA }
		flag = comsur_bra_go
	}
	
	date = { day = 1 month = january year = 2003 }
	offset = 90
	deathdate = { day = 1 month = july year = 2022 }
	
	name = "AI_EVENT" 
	desc = ""
	#picture = "shipport"
	style = 0
	
	
	action_a = {
		name = "OK"
		command = { type = ai which = comsur_minor.ai }
	}
}
event = {
	id = 7781027
	random = no
	country = COS
	
	trigger = {
		ai = yes
		alliance = { country = COS country = BRA }
		flag = comsur_bra_go
	}
	
	date = { day = 1 month = january year = 2003 }
	offset = 90
	deathdate = { day = 1 month = july year = 2022 }
	
	name = "AI_EVENT" 
	desc = ""
	#picture = "shipport"
	style = 0
	
	
	action_a = {
		name = "OK"
		command = { type = ai which = comsur_minor.ai }
	}
}
event = {
	id = 7781028
	random = no
	country = BRU
	
	trigger = {
		ai = yes
		alliance = { country = BRU country = BRA }
		flag = comsur_bra_go
	}
	
	date = { day = 1 month = january year = 2003 }
	offset = 90
	deathdate = { day = 1 month = july year = 2022 }
	
	name = "AI_EVENT" 
	desc = ""
	#picture = "shipport"
	style = 0
	
	
	action_a = {
		name = "OK"
		command = { type = ai which = comsur_minor.ai }
	}
}
event = {
	id = 7781029
	random = no
	country = ALS
	
	trigger = {
		ai = yes
		alliance = { country = ALS country = BRA }
		flag = comsur_bra_go
	}
	
	date = { day = 1 month = january year = 2003 }
	offset = 90
	deathdate = { day = 1 month = july year = 2022 }
	
	name = "AI_EVENT" 
	desc = ""
	#picture = "shipport"
	style = 0
	
	
	action_a = {
		name = "OK"
		command = { type = ai which = comsur_minor.ai }
	}
}

#####
#all SA and CA and Carribean countries from world_names.csv in MDS2 v1.5 added
######
#if any changes in countries appear, change the above!
######

## random: forging alliance ARG-BRA
event = {
	id = 7781030
	random = no
	country = BRA
	
	trigger = {
	  NOT = { alliance = { country = BRA country = ARG } }
	  OR = {
	      AND = {
		random = 10	#10% chance on each check if good relations
		relation = { which = ARG value = 195 } 
	      }
	      random=1 #1% chance on each check if bad relations
	  }
	}
	
	date = { day = 1 month = january year = 2008 }
	offset = 30	#maybe less often?
	deathdate = { day = 1 month = july year = 2022 }
	
	name = "South America" 
	desc = "Our defenses have grown stale. Maybe a foreign cooperation would help?"
	picture = "professional"
	style = 0
	
	
	action_a = {
		name = "Try allying with Argentina"
	ai_chance = 99
		command = { type = trigger which = 7781031 }
	}

	action_b = {
		name = "We are a peacuful nation anyway"
	ai_chance = 1
		command = { }
	}
}
## argentinas choice
event = {
	id = 7781031
	random = no

	country = ARG
	name = "Alliance proposition" 
	desc = "Brazil have offered us an alliance. Should we go with this?"
	picture = "professional"
	style = 0
	
	
	action_a = {
		name = "Yes. Ally with Brazil"
	ai_chance = 90
		command = { type = leave_alliance }	#so that they will be the leader
		command = { type = trigger which = 7781032 }
	}

	action_b = {
		name = "No. Stay neutral"
	ai_chance = 10
		command = { }
	}
}
## alliance is created
event = {
	id = 7781032
	random = no

	country = BRA
	name = "Alliance!" 
	desc = "Argentinians have aggred to our alliance proposition. We are now allied."
	picture = "professional"
	style = 0
	
	
	action_a = {
		name = "Great"
	command = { type = leave_alliance }	#so that we will be the leader
		command = { type = alliance which = ARG }
	}
}
#####################################################################
## random: countries join the alliance
#

##uruguay
event = {
	id = 7781033
	random = no
	country = URU
	
	trigger = {
		NOT = { alliance = { country = URU country = BRA } }
		random = 25	#25% chance on each check
		flag = comsur_bra_go
		relation = { which = BRA value = 195 } 
	}
	
	date = { day = 1 month = january year = 2003 }
	offset = 20	#maybe less often?
	deathdate = { day = 1 month = july year = 2022 }
	
	name = "South America" 
	desc = "Our defenses have grown stale. Maybe a foreign cooperation would help? Brazil have lately started a big military program with Argentinian cooperation. Maybe we should join?"
	picture = "professional"
	style = 0
	
	
	action_a = {
		name = "Try allying with Brazil"
	ai_chance = 90
		command = { type = leave_alliance }	#so that they will be the leader
		command = { type = alliance which = BRA }
		command = { type = trigger which = 7781034 }	#notify
	}

	action_b = {
		name = "We are a peacuful nation anyway"
	ai_chance = 10
		command = { }
	}
}
## alliance is created
event = {
	id = 7781034
	random = no

	country = BRA
	name = "Alliance!" 
	desc = "The Uruguayans have decided to join our foreign cooperation project. We are now allied."
	picture = "professional"
	style = 0
	
	
	action_a = {
		name = "Great"
		command = { }
	}
}
##paraguay
event = {
	id = 7781035
	random = no
	country = PAR
	
	trigger = {
		NOT = { alliance = { country = URU country = BRA } }
		random = 25	#25% chance on each check
		flag = comsur_bra_go
		relation = { which = BRA value = 195 } 
	}
	
	date = { day = 1 month = january year = 2003 }
	offset = 20	#maybe less often?
	deathdate = { day = 1 month = july year = 2022 }
	
	name = "South America" 
	desc = "Our defenses have grown stale. Maybe a foreign cooperation would help? Brazil have lately started a big military program with Argentinian cooperation. Maybe we should join?"
	picture = "professional"
	style = 0
	
	
	action_a = {
		name = "Try allying with Brazil"
	ai_chance = 90
		command = { type = leave_alliance }	#so that they will be the leader
		command = { type = alliance which = BRA }
		command = { type = trigger which = 7781036 }	#notify
	}

	action_b = {
		name = "We are a peacuful nation anyway"
	ai_chance = 10
		command = { }
	}
}
## alliance is created
event = {
	id = 7781036
	random = no

	country = BRA
	name = "Alliance!" 
	desc = "The Paraguayans have decided to join our foreign cooperation project. We are now allied."
	picture = "professional"
	style = 0
	
	
	action_a = {
		name = "Great"
		command = { }
	}
}
##bolivia
event = {
	id = 7781037
	random = no
	country = BOL
	
	trigger = {
		NOT = { alliance = { country = BOL country = BRA } }
		random = 25	#25% chance on each check
		flag = comsur_bra_go
		relation = { which = BRA value = 195 } 
	}
	
	date = { day = 1 month = january year = 2003 }
	offset = 20	#maybe less often?
	deathdate = { day = 1 month = july year = 2022 }
	
	name = "South America" 
	desc = "Our defenses have grown stale. Maybe a foreign cooperation would help? Brazil have lately started a big military program with Argentinian cooperation. Maybe we should join?"
	picture = "professional"
	style = 0
	
	
	action_a = {
		name = "Try allying with Brazil"
	ai_chance = 90
		command = { type = leave_alliance }	#so that they will be the leader
		command = { type = alliance which = BRA }
		command = { type = trigger which = 7781038 }	#notify
	}

	action_b = {
		name = "We are a peacuful nation anyway"
	ai_chance = 10
		command = { }
	}
}
## alliance is created
event = {
	id = 7781038
	random = no

	country = BRA
	name = "Alliance!" 
	desc = "The Bolivians have decided to join our foreign cooperation project. We are now allied."
	picture = "professional"
	style = 0
	
	
	action_a = {
		name = "Great"
		command = { }
	}
}
##chile
event = {
	id = 7781039
	random = no
	country = CHL
	
	trigger = {
		NOT = { alliance = { country = CHL country = BRA } }
		random = 25	#25% chance on each check
		flag = comsur_bra_go
		relation = { which = BRA value = 195 } 
	}
	
	date = { day = 1 month = january year = 2003 }
	offset = 20	#maybe less often?
	deathdate = { day = 1 month = july year = 2022 }
	
	name = "South America" 
	desc = "Our defenses have grown stale. Maybe a foreign cooperation would help? Brazil have lately started a big military program with Argentinian cooperation. Maybe we should join?"
	picture = "professional"
	style = 0
	
	
	action_a = {
		name = "Try allying with Brazil"
	ai_chance = 90
		command = { type = leave_alliance }	#so that they will be the leader
		command = { type = alliance which = BRA }
		command = { type = trigger which = 7781040 }	#notify
	}

	action_b = {
		name = "We are a peacuful nation anyway"
	ai_chance = 10
		command = { }
	}
}
## alliance is created
event = {
	id = 7781040
	random = no

	country = BRA
	name = "Alliance!" 
	desc = "The Chileans have decided to join our foreign cooperation project. We are now allied."
	picture = "professional"
	style = 0
	
	
	action_a = {
		name = "Great"
		command = { }
	}
}
##peru
event = {
	id = 7781041
	random = no
	country = PRU
	
	trigger = {
		NOT = { alliance = { country = PRU country = BRA } }
		random = 25	#25% chance on each check
		flag = comsur_bra_go
		relation = { which = BRA value = 195 } 
	}
	
	date = { day = 1 month = january year = 2003 }
	offset = 20	#maybe less often?
	deathdate = { day = 1 month = july year = 2022 }
	
	name = "South America" 
	desc = "Our defenses have grown stale. Maybe a foreign cooperation would help? Brazil have lately started a big military program with Argentinian cooperation. Maybe we should join?"
	picture = "professional"
	style = 0
	
	
	action_a = {
		name = "Try allying with Brazil"
	ai_chance = 90
		command = { type = leave_alliance }	#so that they will be the leader
		command = { type = alliance which = BRA }
		command = { type = trigger which = 7781042 }	#notify
	}

	action_b = {
		name = "We are a peacuful nation anyway"
	ai_chance = 10
		command = { }
	}
}
## alliance is created
event = {
	id = 7781042
	random = no

	country = BRA
	name = "Alliance!" 
	desc = "The Peruvians have decided to join our foreign cooperation project. We are now allied."
	picture = "professional"
	style = 0
	
	
	action_a = {
		name = "Great"
		command = { }
	}
}
##ecuador
event = {
	id = 7781043
	random = no
	country = ECU
	
	trigger = {
		NOT = { alliance = { country = ECU country = BRA } }
		random = 25	#25% chance on each check
		flag = comsur_bra_go
		relation = { which = BRA value = 195 } 
	}
	
	date = { day = 1 month = january year = 2003 }
	offset = 20	#maybe less often?
	deathdate = { day = 1 month = july year = 2022 }
	
	name = "South America" 
	desc = "Our defenses have grown stale. Maybe a foreign cooperation would help? Brazil have lately started a big military program with Argentinian cooperation. Maybe we should join?"
	picture = "professional"
	style = 0
	
	
	action_a = {
		name = "Try allying with Brazil"
	ai_chance = 90
		command = { type = leave_alliance }	#so that they will be the leader
		command = { type = alliance which = BRA }
		command = { type = trigger which = 7781044 }	#notify
	}

	action_b = {
		name = "We are a peacuful nation anyway"
	ai_chance = 10
		command = { }
	}
}
## alliance is created
event = {
	id = 7781044
	random = no

	country = BRA
	name = "Alliance!" 
	desc = "The Ecuadorians have decided to join our foreign cooperation project. We are now allied."
	picture = "professional"
	style = 0
	
	
	action_a = {
		name = "Great"
		command = { }
	}
}
##colombia
event = {
	id = 7781045
	random = no
	country = COL
	
	trigger = {
		NOT = { alliance = { country = COL country = BRA } }
		random = 25	#25% chance on each check
		flag = comsur_bra_go
		relation = { which = BRA value = 195 } 
	}
	
	date = { day = 1 month = january year = 2003 }
	offset = 20	#maybe less often?
	deathdate = { day = 1 month = july year = 2022 }
	
	name = "South America" 
	desc = "Our defenses have grown stale. Maybe a foreign cooperation would help? Brazil have lately started a big military program with Argentinian cooperation. Maybe we should join?"
	picture = "professional"
	style = 0
	
	
	action_a = {
		name = "Try allying with Brazil"
	ai_chance = 90
		command = { type = leave_alliance }	#so that they will be the leader
		command = { type = alliance which = BRA }
		command = { type = trigger which = 7781046 }	#notify
	}

	action_b = {
		name = "We are a peacuful nation anyway"
	ai_chance = 10
		command = { }
	}
}
## alliance is created
event = {
	id = 7781046
	random = no

	country = BRA
	name = "Alliance!" 
	desc = "The Colombians have decided to join our foreign cooperation project. We are now allied."
	picture = "professional"
	style = 0
	
	
	action_a = {
		name = "Great"
		command = { }
	}
}
##venezuela
event = {
	id = 7781047
	random = no
	country = VEN
	
	trigger = {
		NOT = { alliance = { country = VEN country = BRA } }
		random = 25	#25% chance on each check
		flag = comsur_bra_go
		relation = { which = BRA value = 195 } 
	}
	
	date = { day = 1 month = january year = 2003 }
	offset = 20	#maybe less often?
	deathdate = { day = 1 month = july year = 2022 }
	
	name = "South America" 
	desc = "Our defenses have grown stale. Maybe a foreign cooperation would help? Brazil have lately started a big military program with Argentinian cooperation. Maybe we should join?"
	picture = "professional"
	style = 0
	
	
	action_a = {
		name = "Try allying with Brazil"
	ai_chance = 90
		command = { type = leave_alliance }	#so that they will be the leader
		command = { type = alliance which = BRA }
		command = { type = trigger which = 7781048 }	#notify
	}

	action_b = {
		name = "We are a peacuful nation anyway"
	ai_chance = 10
		command = { }
	}
}
## alliance is created
event = {
	id = 7781048
	random = no

	country = BRA
	name = "Alliance!" 
	desc = "The Venezuelans have decided to join our foreign cooperation project. We are now allied."
	picture = "professional"
	style = 0
	
	
	action_a = {
		name = "Great"
		command = { }
	}
}

#######################
# central american / carribean countries should maybe not join from events


##Centralizing for better power projection

##uruguay becomes territory
event = {
	id = 7781049
	random = no
	country = BRA
	
	trigger = {
		alliance = { country = URU country = BRA }
		random = 25	#25% chance on each check
		flag = comsur_bra_go
		relation = { which = URU value = 195 } 
	}
	
	date = { day = 1 month = january year = 2015 }
	offset = 20	#maybe less often?
	deathdate = { day = 1 month = july year = 2022 }
	
	name = "South America" 
	desc = "A cooperation between us and Uruguay ha grown incredibly in the last years. Both COMSUR and MERCOSUR guarantee great profits. Uruguay is now considered our united territory..."
	#picture = "professional"
	style = 0
	
	
	action_a = {
		name = "OK"
		command = { type = addcore which = 849 }
	}

}
##paraguay becomes territory
event = {
	id = 7781050
	random = no
	country = BRA
	
	trigger = {
		alliance = { country = PAR country = BRA }
		random = 25	#25% chance on each check
		flag = comsur_bra_go
		relation = { which = PAR value = 195 } 
	}
	
	date = { day = 1 month = january year = 2015 }
	offset = 20	#maybe less often?
	deathdate = { day = 1 month = july year = 2022 }
	
	name = "South America" 
	desc = "A cooperation between us and Paraguay ha grown incredibly in the last years. Both COMSUR and MERCOSUR guarantee great profits. Paraguay is now considered our united territory..."
	#picture = "professional"
	style = 0
	
	
	action_a = {
		name = "OK"
		command = { type = addcore which = 837 }
		command = { type = addcore which = 846 }
	}

}
##bolivia becomes territory
event = {
	id = 7781051
	random = no
	country = BRA
	
	trigger = {
		alliance = { country = BOL country = BRA }
		random = 25	#25% chance on each check
		flag = comsur_bra_go
		relation = { which = BOL value = 195 } 
	}
	
	date = { day = 1 month = january year = 2016 }
	offset = 20	#maybe less often?
	deathdate = { day = 1 month = july year = 2022 }
	
	name = "South America" 
	desc = "A cooperation between us and Bolivia ha grown incredibly in the last years. Both COMSUR and MERCOSUR guarantee great profits. Bolivia is now considered our united territory..."
	#picture = "professional"
	style = 0
	
	
	action_a = {
		name = "OK"
		command = { type = addcore which = 836 }
		command = { type = addcore which = 833 }
		command = { type = addcore which = 838 }
		command = { type = addcore which = 832 }
		command = { type = addcore which = 828 }
		command = { type = addcore which = 827 }
	}

}
##peru becomes territory
event = {
	id = 7781057
	random = no
	country = BRA
	
	trigger = {
		alliance = { country = PRU country = BRA }
		random = 25	#25% chance on each check
		flag = comsur_bra_go
		relation = { which = PRU value = 195 } 
	}
	
	date = { day = 1 month = january year = 2016 }
	offset = 20	#maybe less often?
	deathdate = { day = 1 month = july year = 2022 }
	
	name = "South America" 
	desc = "A cooperation between us and Peru ha grown incredibly in the last years. Both COMSUR and MERCOSUR guarantee great profits. Peru is now considered our united territory..."
	#picture = "professional"
	style = 0
	
	
	action_a = {
		name = "OK"
		command = { type = addcore which = 831 }
		command = { type = addcore which = 829 }
		command = { type = addcore which = 830 }
		command = { type = addcore which = 821 }
		command = { type = addcore which = 816 }
		command = { type = addcore which = 818 }
	}

}
##ecuador becomes territory
event = {
	id = 7781052
	random = no
	country = BRA
	
	trigger = {
		alliance = { country = ECU country = BRA }
		random = 25	#25% chance on each check
		flag = comsur_bra_go
		relation = { which = ECU value = 195 } 
	}
	
	date = { day = 1 month = january year = 2016 }
	offset = 20	#maybe less often?
	deathdate = { day = 1 month = july year = 2022 }
	
	name = "South America" 
	desc = "A cooperation between us and Ecuador ha grown incredibly in the last years. Both COMSUR and MERCOSUR guarantee great profits. Ecuador is now considered our united territory..."
	#picture = "professional"
	style = 0
	
	
	action_a = {
		name = "OK"
		command = { type = addcore which = 814 }
		command = { type = addcore which = 815 }
		command = { type = addcore which = 817 }
	}

}
##chile becomes territory
event = {
	id = 7781053
	random = no
	country = BRA
	
	trigger = {
		alliance = { country = CHL country = BRA }
		random = 25	#25% chance on each check
		flag = comsur_bra_go
		relation = { which = CHL value = 195 } 
	}
	
	date = { day = 1 month = january year = 2017 }
	offset = 20	#maybe less often?
	deathdate = { day = 1 month = july year = 2022 }
	
	name = "South America" 
	desc = "A cooperation between us and Chile ha grown incredibly in the last years. Both COMSUR and MERCOSUR guarantee great profits. Chile is now considered our united territory..."
	#picture = "professional"
	style = 0
	
	
	action_a = {
		name = "OK"
		command = { type = addcore which = 864 }
		command = { type = addcore which = 861 }
		command = { type = addcore which = 860 }
		command = { type = addcore which = 856 }
		command = { type = addcore which = 840 }
		command = { type = addcore which = 839 }
		command = { type = addcore which = 841 }
		command = { type = addcore which = 842 }
	}

}
##colombia becomes territory
event = {
	id = 7781054
	random = no
	country = BRA
	
	trigger = {
		alliance = { country = COL country = BRA }
		random = 25	#25% chance on each check
		flag = comsur_bra_go
		relation = { which = COL value = 195 } 
	}
	
	date = { day = 1 month = january year = 2017 }
	offset = 20	#maybe less often?
	deathdate = { day = 1 month = july year = 2022 }
	
	name = "South America" 
	desc = "A cooperation between us and Colombia ha grown incredibly in the last years. Both COMSUR and MERCOSUR guarantee great profits. Colombia is now considered our united territory..."
	#picture = "professional"
	style = 0
	
	
	action_a = {
		name = "OK"
		command = { type = addcore which = 803 }
		command = { type = addcore which = 812 }
		command = { type = addcore which = 813 }
		command = { type = addcore which = 890 }
		command = { type = addcore which = 867 }
		command = { type = addcore which = 819 }
		command = { type = addcore which = 868 }
	}

}
##Venezuela becomes territory
event = {
	id = 7781055
	random = no
	country = BRA
	
	trigger = {
		alliance = { country = VEN country = BRA }
		random = 25	#25% chance on each check
		flag = comsur_bra_go
		relation = { which = VEN value = 195 } 
	}
	
	date = { day = 1 month = january year = 2017 }
	offset = 20	#maybe less often?
	deathdate = { day = 1 month = july year = 2022 }
	
	name = "South America" 
	desc = "A cooperation between us and Venezuela ha grown incredibly in the last years. Both COMSUR and MERCOSUR guarantee great profits. Venezuela is now considered our united territory..."
	#picture = "professional"
	style = 0
	
	
	action_a = {
		name = "OK"
		command = { type = addcore which = 804 }
		command = { type = addcore which = 802 }
		command = { type = addcore which = 810 }
		command = { type = addcore which = 811 }
		command = { type = addcore which = 869 }
		command = { type = addcore which = 870 }
	}

}
##Argentina becomes territory
event = {
	id = 7781056
	random = no
	country = BRA
	
	trigger = {
		alliance = { country = ARG country = BRA }
		random = 25	#25% chance on each check
		flag = comsur_bra_go
		relation = { which = ARG value = 195 } 
	}
	
	date = { day = 1 month = june year = 2017 }
	offset = 20	#maybe less often?
	deathdate = { day = 1 month = july year = 2022 }
	
	name = "South America" 
	desc = "A cooperation between us and Argentina ha grown incredibly in the last years. Both COMSUR and MERCOSUR guarantee great profits. Argentina is now considered our united territory..."
	#picture = "professional"
	style = 0
	
	
	action_a = {
		name = "OK"
		command = { type = addcore which = 866 }
		command = { type = addcore which = 667 }
		command = { type = addcore which = 853 }
		command = { type = addcore which = 852 }
		command = { type = addcore which = 843 }
		command = { type = addcore which = 844 }
		command = { type = addcore which = 845 }
		command = { type = addcore which = 851 }
		command = { type = addcore which = 854 }
		command = { type = addcore which = 855 }
		command = { type = addcore which = 857 }
		command = { type = addcore which = 858 }
		command = { type = addcore which = 859 }
		command = { type = addcore which = 862 }
		command = { type = addcore which = 863 }
		command = { type = addcore which = 865 }
		command = { type = addcore which = 850 }
	}

}
###############This should help AI 
##uruguay becomes territory
event = {
	id = 7781058
	random = no
	country = BRA
	
	trigger = {
		ai = yes
		ai = URU
		event = 7781049
		alliance = { country = URU country = BRA }
		random = 25	#25% chance on each check
		flag = comsur_bra_go
		relation = { which = URU value = 195 } 
	}
	
	date = { day = 1 month = january year = 2012 }
	offset = 20	#maybe less often?
	deathdate = { day = 1 month = july year = 2022 }
	
	name = "South America" 
	desc = "A cooperation between us and Uruguay ha grown incredibly in the last years. Both COMSUR and MERCOSUR guarantee great profits. Uruguay is now considered our united territory..."
	#picture = "professional"
	style = 0
	
	
	action_a = {
		name = "OK"
		command = { type = inherit which = URU }
		command = { type = ai which = comsur.ai }
	}

}
##paraguay becomes territory
event = {
	id = 7781059
	random = no
	country = BRA
	
	trigger = {
		ai = yes
		ai = PAR
		event = 7781050
		alliance = { country = PAR country = BRA }
		random = 25	#25% chance on each check
		flag = comsur_bra_go
		relation = { which = PAR value = 195 } 
	}
	
	date = { day = 1 month = january year = 2012 }
	offset = 20	#maybe less often?
	deathdate = { day = 1 month = july year = 2022 }
	
	name = "South America" 
	desc = "A cooperation between us and Paraguay ha grown incredibly in the last years. Both COMSUR and MERCOSUR guarantee great profits. Paraguay is now considered our united territory..."
	#picture = "professional"
	style = 0
	
	
	action_a = {
		name = "OK"
		command = { type = inherit which = PAR }
		command = { type = ai which = comsur.ai }
	}

}
##bolivia becomes territory
event = {
	id = 7781060
	random = no
	country = BRA
	
	trigger = {
		ai = yes
		ai = BOL
		event = 7781051
		alliance = { country = BOL country = BRA }
		random = 25	#25% chance on each check
		flag = comsur_bra_go
		relation = { which = BOL value = 195 } 
	}
	
	date = { day = 1 month = january year = 2013 }
	offset = 20	#maybe less often?
	deathdate = { day = 1 month = july year = 2022 }
	
	name = "South America" 
	desc = "A cooperation between us and Bolivia ha grown incredibly in the last years. Both COMSUR and MERCOSUR guarantee great profits. Bolivia is now considered our united territory..."
	#picture = "professional"
	style = 0
	
	
	action_a = {
		name = "OK"
		command = { type = inherit which = BOL }
		command = { type = ai which = comsur.ai }
	}

}
##peru becomes territory
event = {
	id = 7781061
	random = no
	country = BRA
	
	trigger = {
		ai = yes
		ai = PRU
		event = 7781057
		alliance = { country = PRU country = BRA }
		random = 25	#25% chance on each check
		flag = comsur_bra_go
		relation = { which = PRU value = 195 } 
	}
	
	date = { day = 1 month = january year = 2013 }
	offset = 20	#maybe less often?
	deathdate = { day = 1 month = july year = 2022 }
	
	name = "South America" 
	desc = "A cooperation between us and Peru ha grown incredibly in the last years. Both COMSUR and MERCOSUR guarantee great profits. Peru is now considered our united territory..."
	#picture = "professional"
	style = 0
	
	
	action_a = {
		name = "OK"
		command = { type = inherit which = PRU }
		command = { type = ai which = comsur.ai }
	}

}
##ecuador becomes territory
event = {
	id = 7781062
	random = no
	country = BRA
	
	trigger = {
		ai = yes
		ai = ECU
		event = 7781052
		alliance = { country = ECU country = BRA }
		random = 25	#25% chance on each check
		flag = comsur_bra_go
		relation = { which = ECU value = 195 } 
	}
	
	date = { day = 1 month = january year = 2013 }
	offset = 20	#maybe less often?
	deathdate = { day = 1 month = july year = 2022 }
	
	name = "South America" 
	desc = "A cooperation between us and Ecuador ha grown incredibly in the last years. Both COMSUR and MERCOSUR guarantee great profits. Ecuador is now considered our united territory..."
	#picture = "professional"
	style = 0
	
	
	action_a = {
		name = "OK"
		command = { type = inherit which = ECU }
		command = { type = ai which = comsur.ai }
	}

}
##chile becomes territory
event = {
	id = 7781063
	random = no
	country = BRA
	
	trigger = {
		ai = yes
		ai = CHL
		event = 7781053
		alliance = { country = CHL country = BRA }
		random = 25	#25% chance on each check
		flag = comsur_bra_go
		relation = { which = CHL value = 195 } 
	}
	
	date = { day = 1 month = january year = 2014 }
	offset = 20	#maybe less often?
	deathdate = { day = 1 month = july year = 2022 }
	
	name = "South America" 
	desc = "A cooperation between us and Chile ha grown incredibly in the last years. Both COMSUR and MERCOSUR guarantee great profits. Chile is now considered our united territory..."
	#picture = "professional"
	style = 0
	
	
	action_a = {
		name = "OK"
		command = { type = inherit which = CHL }
		command = { type = ai which = comsur.ai }
	}

}
##colombia becomes territory
event = {
	id = 7781064
	random = no
	country = BRA
	
	trigger = {
		ai = yes
		ai = URU
		event = 7781054
		alliance = { country = COL country = BRA }
		random = 25	#25% chance on each check
		flag = comsur_bra_go
		relation = { which = COL value = 195 } 
	}
	
	date = { day = 1 month = january year = 2014 }
	offset = 20	#maybe less often?
	deathdate = { day = 1 month = july year = 2022 }
	
	name = "South America" 
	desc = "A cooperation between us and Colombia ha grown incredibly in the last years. Both COMSUR and MERCOSUR guarantee great profits. Colombia is now considered our united territory..."
	#picture = "professional"
	style = 0
	
	
	action_a = {
		name = "OK"
		command = { type = inherit which = COL }
		command = { type = ai which = comsur.ai }
	}

}
##Venezuela becomes territory
event = {
	id = 7781065
	random = no
	country = BRA
	
	trigger = {
		ai = yes
		ai = VEN
		event = 7781065
		alliance = { country = VEN country = BRA }
		random = 25	#25% chance on each check
		flag = comsur_bra_go
		relation = { which = VEN value = 195 } 
	}
	
	date = { day = 1 month = january year = 2014 }
	offset = 20	#maybe less often?
	deathdate = { day = 1 month = july year = 2022 }
	
	name = "South America" 
	desc = "A cooperation between us and Venezuela ha grown incredibly in the last years. Both COMSUR and MERCOSUR guarantee great profits. Venezuela is now considered our united territory..."
	#picture = "professional"
	style = 0
	
	
	action_a = {
		name = "OK"
		command = { type = inherit which = VEN }
		command = { type = ai which = comsur.ai }
	}

}
##Argentina becomes territory
event = {
	id = 7781066
	random = no
	country = BRA
	
	trigger = {
		ai = yes
		ai = ARG
		event = 7781056
		alliance = { country = ARG country = BRA }
		random = 25	#25% chance on each check
		flag = comsur_bra_go
		relation = { which = ARG value = 195 } 
	}
	
	date = { day = 1 month = june year = 2014 }
	offset = 20	#maybe less often?
	deathdate = { day = 1 month = july year = 2022 }
	
	name = "South America" 
	desc = "A cooperation between us and Argentina ha grown incredibly in the last years. Both COMSUR and MERCOSUR guarantee great profits. Argentina is now considered our united territory..."
	#picture = "professional"
	style = 0
	
	
	action_a = {
		name = "OK"
		command = { type = inherit which = ARG }
		command = { type = ai which = comsur.ai }
	}

}

#########################################
#### Creation events done? ##############
#########################################

######################################
##Military Power Bonuses?

##Brazil builds a carrier via supplies? Realistic?
event = {
	id = 7781067
	random = no
	country = BRA
	
	trigger = {
		#ai = yes
		#random = 25	#25% chance on each check
		flag = comsur_bra_go
		#relation = { which = ARG value = 195 } 
	}
	
#maybe later?
	date = { day = 1 month = january year = 2010 }
	offset = 365	#any day of this year
	deathdate = { day = 1 month = january year = 2011 }
	
	name = "Marinha do Brasil" #brazilian navy?
	desc = "Our Admirals have declared that our navy is totally obsolete and will not suffice in case of greater naval conflict. Thus COMSUR is rather without any major naval power. The Admirals have proposed a plan to build our navy. First off they think we will me able to build a quite good carrier that will be the flagship of the new fleet, that will be build in time..."
	picture = "carrier"
	style = 0
	
	
	action_a = {
		name = "Go ahead with the navy plan"
	ai_chance = 100 #so that the AI will always get the new fleet
		command = { type = free_supplies value = -150 }
		command = { type = setflag which = comsur_naval }	#maybe this should be something live chinesse zhang he plan?
		command = { type = setflag which = comsur_carrier1 }
	}
	action_b = {
		name = "Build only the new carrier"
	ai_chance = 0
		command = { type = free_supplies value = -100 }
		command = { type = setflag which = comsur_carrier1 }
	}
	action_c = {
		name = "Oceans are not our priority"
	ai_chance = 0
		command = { }
	}

}
#Brazilian new carrier is ready
event = {
	id = 7781068
	random = no
	country = BRA
	
	trigger = {
		flag = comsur_carrier1
	}

	#3 years times 150 supplies = 165k supplydays
	#this equals rougly 30-40k IC days, with normal carrier cost between 30k and 60k IC
	#but may also randomly get as low as 2 years, or as high as 4 years of buildtime
	date = { day = 1 month = january year = 2012 }
	offset = 365	#any day of this year
	deathdate = { day = 1 month = january year = 2013 }
	
	name = "NAe Confiança" #trust?
	desc = "After years of production the carrier NAe Confiança is ready to leave the shipyard and commence naval trials."
	picture = "carrier"
	style = 0
	
	
	action_a = {
		name = "Great!"
		command = { type = free_supplies value = 150 }
		command = { type = clrflag which = comsur_carrier1 }
		command = { type = add_division which = "NAe Confiança" value = carrier when = 2 where = cag }
	#MODERN CARRIER, SHOUL BE QUITE WHEN MAJORS ALREADY BUILD FUTURE ONES?
	}

}


###############################
##comsur airforce, one multi role 4 to every member
###for just 10k energy and 5k metal
###############################

event = {
	id = 7781069
	random = no
	country = BRA
	
	trigger = {
		#ai = yes #disabled? or should be ai only?
		flag = comsur_bra_go
	}
	
	date = { day = 1 month = january year = 2007 }
	offset = 300
	deathdate = { day = 1 month = july year = 2022 }
	
	name = "Comsur Airforce" 
	desc = "Comsur requires us to build up our airforce to a more modern standardn. Fortunetaly we can now buy the aircrafts for industrial privilages in Mercosur, not just money."
	picture = "exports"
	style = 0
	
	
	action_a = {
		name = "Go ahead"	#3 divs for brazil?
		command = { type = add_division which = "ComSur Airforce Wing" value = multi_role when = 4 } #model 4, will do?
command = { type = add_division which = "ComSur Airforce Wing" value = multi_role when = 4 } #model 4, will do?
command = { type = add_division which = "ComSur Airforce Wing" value = multi_role when = 4 } #model 4, will do?
		command = { type = metalpool value = -15000 }
		command = { type = energypool value = -30000 }
	}
	action_b = {
		name = "We can't afford that"
		command = { }
	}
}
event = {
	id = 7781070
	random = no
	country = ARG
	
	trigger = {
		#ai = yes #disabled? or should be ai only?
		flag = comsur_bra_go
	}
	
	date = { day = 1 month = january year = 2007 }
	offset = 300
	deathdate = { day = 1 month = july year = 2022 }
	
	name = "Comsur Airforce" 
	desc = "Comsur requires us to build up our airforce to a more modern standardn. Fortunetaly we can now buy the aircrafts for industrial privilages in Mercosur, not just money."
	picture = "exports"
	style = 0
	
	
	action_a = {
		name = "Go ahead"
		command = { type = add_division which = "ComSur Airforce Wing" value = multi_role when = 4 } #model 4, will do?
		command = { type = metalpool value = -5000 }
		command = { type = energypool value = -10000 }
	}
	action_b = {
		name = "We can't afford that"
		command = { }
	}
}
event = {
	id = 7781071
	random = no
	country = CHL
	
	trigger = {
		#ai = yes #disabled? or should be ai only?
		alliance = { country = CHL country = BRA }
		flag = comsur_bra_go
	}
	
	date = { day = 1 month = january year = 2007 }
	offset = 300
	deathdate = { day = 1 month = july year = 2022 }
	
	name = "Comsur Airforce" 
	desc = "Comsur requires us to build up our airforce to a more modern standardn. Fortunetaly we can now buy the aircrafts for industrial privilages in Mercosur, not just money."
	picture = "exports"
	style = 0
	
	
	action_a = {
		name = "Go ahead"
		command = { type = add_division which = "ComSur Airforce Wing" value = multi_role when = 4 } #model 4, will do?
		command = { type = metalpool value = -5000 }
		command = { type = energypool value = -10000 }
	}
	action_b = {
		name = "We can't afford that"
		command = { }
	}
}
event = {
	id = 7781072
	random = no
	country = VEN
	
	trigger = {
		#ai = yes #disabled? or should be ai only?
		alliance = { country = VEN country = BRA }
		flag = comsur_bra_go
	}
	
	date = { day = 1 month = january year = 2007 }
	offset = 300
	deathdate = { day = 1 month = july year = 2022 }
	
	name = "Comsur Airforce" 
	desc = "Comsur requires us to build up our airforce to a more modern standardn. Fortunetaly we can now buy the aircrafts for industrial privilages in Mercosur, not just money."
	picture = "exports"
	style = 0
	
	action_a = {
		name = "Go ahead"
		command = { type = add_division which = "ComSur Airforce Wing" value = multi_role when = 4 } #model 4, will do?
		command = { type = metalpool value = -5000 }
		command = { type = energypool value = -10000 }
	}
	action_b = {
		name = "We can't afford that"
		command = { }
	}
}
event = {
	id = 7781073
	random = no
	country = PAR
	
	trigger = {
		#ai = yes #disabled? or should be ai only?
		alliance = { country = PAR country = BRA }
		flag = comsur_bra_go
	}
	
	date = { day = 1 month = january year = 2007 }
	offset = 300
	deathdate = { day = 1 month = july year = 2022 }
	
	name = "Comsur Airforce" 
	desc = "Comsur requires us to build up our airforce to a more modern standardn. Fortunetaly we can now buy the aircrafts for industrial privilages in Mercosur, not just money."
	picture = "exports"
	style = 0
	
	
	action_a = {
		name = "Go ahead"
		command = { type = add_division which = "ComSur Airforce Wing" value = multi_role when = 4 } #model 4, will do?
		command = { type = metalpool value = -5000 }
		command = { type = energypool value = -10000 }
	}
	action_b = {
		name = "We can't afford that"
		command = { }
	}
}
event = {
	id = 7781074
	random = no
	country = URU
	
	trigger = {
		#ai = yes #disabled? or should be ai only?
		alliance = { country = URU country = BRA }
		flag = comsur_bra_go
	}
	
	date = { day = 1 month = january year = 2007 }
	offset = 300
	deathdate = { day = 1 month = july year = 2022 }
	
	name = "Comsur Airforce" 
	desc = "Comsur requires us to build up our airforce to a more modern standardn. Fortunetaly we can now buy the aircrafts for industrial privilages in Mercosur, not just money."
	picture = "exports"
	style = 0
	
	action_a = {
		name = "Go ahead"
		command = { type = add_division which = "ComSur Airforce Wing" value = multi_role when = 4 } #model 4, will do?
		command = { type = metalpool value = -5000 }
		command = { type = energypool value = -10000 }
	}
	action_b = {
		name = "We can't afford that"
		command = { }
	}
}
event = {
	id = 7781075
	random = no
	country = BOL
	
	trigger = {
		#ai = yes #disabled? or should be ai only?
		alliance = { country = BOL country = BRA }
		flag = comsur_bra_go
	}
	
	date = { day = 1 month = january year = 2007 }
	offset = 300
	deathdate = { day = 1 month = july year = 2022 }
	
	name = "Comsur Airforce" 
	desc = "Comsur requires us to build up our airforce to a more modern standardn. Fortunetaly we can now buy the aircrafts for industrial privilages in Mercosur, not just money."
	picture = "exports"
	style = 0
	
	
	action_a = {
		name = "Go ahead"
		command = { type = add_division which = "ComSur Airforce Wing" value = multi_role when = 4 } #model 4, will do?
		command = { type = metalpool value = -5000 }
		command = { type = energypool value = -10000 }
	}
	action_b = {
		name = "We can't afford that"
		command = { }
	}
}
event = {
	id = 7781076
	random = no
	country = PRU
	
	trigger = {
		#ai = yes #disabled? or should be ai only?
		alliance = { country = PRU country = BRA }
		flag = comsur_bra_go
	}
	
	date = { day = 1 month = january year = 2007 }
	offset = 300
	deathdate = { day = 1 month = july year = 2022 }
	
	name = "Comsur Airforce" 
	desc = "Comsur requires us to build up our airforce to a more modern standardn. Fortunetaly we can now buy the aircrafts for industrial privilages in Mercosur, not just money."
	picture = "exports"
	style = 0
	
	
	action_a = {
		name = "Go ahead"
		command = { type = add_division which = "ComSur Airforce Wing" value = multi_role when = 4 } #model 4, will do?
		command = { type = metalpool value = -5000 }
		command = { type = energypool value = -10000 }
	}
	action_b = {
		name = "We can't afford that"
		command = { }
	}
}
event = {
	id = 7781077
	random = no
	country = ECU
	
	trigger = {
		#ai = yes #disabled? or should be ai only?
		alliance = { country = ECU country = BRA }
		flag = comsur_bra_go
	}
	
	date = { day = 1 month = january year = 2007 }
	offset = 300
	deathdate = { day = 1 month = july year = 2022 }
	
	name = "Comsur Airforce" 
	desc = "Comsur requires us to build up our airforce to a more modern standardn. Fortunetaly we can now buy the aircrafts for industrial privilages in Mercosur, not just money."
	picture = "exports"
	style = 0
	
	action_a = {
		name = "Go ahead"
		command = { type = add_division which = "ComSur Airforce Wing" value = multi_role when = 4 } #model 4, will do?
		command = { type = metalpool value = -5000 }
		command = { type = energypool value = -10000 }
	}
	action_b = {
		name = "We can't afford that"
		command = { }
	}
}
event = {
	id = 7781078
	random = no
	country = COL
	
	trigger = {
		#ai = yes #disabled? or should be ai only?
		alliance = { country = COL country = BRA }
		flag = comsur_bra_go
	}
	
	date = { day = 1 month = january year = 2007 }
	offset = 300
	deathdate = { day = 1 month = july year = 2022 }
	
	name = "Comsur Airforce" 
	desc = "Comsur requires us to build up our airforce to a more modern standardn. Fortunetaly we can now buy the aircrafts for industrial privilages in Mercosur, not just money."
	picture = "exports"
	style = 0
	
	
	action_a = {
		name = "Go ahead"
		command = { type = add_division which = "ComSur Airforce Wing" value = multi_role when = 4 } #model 4, will do?
		command = { type = metalpool value = -5000 }
		command = { type = energypool value = -10000 }
	}
	action_b = {
		name = "We can't afford that"
		command = { }
	}
}
event = {
	id = 7781079
	random = no
	country = MEX
	
	trigger = {
		#ai = yes #disabled? or should be ai only?
		alliance = { country = MEX country = BRA }
		flag = comsur_bra_go
	}
	
	date = { day = 1 month = january year = 2007 }
	offset = 300
	deathdate = { day = 1 month = july year = 2022 }
	
	name = "Comsur Airforce" 
	desc = "Comsur requires us to build up our airforce to a more modern standardn. Fortunetaly we can now buy the aircrafts for industrial privilages in Mercosur, not just money."
	picture = "exports"
	style = 0
	
	
	action_a = {
		name = "Go ahead"
		command = { type = add_division which = "ComSur Airforce Wing" value = multi_role when = 4 } #model 4, will do?
		command = { type = metalpool value = -5000 }
		command = { type = energypool value = -10000 }
	}
	action_b = {
		name = "We can't afford that"
		command = { }
	}
}
event = {
	id = 7781080
	random = no
	country = NIC
	
	trigger = {
		#ai = yes #disabled? or should be ai only?
		alliance = { country = NIC country = BRA }
		flag = comsur_bra_go
	}
	
	date = { day = 1 month = january year = 2007 }
	offset = 300
	deathdate = { day = 1 month = july year = 2022 }
	
	name = "Comsur Airforce" 
	desc = "Comsur requires us to build up our airforce to a more modern standardn. Fortunetaly we can now buy the aircrafts for industrial privilages in Mercosur, not just money."
	picture = "exports"
	style = 0
	
	
	action_a = {
		name = "Go ahead"
		command = { type = add_division which = "ComSur Airforce Wing" value = multi_role when = 4 } #model 4, will do?
		command = { type = metalpool value = -5000 }
		command = { type = energypool value = -10000 }
	}
	action_b = {
		name = "We can't afford that"
		command = { }
	}
}
event = {
	id = 7781081
	random = no
	country = SCO
	
	trigger = {
		#ai = yes #disabled? or should be ai only?
		alliance = { country = SCO country = BRA }
		flag = comsur_bra_go
	}
	
	date = { day = 1 month = january year = 2007 }
	offset = 300
	deathdate = { day = 1 month = july year = 2022 }
	
	name = "Comsur Airforce" 
	desc = "Comsur requires us to build up our airforce to a more modern standardn. Fortunetaly we can now buy the aircrafts for industrial privilages in Mercosur, not just money."
	picture = "exports"
	style = 0
	
	
	action_a = {
		name = "Go ahead"
		command = { type = add_division which = "ComSur Airforce Wing" value = multi_role when = 4 } #model 4, will do?
		command = { type = metalpool value = -5000 }
		command = { type = energypool value = -10000 }
	}
	action_b = {
		name = "We can't afford that"
		command = { }
	}
}
event = {
	id = 7781082
	random = no
	country = SPR
	
	trigger = {
		#ai = yes #disabled? or should be ai only?
		alliance = { country = SPR country = BRA }
		flag = comsur_bra_go
	}
	
	date = { day = 1 month = january year = 2007 }
	offset = 300
	deathdate = { day = 1 month = july year = 2022 }
	
	name = "Comsur Airforce" 
	desc = "Comsur requires us to build up our airforce to a more modern standardn. Fortunetaly we can now buy the aircrafts for industrial privilages in Mercosur, not just money."
	picture = "exports"
	style = 0
	
	
	action_a = {
		name = "Go ahead"
		command = { type = add_division which = "ComSur Airforce Wing" value = multi_role when = 4 } #model 4, will do?
		command = { type = metalpool value = -5000 }
		command = { type = energypool value = -10000 }
	}
	action_b = {
		name = "We can't afford that"
		command = { }
	}
}
event = {
	id = 7781083
	random = no
	country = SAL
	
	trigger = {
		#ai = yes #disabled? or should be ai only?
		alliance = { country = SAL country = BRA }
		flag = comsur_bra_go
	}
	
	date = { day = 1 month = january year = 2007 }
	offset = 300
	deathdate = { day = 1 month = july year = 2022 }
	
	name = "Comsur Airforce" 
	desc = "Comsur requires us to build up our airforce to a more modern standardn. Fortunetaly we can now buy the aircrafts for industrial privilages in Mercosur, not just money."
	picture = "exports"
	style = 0
	
	
	action_a = {
		name = "Go ahead"
		command = { type = add_division which = "ComSur Airforce Wing" value = multi_role when = 4 } #model 4, will do?
		command = { type = metalpool value = -5000 }
		command = { type = energypool value = -10000 }
	}
	action_b = {
		name = "We can't afford that"
		command = { }
	}
}
event = {
	id = 7781084
	random = no
	country = PAN
	
	trigger = {
		#ai = yes #disabled? or should be ai only?
		alliance = { country = PAN country = BRA }
		flag = comsur_bra_go
	}
	
	date = { day = 1 month = january year = 2007 }
	offset = 300
	deathdate = { day = 1 month = july year = 2022 }
	
	name = "Comsur Airforce" 
	desc = "Comsur requires us to build up our airforce to a more modern standardn. Fortunetaly we can now buy the aircrafts for industrial privilages in Mercosur, not just money."
	picture = "exports"
	style = 0
	
	action_a = {
		name = "Go ahead"
		command = { type = add_division which = "ComSur Airforce Wing" value = multi_role when = 4 } #model 4, will do?
		command = { type = metalpool value = -5000 }
		command = { type = energypool value = -10000 }
	}
	action_b = {
		name = "We can't afford that"
		command = { }
	}
}
event = {
	id = 7781085
	random = no
	country = HON
	
	trigger = {
		#ai = yes #disabled? or should be ai only?
		alliance = { country = HON country = BRA }
		flag = comsur_bra_go
	}
	
	date = { day = 1 month = january year = 2007 }
	offset = 300
	deathdate = { day = 1 month = july year = 2022 }
	
	name = "Comsur Airforce" 
	desc = "Comsur requires us to build up our airforce to a more modern standardn. Fortunetaly we can now buy the aircrafts for industrial privilages in Mercosur, not just money."
	picture = "exports"
	style = 0
	
	
	action_a = {
		name = "Go ahead"
		command = { type = add_division which = "ComSur Airforce Wing" value = multi_role when = 4 } #model 4, will do?
		command = { type = metalpool value = -5000 }
		command = { type = energypool value = -10000 }
	}
	action_b = {
		name = "We can't afford that"
		command = { }
	}
}
event = {
	id = 7781086
	random = no
	country = GUA
	
	trigger = {
		#ai = yes #disabled? or should be ai only?
		alliance = { country = GUA country = BRA }
		flag = comsur_bra_go
	}
	
	date = { day = 1 month = january year = 2007 }
	offset = 300
	deathdate = { day = 1 month = july year = 2022 }
	
	name = "Comsur Airforce" 
	desc = "Comsur requires us to build up our airforce to a more modern standardn. Fortunetaly we can now buy the aircrafts for industrial privilages in Mercosur, not just money."
	picture = "exports"
	style = 0
	
	
	action_a = {
		name = "Go ahead"
		command = { type = add_division which = "ComSur Airforce Wing" value = multi_role when = 4 } #model 4, will do?
		command = { type = metalpool value = -5000 }
		command = { type = energypool value = -10000 }
	}
	action_b = {
		name = "We can't afford that"
		command = { }
	}
}
event = {
	id = 7781087
	random = no
	country = DOM
	
	trigger = {
		#ai = yes #disabled? or should be ai only?
		alliance = { country = DOM country = BRA }
		flag = comsur_bra_go
	}
	
	date = { day = 1 month = january year = 2007 }
	offset = 300
	deathdate = { day = 1 month = july year = 2022 }
	
	name = "Comsur Airforce" 
	desc = "Comsur requires us to build up our airforce to a more modern standardn. Fortunetaly we can now buy the aircrafts for industrial privilages in Mercosur, not just money."
	picture = "exports"
	style = 0
	
	
	action_a = {
		name = "Go ahead"
		command = { type = add_division which = "ComSur Airforce Wing" value = multi_role when = 4 } #model 4, will do?
		command = { type = metalpool value = -5000 }
		command = { type = energypool value = -10000 }
	}
	action_b = {
		name = "We can't afford that"
		command = { }
	}
}
event = {
	id = 7781088
	random = no
	country = HAI
	
	trigger = {
		#ai = yes #disabled? or should be ai only?
		alliance = { country = HAI country = BRA }
		flag = comsur_bra_go
	}
	
	date = { day = 1 month = january year = 2007 }
	offset = 300
	deathdate = { day = 1 month = july year = 2022 }
	
	name = "Comsur Airforce" 
	desc = "Comsur requires us to build up our airforce to a more modern standardn. Fortunetaly we can now buy the aircrafts for industrial privilages in Mercosur, not just money."
	picture = "exports"
	style = 0
	
	
	action_a = {
		name = "Go ahead"
		command = { type = add_division which = "ComSur Airforce Wing" value = multi_role when = 4 } #model 4, will do?
		command = { type = metalpool value = -5000 }
		command = { type = energypool value = -10000 }
	}
	action_b = {
		name = "We can't afford that"
		command = { }
	}
}
event = {
	id = 7781089
	random = no
	country = DFR
	
	trigger = {
		#ai = yes #disabled? or should be ai only?
		alliance = { country = DFR country = BRA }
		flag = comsur_bra_go
	}
	
	date = { day = 1 month = january year = 2007 }
	offset = 300
	deathdate = { day = 1 month = july year = 2022 }
	
	name = "Comsur Airforce" 
	desc = "Comsur requires us to build up our airforce to a more modern standardn. Fortunetaly we can now buy the aircrafts for industrial privilages in Mercosur, not just money."
	picture = "exports"
	style = 0
	
	
	action_a = {
		name = "Go ahead"
		command = { type = add_division which = "ComSur Airforce Wing" value = multi_role when = 4 } #model 4, will do?
		command = { type = metalpool value = -5000 }
		command = { type = energypool value = -10000 }
	}
	action_b = {
		name = "We can't afford that"
		command = { }
	}
}
event = {
	id = 7781090
	random = no
	country = CXB
	
	trigger = {
		#ai = yes #disabled? or should be ai only?
		alliance = { country = CXB country = BRA }
		flag = comsur_bra_go
	}
	
	date = { day = 1 month = january year = 2007 }
	offset = 300
	deathdate = { day = 1 month = july year = 2022 }
	
	name = "Comsur Airforce" 
	desc = "Comsur requires us to build up our airforce to a more modern standardn. Fortunetaly we can now buy the aircrafts for industrial privilages in Mercosur, not just money."
	picture = "exports"
	style = 0
	
	action_a = {
		name = "Go ahead"
		command = { type = add_division which = "ComSur Airforce Wing" value = multi_role when = 4 } #model 4, will do?
		command = { type = metalpool value = -5000 }
		command = { type = energypool value = -10000 }
	}
	action_b = {
		name = "We can't afford that"
		command = { }
	}
}
event = {
	id = 7781091
	random = no
	country = CUB
	
	trigger = {
		#ai = yes #disabled? or should be ai only?
		alliance = { country = CUB country = BRA }
		flag = comsur_bra_go
	}
	
	date = { day = 1 month = january year = 2007 }
	offset = 300
	deathdate = { day = 1 month = july year = 2022 }
	
	name = "Comsur Airforce" 
	desc = "Comsur requires us to build up our airforce to a more modern standardn. Fortunetaly we can now buy the aircrafts for industrial privilages in Mercosur, not just money."
	picture = "exports"
	style = 0
	
	
	action_a = {
		name = "Go ahead"
		command = { type = add_division which = "ComSur Airforce Wing" value = multi_role when = 4 } #model 4, will do?
		command = { type = metalpool value = -5000 }
		command = { type = energypool value = -10000 }
	}
	action_b = {
		name = "We can't afford that"
		command = { }
	}
}
event = {
	id = 7781092
	random = no
	country = CSX
	
	trigger = {
		#ai = yes #disabled? or should be ai only?
		alliance = { country = CSX country = BRA }
		flag = comsur_bra_go
	}
	
	date = { day = 1 month = january year = 2007 }
	offset = 300
	deathdate = { day = 1 month = july year = 2022 }
	
	name = "Comsur Airforce" 
	desc = "Comsur requires us to build up our airforce to a more modern standardn. Fortunetaly we can now buy the aircrafts for industrial privilages in Mercosur, not just money."
	picture = "exports"
	style = 0
	
	
	action_a = {
		name = "Go ahead"
		command = { type = add_division which = "ComSur Airforce Wing" value = multi_role when = 4 } #model 4, will do?
		command = { type = metalpool value = -5000 }
		command = { type = energypool value = -10000 }
	}
	action_b = {
		name = "We can't afford that"
		command = { }
	}
}
event = {
	id = 7781093
	random = no
	country = CSA
	
	trigger = {
		#ai = yes #disabled? or should be ai only?
		alliance = { country = CSA country = BRA }
		flag = comsur_bra_go
	}
	
	date = { day = 1 month = january year = 2007 }
	offset = 300
	deathdate = { day = 1 month = july year = 2022 }
	
	name = "Comsur Airforce" 
	desc = "Comsur requires us to build up our airforce to a more modern standardn. Fortunetaly we can now buy the aircrafts for industrial privilages in Mercosur, not just money."
	picture = "exports"
	style = 0
	
	
	action_a = {
		name = "Go ahead"
		command = { type = add_division which = "ComSur Airforce Wing" value = multi_role when = 4 } #model 4, will do?
		command = { type = metalpool value = -5000 }
		command = { type = energypool value = -10000 }
	}
	action_b = {
		name = "We can't afford that"
		command = { }
	}
}
event = {
	id = 7781094
	random = no
	country = COS
	
	trigger = {
		#ai = yes #disabled? or should be ai only?
		alliance = { country = COS country = BRA }
		flag = comsur_bra_go
	}
	
	date = { day = 1 month = january year = 2007 }
	offset = 300
	deathdate = { day = 1 month = july year = 2022 }
	
	name = "Comsur Airforce" 
	desc = "Comsur requires us to build up our airforce to a more modern standardn. Fortunetaly we can now buy the aircrafts for industrial privilages in Mercosur, not just money."
	picture = "exports"
	style = 0
	
	action_a = {
		name = "Go ahead"
		command = { type = add_division which = "ComSur Airforce Wing" value = multi_role when = 4 } #model 4, will do?
		command = { type = metalpool value = -5000 }
		command = { type = energypool value = -10000 }
	}
	action_b = {
		name = "We can't afford that"
		command = { }
	}
}
event = {
	id = 7781095
	random = no
	country = BRU
	
	trigger = {
		#ai = yes #disabled? or should be ai only?
		alliance = { country = BRU country = BRA }
		flag = comsur_bra_go
	}
	
	date = { day = 1 month = january year = 2007 }
	offset = 300
	deathdate = { day = 1 month = july year = 2022 }
	
	name = "Comsur Airforce" 
	desc = "Comsur requires us to build up our airforce to a more modern standardn. Fortunetaly we can now buy the aircrafts for industrial privilages in Mercosur, not just money."
	picture = "exports"
	style = 0
	
	
	action_a = {
		name = "Go ahead"
		command = { type = add_division which = "ComSur Airforce Wing" value = multi_role when = 4 } #model 4, will do?
		command = { type = metalpool value = -5000 }
		command = { type = energypool value = -10000 }
	}
	action_b = {
		name = "We can't afford that"
		command = { }
	}
}
event = {
	id = 7781096
	random = no
	country = ALS
	
	trigger = {
		#ai = yes #disabled? or should be ai only?
		alliance = { country = ALS country = BRA }
		flag = comsur_bra_go
	}
	
	date = { day = 1 month = january year = 2007 }
	offset = 300
	deathdate = { day = 1 month = july year = 2022 }
	
	name = "Comsur Airforce" 
	desc = "Comsur requires us to build up our airforce to a more modern standardn. Fortunetaly we can now buy the aircrafts for industrial privilages in Mercosur, not just money."
	picture = "exports"
	style = 0
	
	action_a = {
		name = "Go ahead"
		command = { type = add_division which = "ComSur Airforce Wing" value = multi_role when = 4 } #model 4, will do?
		command = { type = metalpool value = -5000 }
		command = { type = energypool value = -10000 }
	}
	action_b = {
		name = "We can't afford that"
		command = { }
	}
}


## End of Comsur airforce

##Brazil fleet, cruisers?
event = {
	id = 7781098
	random = no
	country = BRA
	
	trigger = {
		#ai = yes
		#random = 25	#25% chance on each check
		flag = comsur_naval
		#relation = { which = ARG value = 195 } 
	}
	
#maybe later?
	date = { day = 1 month = january year = 2011 }
	offset = 365	#any day of this year
	deathdate = { day = 1 month = january year = 2012 }
	
	name = "Marinha do Brasil" #brazilian navy?
	desc = "For our new fleet, the plan suggests building a few cruisers for the carrier battle group. The keel for the first one should be laid down just about now..."
	picture = "carrier"
	style = 0
	
	
	action_a = {
		name = "Go ahead with the navy plan"
	ai_chance = 100 #so that the AI will always get the new fleet
		command = { type = free_supplies value = -30 }
		command = { type = setflag which = comsur_cruiser1 }
	}

	action_c = {
		name = "Oceans are not our priority"
	ai_chance = 0
		command = { }
	}

}
##Brazil fleet, cruisers?
event = {
	id = 7781099
	random = no
	country = BRA
	
	trigger = {
		#ai = yes
		#random = 25	#25% chance on each check
		flag = comsur_naval
		flag = comsur_cruiser2
		#relation = { which = ARG value = 195 } 
	}
	
#maybe later?
	date = { day = 1 month = july year = 2011 }
	offset = 365	#any day of this year
	deathdate = { day = 1 month = july year = 2012 }
	
	name = "Marinha do Brasil" #brazilian navy?
	desc = "For our new fleet, the plan suggests building a few cruisers for the carrier battle group. The keel for the second one should be laid down just about now..."
	picture = "carrier"
	style = 0
	
	
	action_a = {
		name = "Go ahead with the navy plan"
	ai_chance = 100 #so that the AI will always get the new fleet
		command = { type = free_supplies value = -30 }
		command = { type = setflag which = comsur_cruiser2 }
	}

	action_c = {
		name = "Oceans are not our priority"
	ai_chance = 0
		command = { }
	}

}
#First cruiser is ready
event = {
	id = 7781100
	random = no
	country = BRA
	
	trigger = {
		flag = comsur_cruiser1
	}


	date = { day = 1 month = january year = 2012 }
	offset = 365	#any day of this year
	deathdate = { day = 1 month = january year = 2013 }
	
	name = "NAe Unidade" #trust?
	desc = "After months of production the cruiser NAe Unidade is ready to leave the shipyard and commence naval trials."
	picture = "carrier"
	style = 0
	
	
	action_a = {
		name = "Great!"
		command = { type = free_supplies value = 30 }
		command = { type = clrflag which = comsur_cruiser1 }
		command = { type = add_division which = "NAe Unidade" value = battleship when = 4 } #future? 2010?
	}

}
#Second cruiser is ready
event = {
	id = 7781101
	random = no
	country = BRA
	
	trigger = {
		flag = comsur_cruiser2
	}


	date = { day = 1 month = july year = 2012 }
	offset = 365	#any day of this year
	deathdate = { day = 1 month = july year = 2013 }
	
	name = "NAe Sustentaçao" #trust?
	desc = "After months of production the cruiser NAe Sustentaçao is ready to leave the shipyard and commence naval trials."
	picture = "carrier"
	style = 0
	
	
	action_a = {
		name = "Great!"
		command = { type = free_supplies value = 30 }
		command = { type = clrflag which = comsur_cruiser2 }
		command = { type = add_division which = "NAe Sustentaçao" value = battlecruiser when = 4 } #future? 2010?
	}

}

##Resource balancing (because those countries build up economy, unlike others)
event = {
	id = 7781102
	random = no
	persistent = yes
	
	trigger = {
		ai = yes

			NOT = { metal = 2000 }
	
		
		flag = comsur_bra_go

		OR = {
			country = BRA 	#brazil
			country = ARG 	#argentina
			country = CHL 	#chile
			country = URU 	#uruguay
			country = PAR 	#paraguay
			country = BOL 	#bolivia
			country = PRU 	#peru
			country = ECU 	#ecuador
			country = VEN	#venezuela
			country = COL 	#colombia
			country = MEX 	#mexico
			country = NIC 	#nicaragua
			country = SCO 	#caribean
			country = SPR 	#suriname
			country = SAL 	#salvador
			country = PAN	#panama
			country = HON 	#honduras
			country = GUA	#central america
			country = DOM 	#dominikana
			country = HAI 	#haiti
			country = DFR 	#barbados
			country = CXB 	#trynidad
			country = CUB 	#cuba
			country = CSX 	#jamaica
			country = CSA 	#belize
			country = COS 	#costa rica
			country = BRU	#bahamas
			country = ALS	#grenada
		}
	}
	
	date = { day = 1 month = january year = 2003 }
	offset = 20	#event conditions checked every 20 days
	deathdate = { day = 1 month = july year = 2122 }
	
	name = "Raw materials shortage" 
	desc = "Our expanding economy has come to a shortage of raw materials. A effort has been put to expand our mining industries."
	picture = "mining"
	style = 0
	
	
	action_a = {
		name = "Finally"
		command = { type = add_prov_resource which = -1 value = 10 where = metal }
		command = { type = money value = -200 }
	}

}
##Resource balancing (because those countries build up economy, unlike others)
event = {
	id = 7781103
	random = no
	persistent = yes
	
	trigger = {
		ai = yes

			NOT = { energy = 4000 }
	
		
		flag = comsur_bra_go

		OR = {
			country = BRA 	#brazil
			country = ARG 	#argentina
			country = CHL 	#chile
			country = URU 	#uruguay
			country = PAR 	#paraguay
			country = BOL 	#bolivia
			country = PRU 	#peru
			country = ECU 	#ecuador
			country = VEN	#venezuela
			country = COL 	#colombia
			country = MEX 	#mexico
			country = NIC 	#nicaragua
			country = SCO 	#caribean
			country = SPR 	#suriname
			country = SAL 	#salvador
			country = PAN	#panama
			country = HON 	#honduras
			country = GUA	#central america
			country = DOM 	#dominikana
			country = HAI 	#haiti
			country = DFR 	#barbados
			country = CXB 	#trynidad
			country = CUB 	#cuba
			country = CSX 	#jamaica
			country = CSA 	#belize
			country = COS 	#costa rica
			country = BRU	#bahamas
			country = ALS	#grenada
		}
	}
	
	date = { day = 1 month = january year = 2003 }
	offset = 20	#event conditions checked every 20 days
	deathdate = { day = 1 month = july year = 2122 }
	
	name = "Energy shortage" 
	desc = "Our expanding economy has come to a shortage of MegaWatts. A effort has been put to expand our power plants."
	picture = "nukeplant"
	style = 0
	
	
	action_a = {
		name = "Finally"
		command = { type = add_prov_resource which = -1 value = 20 where = energy }
		command = { type = money value = -200 }
	}

}
##Resource balancing (because those countries build up economy, unlike others)
event = {
	id = 7781104
	random = no
	persistent = yes
	
	trigger = {
		ai = yes

			NOT = { rare_materials = 1000 }
	
		
		flag = comsur_bra_go

		OR = {
			country = BRA 	#brazil
			country = ARG 	#argentina
			country = CHL 	#chile
			country = URU 	#uruguay
			country = PAR 	#paraguay
			country = BOL 	#bolivia
			country = PRU 	#peru
			country = ECU 	#ecuador
			country = VEN	#venezuela
			country = COL 	#colombia
			country = MEX 	#mexico
			country = NIC 	#nicaragua
			country = SCO 	#caribean
			country = SPR 	#suriname
			country = SAL 	#salvador
			country = PAN	#panama
			country = HON 	#honduras
			country = GUA	#central america
			country = DOM 	#dominikana
			country = HAI 	#haiti
			country = DFR 	#barbados
			country = CXB 	#trynidad
			country = CUB 	#cuba
			country = CSX 	#jamaica
			country = CSA 	#belize
			country = COS 	#costa rica
			country = BRU	#bahamas
			country = ALS	#grenada
		}
	}
	
	date = { day = 1 month = january year = 2003 }
	offset = 20	#event conditions checked every 20 days
	deathdate = { day = 1 month = july year = 2122 }
	
	name = "Raw materials shortage" 
	desc = "Our expanding economy has come to a shortage of raw materials. A effort has been put to expand our mining industries."
	picture = "mining"
	style = 0
	
	
	action_a = {
		name = "Finally"
		command = { type = add_prov_resource which = -1 value = 7 where = rare_materials }
		command = { type = money value = -200 }
	}

}
##Infra balancing for AI
event = {
	id = 7781105
	random = no
	persistent = no
	country = BRA
	trigger = {
		ai = yes
	
		
		flag = comsur_bra_go

	}
	
	date = { day = 1 month = january year = 2003 }
	offset = 20	#event conditions checked every 20 days
	deathdate = { day = 1 month = july year = 2122 }
	
	name = "AI_EvENT" 
	desc = ""
	#picture = "mining"
	style = 0
	
	
	action_a = {
		name = "OK"
		command = { type = construct which = infrastructure where = 862 value = 20 }
		command = { type = construct which = infrastructure where = 859 value = 20 }
		command = { type = construct which = infrastructure where = 855 value = 20 }
		command = { type = construct which = infrastructure where = 827 value = 20 }
		command = { type = construct which = infrastructure where = 828 value = 20 }
		command = { type = construct which = infrastructure where = 833 value = 20 }
		command = { type = construct which = infrastructure where = 821 value = 20 }
		command = { type = construct which = infrastructure where = 818 value = 20 }
		command = { type = construct which = infrastructure where = 825 value = 20 }
		command = { type = construct which = infrastructure where = 820 value = 20 }
		command = { type = construct which = infrastructure where = 823 value = 20 }
		command = { type = construct which = infrastructure where = 822 value = 20 }
		command = { type = construct which = infrastructure where = 819 value = 20 }
		command = { type = construct which = infrastructure where = 868 value = 20 }
	}

}







##########################################################################
##########################################################################
###############Setting up the stage for IVth world war####################
##########################################################################

##Trade wars
event = {
	id = 7781106
	random = no
	persistent = no
	country = BRA
	trigger = {
		
		flag = comsur_bra_go
		atwar = no
		exists = USA
		NOT = { OR = {
			event = 7781107
			event = 7781108
			event = 7781109 
		} }

	}
	
	date = { day = 1 month = january year = 2013 }
	offset = 360
	deathdate = { day = 1 month = july year = 2122 }
	
	name = "Foreign Trade" 
	desc = "An unfair trade agreement has existed for some time now between us and the U.S. It is particularily bad for interests of our major internal corporations and has a negative on our economical growth and social affairs."
	picture = "usdollar"
	style = 0
	
	
	action_a = {
		name = "Just brake the agreement"
		ai_chance = 100
		command = { type = end_trades which = BRA where = USA }
		command = { type = trigger which = 7781110 }
		command = { type = relation which = USA value = -10 }
	}

	action_b = {
		name = "Let it be"
		ai_chance=0
		command = { type = free_ic value = -10 }
	}
}
##Trade wars
event = {
	id = 7781107
	random = no
	persistent = no
	country = BRA
	trigger = {
		
		flag = comsur_bra_go
		atwar = no
		exists = U06
		NOT = { OR = {
			event = 7781106
			event = 7781108
			event = 7781109
		} }

	}
	
	date = { day = 1 month = january year = 2013 }
	offset = 360
	deathdate = { day = 1 month = july year = 2122 }
	
	name = "Foreign Trade" 
	desc = "An unfair trade agreement has existed for some time now between us and the E.U. It is particularily bad for interests of our major internal corporations and has a negative on our economical growth and social affairs."
	picture = "usdollar"
	style = 0
	
	
	action_a = {
		name = "Just brake the agreement"
		ai_chance = 100
		command = { type = end_trades which = BRA where = U06 }
		command = { type = trigger which = 7781111 }
		command = { type = relation which = U06 value = -10 }
	}

	action_b = {
		name = "Let it be"
		ai_chance = 0
		command = { type = free_ic value = -10 }
	}
}
##Trade wars
event = {
	id = 7781108
	random = no
	persistent = no
	country = BRA
	trigger = {
		
		flag = comsur_bra_go
		atwar = no
		exists = CHC
		NOT = { OR = {
			event = 7781107
			event = 7781106
			event = 7781109
		} }

	}
	
	date = { day = 1 month = january year = 2013 }
	offset = 360
	deathdate = { day = 1 month = july year = 2122 }
	
	name = "Foreign Trade" 
	desc = "An unfair trade agreement has existed for some time now between us and China. It is particularily bad for interests of our major internal corporations and has a negative on our economical growth and social affairs."
	picture = "usdollar"
	style = 0
	
	
	action_a = {
		name = "Just brake the agreement"
		ai_chance = 100
		command = { type = end_trades which = BRA where = CHC }
		command = { type = trigger which = 7781112 }
		command = { type = relation which = CHC value = -10 }
	}

	action_b = {
		name = "Let it be"
		ai_chance = 0
		command = { type = free_ic value = -10 }
	}
}
##Trade wars
event = {
	id = 7781109
	random = no
	persistent = no
	country = BRA
	trigger = {
		
		flag = comsur_bra_go
		atwar = no
		exists = JAP
		NOT = { OR = {
			event = 7781107
			event = 7781108
			event = 7781106
		} }

	}
	
	date = { day = 1 month = january year = 2013 }
	offset = 360
	deathdate = { day = 1 month = july year = 2122 }
	
	name = "Foreign Trade" 
	desc = "An unfair trade agreement has existed for some time now between us and Japan. It is particularily bad for interests of our major internal corporations and has a negative on our economical growth and social affairs."
	picture = "usdollar"
	style = 0
	
	
	action_a = {
		name = "Just brake the agreement"
		ai_chance = 100
		command = { type = end_trades which = BRA where = JAP }
		command = { type = trigger which = 7781113 }
		command = { type = relation which = JAP value = -10 }
	}

	action_b = {
		name = "Let it be"
		ai_chance = 0
		command = { type = free_ic value = -10 }
	}
}
##Trade wars
event = {
	id = 7781110
	random = no
	persistent = no
	country = USA
	
	name = "Foreign Trade" 
	desc = "Brazil has now broken all trade agreements between our two nations. They state that they were slowing their economical growth by their sheer unfairness. They must be mad, it was all right."
	picture = "usdollar"
	style = 0
	
	
	action_a = {
		name = "We will find some other market for our goods"
		ai_chance = 100
		command = { type = relation which = BRA value = -100 }
		command = { type = setflag which = comsur_vs_usa }
	}

	action_b = {
		name = "Let them be"
		ai_chance=0
		command = { type = free_ic value = -2 }
	}
}
##Trade wars
event = {
	id = 7781111
	random = no
	persistent = no
	country = U06
	
	name = "Foreign Trade" 
	desc = "Brazil has now broken all trade agreements between our two nations. They state that they were slowing their economical growth by their sheer unfairness. They must be mad, it was all right."
	picture = "usdollar"
	style = 0
	
	
	action_a = {
		name = "We will find some other market for our goods"
		ai_chance = 100
		command = { type = relation which = BRA value = -100 }
		command = { type = setflag which = comsur_vs_ue }
	}

	action_b = {
		name = "Let them be"
		ai_chance=0
		command = { type = free_ic value = -2 }
	}
}
##Trade wars
event = {
	id = 7781112
	random = no
	persistent = no
	country = CHC
	
	name = "Foreign Trade" 
	desc = "Brazil has now broken all trade agreements between our two nations. They state that they were slowing their economical growth by their sheer unfairness. They must be mad, it was all right."
	picture = "usdollar"
	style = 0
	
	
	action_a = {
		name = "We will find some other market for our goods"
		ai_chance = 100
		command = { type = relation which = BRA value = -100 }
		command = { type = setflag which = comsur_vs_china }
	}

	action_b = {
		name = "Let them be"
		ai_chance=0
		command = { type = free_ic value = -2 }
	}
}
##Trade wars
event = {
	id = 7781113
	random = no
	persistent = no
	country = JAP
	
	name = "Foreign Trade" 
	desc = "Brazil has now broken all trade agreements between our two nations. They state that they were slowing their economical growth by their sheer unfairness. They must be mad, it was all right."
	picture = "usdollar"
	style = 0
	
	
	action_a = {
		name = "We will find some other market for our goods"
		ai_chance = 100
		command = { type = relation which = BRA value = -100 }
		command = { type = setflag which = comsur_vs_japan }
	}

	action_b = {
		name = "Let them be"
		ai_chance=0
		command = { type = free_ic value = -2 }
	}
}
##Trade wars
event = {
	id = 7781114
	random = no
	persistent = no
	country = BRA
	trigger = {
		random = 25
		OR = {
			flag = comsur_vs_japan
			flag = comsur_vs_ue
			flag = comsur_vs_china
			flag = comsur_vs_usa
		}
		atwar = no

	}
	
	date = { day = 1 month = january year = 2013 }
	offset = 27
	deathdate = { day = 1 month = july year = 2122 }
	
	name = "Foreign Trade" 
	desc = "The broken trade agreement led to an unforseen effect - the fall of our iron exports. All trade agreements with world powers are highly disputable since then."
	picture = "usdollar"
	style = 0
	
	
	action_a = {
		name = "There is nothing we can do"
		command = { type = end_trades which = BRA where = USA }
		command = { type = end_trades which = BRA where = U06 }
		command = { type = end_trades which = BRA where = CHC }
		command = { type = end_trades which = BRA where = JAP }
		command = { type = free_ic value = -6 }
	}
}
##Trade wars
event = {
	id = 7781115
	random = no
	persistent = no
	country = BRA
	trigger = {
		random = 25
		OR = {
			flag = comsur_vs_japan
			flag = comsur_vs_ue
			flag = comsur_vs_china
			flag = comsur_vs_usa
		}
		atwar = no

	}
	
	date = { day = 1 month = january year = 2013 }
	offset = 28
	deathdate = { day = 1 month = july year = 2122 }
	
	name = "Foreign Trade" 
	desc = "The broken trade agreement led to an unforseen effect - the fall of our uranium exports. All trade agreements with world powers are highly disputable since then."
	picture = "usdollar"
	style = 0
	
	
	action_a = {
		name = "There is nothing we can do"
		command = { type = end_trades which = BRA where = USA }
		command = { type = end_trades which = BRA where = U06 }
		command = { type = end_trades which = BRA where = CHC }
		command = { type = end_trades which = BRA where = JAP }
		command = { type = free_ic value = -1 }
	}
}
##Trade wars
event = {
	id = 7781116
	random = no
	persistent = no
	country = BRA
	trigger = {
		random = 25
		event = 7781115
		event = 7781114
		OR = {
			flag = comsur_vs_japan
			flag = comsur_vs_ue
			flag = comsur_vs_china
			flag = comsur_vs_usa
		}
		exists = USA
		atwar = no

	}
	
	date = { day = 1 month = november year = 2013 }
	offset = 12
	deathdate = { day = 1 month = july year = 2122 }
	
	name = "Foreign Trade" 
	desc = "The broken trade agreement led to an unforseen effect - the fall of our food exports. All trade agreements with world powers are highly disputable since then."
	picture = "usdollar"
	style = 0
	
	
	action_a = {
		name = "Try to repair our trade relations"
	ai_chance = 100
		command = { type = free_ic value = -3 }
		command = { type = setflag which = comsur_trade_repair }
	}
	action_b = {
		name = "A turn to state-capitalism seems a good solution"
	ai_chance = 0
		command = { type = free_ic value = -3 }
		command = { type = domestic which = free_market value = -5 }
	}
}
##Trade wars
event = {
	id = 7781117
	random = no
	persistent = no
	country = BRA
	trigger = {
		random = 25
			flag = comsur_vs_japan
			flag = comsur_trade_repair
		exists = JAP
		atwar = no

	}
	
	date = { day = 1 month = december year = 2013 }
	offset = 23
	deathdate = { day = 1 month = july year = 2122 }
	
	name = "Foreign Trade" 
	desc = "There seems to be no way we can repair our trade relations with Japan... but a group of specialists have suggested that a threat of war may make them see reason. This is much of a gamble, but without it we will probably suffer a great economical collapse."
	picture = "usdollar"
	style = 0
	
	
	action_a = {
		name = "Issue the ultimatum"
	ai_chance = 100
		command = { type = trigger which = 7781118 }
		command = { type = relation which = JAP value = -50 }
		command = { type = setflag which = comsur_ultimatum }
	}
	action_b = {
		name = "We'll try to resolve this somehow"
	ai_chance = 0
		command = { type = setflag which = comsur_collapse }
	}
}
##Trade wars
event = {
	id = 7781118
	random = no
	persistent = no
	country = JAP
	name = "Brazilian Ultimatum" 
	desc = "The Brazilian governament issued an ultimatum to us. They're economy is starting to collapse with closed trade relations with our nation and they want us to open trade again... or they will declare war on us."
	picture = "usdollar"
	style = 0
	
	
	action_a = {
		name = "Trade? No problem"
	ai_chance = 0
		command = { type = trigger which = 7781119 }
		command = { type = relation which = BRA value = 10 }
		command = { type = clrflag which = comsur_ultimatum }
	}
	action_b = {
		name = "Trade? Under threat of war? Never!"
	ai_chance = 100
		command = { type = trigger which = 7781120 }
	}
}
##Trade wars
event = {
	id = 7781119
	random = no
	persistent = no
	country = BRA
	name = "Brazilian Ultimatum" 
	desc = "The Japanesse governament has hesitantly agreed to our terms. Some trade relations may now be rebuilt and we may yet prosper."
	picture = "usdollar"
	style = 0
	
	action_a = {
		name = "Great"
		command = { type = free_ic value = 12 }
	}
}
##Trade wars
event = {
	id = 7781120
	random = no
	persistent = no
	country = BRA
	name = "Brazilian Ultimatum" 
	desc = "The Japanesse have not aggred to our ultimatum. There seems to be no way to peacefully resolve this trade conflict."
	picture = "usdollar"
	style = 0
	
	action_a = {
		name = "Declare War"
	ai_chance = 100
		command = { type = war which = JAP }
	}
	action_b = {
		name = "Back off"
	ai_chance = 0
		command = { type = setflag which = comsur_collapse }
	}
}
##Trade wars
event = {
	id = 7781121
	random = no
	persistent = no
	country = BRA
	trigger = {
		random = 25
			flag = comsur_vs_usa
			flag = comsur_trade_repair
		exists = USA
		atwar = no

	}
	
	date = { day = 1 month = december year = 2013 }
	offset = 23
	deathdate = { day = 1 month = july year = 2122 }
	
	name = "Foreign Trade" 
	desc = "There seems to be no way we can repair our trade relations with USA... but a group of specialists have suggested that a threat of war may make them see reason. This is much of a gamble, but without it we will probably suffer a great economical collapse."
	picture = "usdollar"
	style = 0
	
	
	action_a = {
		name = "Issue the ultimatum"
	ai_chance = 100
		command = { type = trigger which = 7781122 }
		command = { type = relation which = USA value = -50 }
		command = { type = setflag which = comsur_ultimatum }
	}
	action_b = {
		name = "We'll try to resolve this somehow"
	ai_chance = 0
		command = { type = setflag which = comsur_collapse }
	}
}
##Trade wars
event = {
	id = 7781122
	random = no
	persistent = no
	country = USA
	name = "Brazilian Ultimatum" 
	desc = "The Brazilian governament issued an ultimatum to us. They're economy is starting to collapse with closed trade relations with our nation and they want us to open trade again... or they will declare war on us."
	picture = "usdollar"
	style = 0
	
	
	action_a = {
		name = "Trade? No problem"
	ai_chance = 0
		command = { type = trigger which = 7781123 }
		command = { type = relation which = BRA value = 10 }
		command = { type = clrflag which = comsur_ultimatum }
	}
	action_b = {
		name = "Trade? Under threat of war? Never!"
	ai_chance = 100
		command = { type = trigger which = 7781124 }
	}
}
##Trade wars
event = {
	id = 7781123
	random = no
	persistent = no
	country = BRA
	name = "Brazilian Ultimatum" 
	desc = "The American governament has hesitantly agreed to our terms. Some trade relations may now be rebuilt and we may yet prosper."
	picture = "usdollar"
	style = 0
	
	action_a = {
		name = "Great"
		command = { type = free_ic value = 12 }
	}
}
##Trade wars
event = {
	id = 7781124
	random = no
	persistent = no
	country = BRA
	name = "Brazilian Ultimatum" 
	desc = "The American have not aggred to our ultimatum. There seems to be no way to peacefully resolve this trade conflict."
	picture = "usdollar"
	style = 0
	
	action_a = {
		name = "Declare War"
	ai_chance = 100
		command = { type = war which = USA }
	}
	action_b = {
		name = "Back off"
	ai_chance = 0
		command = { type = setflag which = comsur_collapse }
	}
}
##Trade wars
event = {
	id = 7781125
	random = no
	persistent = no
	country = BRA
	trigger = {
		random = 25
			flag = comsur_vs_ue
			flag = comsur_trade_repair
		exists = U06
		atwar = no

	}
	
	date = { day = 1 month = december year = 2013 }
	offset = 23
	deathdate = { day = 1 month = july year = 2122 }
	
	name = "Foreign Trade" 
	desc = "There seems to be no way we can repair our trade relations with EU... but a group of specialists have suggested that a threat of war may make them see reason. This is much of a gamble, but without it we will probably suffer a great economical collapse."
	picture = "usdollar"
	style = 0
	
	
	action_a = {
		name = "Issue the ultimatum"
	ai_chance = 100
		command = { type = trigger which = 7781126 }
		command = { type = relation which = U06 value = -50 }
		command = { type = setflag which = comsur_ultimatum }
	}
	action_b = {
		name = "We'll try to resolve this somehow"
	ai_chance = 0
		command = { type = setflag which = comsur_collapse }
	}
}
##Trade wars
event = {
	id = 7781126
	random = no
	persistent = no
	country = U06
	name = "Brazilian Ultimatum" 
	desc = "The Brazilian governament issued an ultimatum to us. They're economy is starting to collapse with closed trade relations with our nation and they want us to open trade again... or they will declare war on us."
	picture = "usdollar"
	style = 0
	
	
	action_a = {
		name = "Trade? No problem"
	ai_chance = 0
		command = { type = trigger which = 7781127 }
		command = { type = relation which = BRA value = 10 }
		command = { type = clrflag which = comsur_ultimatum }
	}
	action_b = {
		name = "Trade? Under threat of war? Never!"
	ai_chance = 100
		command = { type = trigger which = 7781128 }
	}
}
##Trade wars
event = {
	id = 7781127
	random = no
	persistent = no
	country = BRA
	name = "Brazilian Ultimatum" 
	desc = "The European governament has hesitantly agreed to our terms. Some trade relations may now be rebuilt and we may yet prosper."
	picture = "usdollar"
	style = 0
	
	action_a = {
		name = "Great"
		command = { type = free_ic value = 12 }
	}
}
##Trade wars
event = {
	id = 7781128
	random = no
	persistent = no
	country = BRA
	name = "Brazilian Ultimatum" 
	desc = "The European have not aggred to our ultimatum. There seems to be no way to peacefully resolve this trade conflict."
	picture = "usdollar"
	style = 0
	
	action_a = {
		name = "Declare War"
	ai_chance = 100
		command = { type = war which = U06 }
	}
	action_b = {
		name = "Back off"
	ai_chance = 0
		command = { type = setflag which = comsur_collapse }
	}
}
##Trade wars
event = {
	id = 7781129
	random = no
	persistent = no
	country = BRA
	trigger = {
		random = 25
			flag = comsur_vs_china
			flag = comsur_trade_repair
		exists = CHC
		atwar = no

	}
	
	date = { day = 1 month = december year = 2013 }
	offset = 23
	deathdate = { day = 1 month = july year = 2122 }
	
	name = "Foreign Trade" 
	desc = "There seems to be no way we can repair our trade relations with PRC... but a group of specialists have suggested that a threat of war may make them see reason. This is much of a gamble, but without it we will probably suffer a great economical collapse."
	picture = "usdollar"
	style = 0
	
	
	action_a = {
		name = "Issue the ultimatum"
	ai_chance = 100
		command = { type = trigger which = 7781130 }
		command = { type = relation which = CHC value = -50 }
		command = { type = setflag which = comsur_ultimatum }
	}
	action_b = {
		name = "We'll try to resolve this somehow"
	ai_chance = 0
		command = { type = setflag which = comsur_collapse }
	}
}
##Trade wars
event = {
	id = 7781130
	random = no
	persistent = no
	country = CHC
	name = "Brazilian Ultimatum" 
	desc = "The Brazilian governament issued an ultimatum to us. They're economy is starting to collapse with closed trade relations with our nation and they want us to open trade again... or they will declare war on us."
	picture = "usdollar"
	style = 0
	
	
	action_a = {
		name = "Trade? No problem"
	ai_chance = 0
		command = { type = trigger which = 7781131 }
		command = { type = relation which = BRA value = 10 }
		command = { type = clrflag which = comsur_ultimatum }
	}
	action_b = {
		name = "Trade? Under threat of war? Never!"
	ai_chance = 100
		command = { type = trigger which = 7781132 }
	}
}
##Trade wars
event = {
	id = 7781131
	random = no
	persistent = no
	country = BRA
	name = "Brazilian Ultimatum" 
	desc = "The Chinesse governament has hesitantly agreed to our terms. Some trade relations may now be rebuilt and we may yet prosper."
	picture = "usdollar"
	style = 0
	
	action_a = {
		name = "Great"
		command = { type = free_ic value = 12 }
	}
}
##Trade wars
event = {
	id = 7781132
	random = no
	persistent = no
	country = BRA
	name = "Brazilian Ultimatum" 
	desc = "The Chinesse have not aggred to our ultimatum. There seems to be no way to peacefully resolve this trade conflict."
	picture = "usdollar"
	style = 0
	
	action_a = {
		name = "Declare War"
	ai_chance = 100
		command = { type = war which = CHC }
	}
	action_b = {
		name = "Back off"
	ai_chance = 0
		command = { type = setflag which = comsur_collapse }
	}
}
##Trade wars - all hell breaks loose
event = {
	id = 7781133
	random = no
	persistent = no
	country = BRA
	trigger = {
			random = 20
			flag = comsur_collapse


	}
	
	date = { day = 1 month = december year = 2012 }
	offset = 90
	deathdate = { day = 1 month = july year = 2122 }
	
	name = "Foreign Trade" 
	desc = "Without the foreign contractors and with no governament help to prevent it, the private sector has collapsed. The country has now in recession."
	picture = "usdollar"
	style = 0
	
	
	action_a = {
		name = "Argh!"
         	command = { type = industrial_modifier which = total value = -30 }
		command = { type = free_ic value = -10 }
		command = { type = local_clrflag which = tiger }
		command = { type = local_clrflag which = invest }
		command = { type = local_clrflag which = corruption_combat }
		command = { type = local_setflag which = corruption_ignore }
	}
}