focus_tree = {
	
	id = finland_focus
	
	country = {
		factor = 0
		
		modifier = {
			add = 20
			original_tag = FIN
		}
	}
	
	continuous_focus_position = { x = 2000 y = 850 }
	
	#Government Expansion
	focus = {
		id = FIN_government_expansion
		icon = demand_territory
		
		x = 10
		y = 0
		
		cost = 10

		cancel_if_invalid = yes
		continue_if_invalid = no
		available_if_capitulated = no
		
		prerequisite = { }
		
		mutually_exclusive = { }
		
		available = { }
		
		bypass = { }
		
		completion_reward = {
			add_political_power = 150
			#add_ideas = government_expansion3 Redo advisors
		}
		
		ai_will_do = {
			factor = 10
		}
	}
	
	#Interior Ministry
	focus = {
		id = FIN_expand_the_interior_ministry
		icon = self_management
		
		x = -9
		y = 1
		relative_position_id = FIN_government_expansion
		
		cost = 10

		cancel_if_invalid = yes
		continue_if_invalid = no
		available_if_capitulated = no
		
		prerequisite = {
			focus = FIN_government_expansion
		}
		
		mutually_exclusive = { }
		
		available = { }
		
		bypass = { }
		
		completion_reward = {
			add_stability = 0.02
		}
		
		ai_will_do = {
			factor = 10
		}
	}
	
	focus = {
		id = FIN_conscription_reform
		icon = entente
		
		x = -1
		y = 1
		relative_position_id = FIN_expand_the_interior_ministry
		
		cost = 10

		cancel_if_invalid = yes
		continue_if_invalid = no
		available_if_capitulated = no
		
		prerequisite = {
			focus = FIN_expand_the_interior_ministry
		}
		
		mutually_exclusive = { }
		
		available = { }
		
		bypass = { }
		
		completion_reward = {
			country_event = Finland.1
		}
		
		ai_will_do = {
			factor = 10
		}
	}
	
	focus = {
		id = FIN_northern_road_maintenance
		icon = infrastructure
		
		x = 1
		y = 1
		relative_position_id = FIN_expand_the_interior_ministry
		
		cost = 10

		cancel_if_invalid = yes
		continue_if_invalid = no
		available_if_capitulated = no
		
		prerequisite = {
			focus = FIN_expand_the_interior_ministry
		}
		
		mutually_exclusive = { }
		
		available = {
			has_full_control_of_state = 100
		}
		
		bypass = { }
		
		completion_reward = {
			100 = {	#Lappi
				add_building_construction = {
					type = infrastructure
					level = 1
					instant_build = yes
				}
			}
		}
		
		ai_will_do = {
			factor = 10
		}
	}
	
	focus = {
		id = FIN_industrial_expansion_policy
		icon = industry_civilian
		
		x = 0
		y = 2
		relative_position_id = FIN_expand_the_interior_ministry
		
		cost = 10

		cancel_if_invalid = yes
		continue_if_invalid = no
		available_if_capitulated = no
		
		prerequisite = {
			focus = FIN_northern_road_maintenance
		}
		
		mutually_exclusive = { }
		
		available = { }
		
		bypass = { }
		
		completion_reward = {
			add_ideas = civilian_industry_project
		}
		
		ai_will_do = {
			factor = 10
		}
	}
	
	focus = {
		id = FIN_timber_export_policy
		icon = trade
		
		x = 2
		y = 2
		relative_position_id = FIN_expand_the_interior_ministry
		
		cost = 10

		cancel_if_invalid = yes
		continue_if_invalid = no
		available_if_capitulated = no
		
		prerequisite = {
			focus = FIN_northern_road_maintenance
		}
		prerequisite = {
			focus = FIN_export_focus
		}
		
		mutually_exclusive = { }
		
		available = { }
		
		bypass = { }
		
		completion_reward = {
			country_event = Finland.2
		}
		
		ai_will_do = {
			factor = 10
		}
	}
	
	focus = {
		id = FIN_focus_on_civilian_industry
		icon = industry_civilian
		
		x = -1
		y = 3
		relative_position_id = FIN_expand_the_interior_ministry
		
		cost = 10

		cancel_if_invalid = yes
		continue_if_invalid = no
		available_if_capitulated = no
		
		prerequisite = {
			focus = FIN_industrial_expansion_policy
		}
		
		mutually_exclusive = {
			focus = FIN_focus_on_military_industry
		}
		
		available = { }
		
		bypass = { }
		
		completion_reward = {
			swap_ideas = {
				remove_idea = civilian_industry_project
				add_idea = civilian_industry_project4
			}
		}
		
		ai_will_do = {
			factor = 10
		}
	}
	
	focus = {
		id = FIN_focus_on_military_industry
		icon = industry_military
		
		x = 1
		y = 3
		relative_position_id = FIN_expand_the_interior_ministry
		
		cost = 10

		cancel_if_invalid = yes
		continue_if_invalid = no
		available_if_capitulated = no
		
		prerequisite = {
			focus = FIN_industrial_expansion_policy
		}
		
		mutually_exclusive = {
			focus = FIN_focus_on_civilian_industry
		}
		
		available = { }
		
		bypass = { }
		
		completion_reward = {
			add_ideas = military_industry_project2
		}
		
		ai_will_do = {
			factor = 10
		}
	}
	
	#Financial Ministry
	focus = {
		id = FIN_expand_the_financial_ministry
		icon = industry_united_states
		
		x = -3
		y = 1
		relative_position_id = FIN_government_expansion
		
		cost = 10

		cancel_if_invalid = yes
		continue_if_invalid = no
		available_if_capitulated = no
		
		prerequisite = {
			focus = FIN_government_expansion
		}
		
		mutually_exclusive = { }
		
		available = { }
		
		bypass = { }
		
		completion_reward = {
			country_event = Finland.3
		}
		
		ai_will_do = {
			factor = 10
		}
	}
	
	focus = {
		id = FIN_export_focus
		icon = consumer_goods
		
		x = -3
		y = 1
		relative_position_id = FIN_expand_the_financial_ministry
		
		cost = 10

		cancel_if_invalid = yes
		continue_if_invalid = no
		available_if_capitulated = no
		
		prerequisite = {
			focus = FIN_expand_the_financial_ministry
		}
		
		mutually_exclusive = { }
		
		available = { }
		
		bypass = { }
		
		completion_reward = {
			add_ideas = mass_exports
		}
		
		ai_will_do = {
			factor = 10
		}
	}
	
	focus = {
		id = FIN_expand_valtatie_1
		icon = infrastructure
		
		x = -1
		y = 1
		relative_position_id = FIN_expand_the_financial_ministry
		
		cost = 10

		cancel_if_invalid = yes
		continue_if_invalid = no
		available_if_capitulated = no
		
		prerequisite = {
			focus = FIN_expand_the_financial_ministry
		}
		
		mutually_exclusive = { }
		
		available = {
			has_full_control_of_state = 102
		}
		
		bypass = { }
		
		completion_reward = {
			add_stability = 0.01
			102 = {	#Uusimaa
				add_building_construction = {
					type = infrastructure
					level = 3
					instant_build = yes
				}
			}
		}
		
		ai_will_do = {
			factor = 10
		}
	}
	
	focus = {
		id = FIN_adopt_an_economic_doctrine
		icon = industry_democratic
		
		x = 1
		y = 1
		relative_position_id = FIN_expand_the_financial_ministry
		
		cost = 10

		cancel_if_invalid = yes
		continue_if_invalid = no
		available_if_capitulated = no
		
		prerequisite = {
			focus = FIN_expand_the_financial_ministry
		}
		
		mutually_exclusive = { }
		
		available = { }
		
		bypass = { }
		
		completion_reward = {
			country_event = Finland.4
		}
		
		ai_will_do = {
			factor = 10
		}
	}
	
	focus = {
		id = FIN_industrialize_turku
		icon = industry_civilian
		
		x = -2
		y = 2
		relative_position_id = FIN_expand_the_financial_ministry
		
		cost = 10

		cancel_if_invalid = yes
		continue_if_invalid = no
		available_if_capitulated = no
		
		prerequisite = {
			focus = FIN_expand_valtatie_1
		}
		
		mutually_exclusive = { }
		
		available = {
			has_full_control_of_state = 102
		}
		
		bypass = { }
		
		completion_reward = {
			102 = {	#Uusimaa
				add_extra_state_shared_building_slots = 1
				add_building_construction = {
					type = industrial_complex
					level = 1
					instant_build = yes
				}
			}
		}
		
		ai_will_do = {
			factor = 10
		}
	}
	
	focus = {
		id = FIN_industrialize_helsinki
		icon = industry_civilian
		
		x = 0
		y = 2
		relative_position_id = FIN_expand_the_financial_ministry
		
		cost = 10

		cancel_if_invalid = yes
		continue_if_invalid = no
		available_if_capitulated = no
		
		prerequisite = {
			focus = FIN_expand_valtatie_1
		}
		
		mutually_exclusive = { }
		
		available = {
			has_full_control_of_state = 102
		}
		
		bypass = { }
		
		completion_reward = {
			102 = {	#Uusimaa
				add_extra_state_shared_building_slots = 1
				add_building_construction = {
					type = industrial_complex
					level = 1
					instant_build = yes
				}
			}
		}
		
		ai_will_do = {
			factor = 10
		}
	}
	
	#Foreign Ministry
	focus = {
		id = FIN_expand_the_foreign_ministry
		icon = adopt_the_peoples_constitution
		
		x = 3
		y = 1
		relative_position_id = FIN_government_expansion
		
		cost = 10

		cancel_if_invalid = yes
		continue_if_invalid = no
		available_if_capitulated = no
		
		prerequisite = {
			focus = FIN_government_expansion
		}
		
		mutually_exclusive = { }
		
		available = { }
		
		bypass = { }
		
		completion_reward = {
			set_rule = { can_create_factions = yes }
		}
		
		ai_will_do = {
			factor = 10
		}
	}
	
	focus = {
		id = FIN_adopt_a_foreign_policy_doctrine
		icon = improve_relations_green
		
		x = -3
		y = 1
		relative_position_id = FIN_expand_the_foreign_ministry
		
		cost = 10

		cancel_if_invalid = yes
		continue_if_invalid = no
		available_if_capitulated = no
		
		prerequisite = {
			focus = FIN_expand_the_foreign_ministry
		}
		
		mutually_exclusive = { }
		
		available = { }
		
		bypass = { }
		
		completion_reward = {
			country_event = Finland.5
		}
		
		ai_will_do = {
			factor = 10
		}
	}
	
	focus = {
		id = FIN_secure_european_trade_deals
		icon = trade_with_europe
		
		x = -1
		y = 1
		relative_position_id = FIN_expand_the_foreign_ministry
		
		cost = 10

		cancel_if_invalid = yes
		continue_if_invalid = no
		available_if_capitulated = no
		
		prerequisite = {
			focus = FIN_expand_the_foreign_ministry
		}
		
		mutually_exclusive = { }
		
		available = {
			has_idea = EU_member
		}
		
		bypass = { }
		
		completion_reward = {
			every_country = {
				limit = { 
					has_idea = EU_member
					NOT = { has_war_with = FIN }
				}
				#increase_trade_influence_by_2 = yes needs to be looked at again
				add_opinion_modifier = {
					target = FIN
					modifier = trade_mission
				}
			}
		}
		
		ai_will_do = {
			factor = 10
		}
	}
	
	focus = {
		id = FIN_trade_with_the_nordics
		icon = nordic_council2
		
		x = 1
		y = 1
		relative_position_id = FIN_expand_the_foreign_ministry
		
		cost = 10

		cancel_if_invalid = yes
		continue_if_invalid = no
		available_if_capitulated = no
		
		prerequisite = {
			focus = FIN_expand_the_foreign_ministry
		}
		
		mutually_exclusive = { }
		
		available = { }
		
		bypass = { }
		
		completion_reward = {
			every_country = {
				limit = { 
					OR = {
						original_tag = ICE
						original_tag = NOR
						original_tag = SWE
						original_tag = DEN
					}
					NOT = { has_war_with = FIN }
				}
				#increase_trade_influence_by_2 = yes look at it again and again and agaaiiiiinnnnn
				add_opinion_modifier = {
					target = FIN
					modifier = trade_mission
				}
			}
		}
		
		ai_will_do = {
			factor = 10
		}
	}
	
	focus = {
		id = FIN_trade_with_russia
		icon = trade_with_russia
		
		x = -2
		y = 2
		relative_position_id = FIN_expand_the_foreign_ministry
		
		cost = 10

		cancel_if_invalid = yes
		continue_if_invalid = no
		available_if_capitulated = no
		
		prerequisite = {
			focus = FIN_secure_european_trade_deals
		}
		
		mutually_exclusive = { }
		
		available = {
			NOT = { has_war_with = SOV }
			has_completed_focus = FIN_proximity_to_russia
		}
		
		bypass = { }
		
		completion_reward = {
			SOV = {
				#increase_trade_influence_by_2 = yes #Wow would you look at the time. It's fix fix the code time
				add_opinion_modifier = {
					target = FIN
					modifier = trade_mission
				}
			}
		}
		
		ai_will_do = {
			factor = 10
		}
	}
	
	focus = {
		id = FIN_trade_with_the_united_states
		icon = trade_with_america
		
		x = 0
		y = 2
		relative_position_id = FIN_expand_the_foreign_ministry
		
		cost = 10

		cancel_if_invalid = yes
		continue_if_invalid = no
		available_if_capitulated = no
		
		prerequisite = {
			focus = FIN_secure_european_trade_deals
		}
		
		mutually_exclusive = { }
		
		available = {
			NOT = { has_war_with = USA }
			has_completed_focus = FIN_proximity_to_the_united_states
		}
		
		bypass = { }
		
		completion_reward = {
			USA = {
				#increase_trade_influence_by_2 = yes I'm running low on clever quips
				add_opinion_modifier = {
					target = FIN
					modifier = trade_mission
				}
			}
		}
		
		ai_will_do = {
			factor = 10
		}
	}
	
	focus = {
		id = FIN_trade_with_china
		icon = trade_with_china
		
		x = -1
		y = 3
		relative_position_id = FIN_expand_the_foreign_ministry
		
		cost = 10

		cancel_if_invalid = yes
		continue_if_invalid = no
		available_if_capitulated = no
		
		prerequisite = {
			focus = FIN_secure_european_trade_deals
		}
		
		mutually_exclusive = { }
		
		available = {
			NOT = { has_war_with = CHI }
			has_completed_focus = FIN_proximity_to_china
		}
		
		bypass = { }
		
		completion_reward = {
			CHI = {
				#increase_trade_influence_by_2 = yes Do y'all at least get the idea?
				add_opinion_modifier = {
					target = FIN
					modifier = trade_mission
				}
			}
		}
		
		ai_will_do = {
			factor = 10
		}
	}
	
	##Proximity and Distance Focuses
	focus = {
		id = FIN_proximity_to_russia
		icon = align_to_russia
		
		x = 3
		y = 1
		relative_position_id = FIN_expand_the_foreign_ministry
		
		cost = 10

		cancel_if_invalid = yes
		continue_if_invalid = no
		available_if_capitulated = no
		
		prerequisite = {
			focus = FIN_expand_the_foreign_ministry
		}
		
		mutually_exclusive = {
			focus = FIN_distance_from_russia
		}
		
		available = {
			NOT = { has_war_with = SOV }
			country_exists = SOV
		}
		
		bypass = { }
		
		completion_reward = {
			add_political_power = -15
			SOV = { proximity_to_finland = yes }
		}
		
		ai_will_do = {
			factor = 10
			modifier = {
				factor = 0
				is_historical_focus_on = yes
			}
		}
	}
	focus = {
		id = FIN_distance_from_russia
		icon = attack_russia
		
		x = 2
		y = 0
		relative_position_id = FIN_proximity_to_russia
		
		cost = 5

		cancel_if_invalid = yes
		continue_if_invalid = no
		available_if_capitulated = no
		
		prerequisite = {
			focus = FIN_expand_the_foreign_ministry
		}
		
		mutually_exclusive = {
			focus = FIN_proximity_to_russia
		}
		
		available = { }
		
		bypass = {
			NOT = { country_exists = SOV }
		}
		
		completion_reward = {
			SOV = { distance_from_finland = yes }
		}
		
		ai_will_do = {
			factor = 10
		}
	}
	
	focus = {
		id = FIN_proximity_to_sweden
		icon = align_to_sweden
		
		x = 0
		y = 1
		relative_position_id = FIN_proximity_to_russia
		
		cost = 10

		cancel_if_invalid = yes
		continue_if_invalid = no
		available_if_capitulated = no
		
		prerequisite = {
			focus = FIN_proximity_to_russia
			focus = FIN_distance_from_russia
		}
		
		prerequisite = {
			focus = FIN_trade_with_the_nordics
		}
		
		mutually_exclusive = {
			focus = FIN_distance_from_sweden
		}
		
		available = {
			NOT = { has_war_with = SWE }
			country_exists = SWE
		}
		
		bypass = {
			NOT = { country_exists = SWE }
		}
		
		completion_reward = {
			add_political_power = -15
			SWE = { proximity_to_finland = yes }
		}
		
		ai_will_do = {
			factor = 10
		}
	}
	focus = {
		id = FIN_distance_from_sweden
		icon = attack_sweden
		
		x = 2
		y = 1
		relative_position_id = FIN_proximity_to_russia
		
		cost = 5

		cancel_if_invalid = yes
		continue_if_invalid = no
		available_if_capitulated = no
		
		prerequisite = {
			focus = FIN_proximity_to_russia
			focus = FIN_distance_from_russia
		}
		
		mutually_exclusive = {
			focus = FIN_proximity_to_sweden
		}
		
		available = { }
		
		bypass = { }
		
		completion_reward = {
			SWE = { distance_from_finland = yes }
		}
		
		ai_will_do = {
			factor = 10
			modifier = {
				factor = 0
				is_historical_focus_on = yes
			}
		}
	}
	
	focus = {
		id = FIN_proximity_to_the_nordic_countries
		icon = align_to_norway
		
		x = 0
		y = 2
		relative_position_id = FIN_proximity_to_russia
		
		cost = 10

		cancel_if_invalid = yes
		continue_if_invalid = no
		available_if_capitulated = no
		
		prerequisite = {
			focus = FIN_proximity_to_sweden
		}
		
		mutually_exclusive = { }
		
		available = {
			NOT = { has_war_with = ICE }
			NOT = { has_war_with = NOR }
			NOT = { has_war_with = DEN }
			OR = {
				country_exists = ICE
				country_exists = NOR
				country_exists = DEN
			}
		}
		
		bypass = { }
		
		completion_reward = {
			add_political_power = -15
			ICE = { proximity_to_finland = yes }
			NOR = { proximity_to_finland = yes }
			DEN = { proximity_to_finland = yes }
		}
		
		ai_will_do = {
			factor = 10
		}
	}
	focus = {
		id = FIN_distance_from_the_nordic_countries
		icon = attack_norway
		
		x = 2
		y = 2
		relative_position_id = FIN_proximity_to_russia
		
		cost = 5

		cancel_if_invalid = yes
		continue_if_invalid = no
		available_if_capitulated = no
		
		prerequisite = {
			focus = FIN_distance_from_sweden
		}
		
		mutually_exclusive = { }
		
		available = { }
		
		bypass = {
			NOT = { country_exists = ICE }
			NOT = { country_exists = NOR }
			NOT = { country_exists = DEN }
		}
		
		completion_reward = {
			ICE = { distance_from_finland = yes }
			NOR = { distance_from_finland = yes }
			DEN = { distance_from_finland = yes }
		}
		
		ai_will_do = {
			factor = 10
		}
	}
	
	focus = {
		id = FIN_proximity_to_germany
		icon = align_to_germany
		
		x = 0
		y = 3
		relative_position_id = FIN_proximity_to_russia
		
		cost = 10

		cancel_if_invalid = yes
		continue_if_invalid = no
		available_if_capitulated = no
		
		prerequisite = {
			focus = FIN_proximity_to_the_nordic_countries
			focus = FIN_distance_from_the_nordic_countries
		}
		
		mutually_exclusive = {
			focus = FIN_distance_from_germany
		}
		
		available = {
			NOT = { has_war_with = GER }
			country_exists = GER
		}
		
		bypass = { }
		
		completion_reward = {
			add_political_power = -15
			GER = { proximity_to_finland = yes }
		}
		
		ai_will_do = {
			factor = 10
		}
	}
	focus = {
		id = FIN_distance_from_germany
		icon = attack_germany
		
		x = 2
		y = 3
		relative_position_id = FIN_proximity_to_russia
		
		cost = 5

		cancel_if_invalid = yes
		continue_if_invalid = no
		available_if_capitulated = no
		
		prerequisite = {
			focus = FIN_proximity_to_the_nordic_countries
			focus = FIN_distance_from_the_nordic_countries
		}
		
		mutually_exclusive = {
			focus = FIN_proximity_to_germany
		}
		
		available = { }
		
		bypass = {
			NOT = { country_exists = GER }
		}
		
		completion_reward = {
			GER = { distance_from_finland = yes }
		}
		
		ai_will_do = {
			factor = 10
			modifier = {
				factor = 0
				is_historical_focus_on = yes
			}
		}
	}
	
	focus = {
		id = FIN_proximity_to_the_united_states
		icon = align_to_america
		
		x = 0
		y = 4
		relative_position_id = FIN_proximity_to_russia
		
		cost = 10

		cancel_if_invalid = yes
		continue_if_invalid = no
		available_if_capitulated = no
		
		prerequisite = {
			focus = FIN_proximity_to_germany
			focus = FIN_distance_from_germany
		}
		
		mutually_exclusive = {
			focus = FIN_distance_from_the_united_states
		}
		
		available = {
			NOT = { has_war_with = USA }
			country_exists = USA
		}
		
		bypass = { }
		
		completion_reward = {
			add_political_power = -15
			USA = { proximity_to_finland = yes }
		}
		
		ai_will_do = {
			factor = 10
		}
	}
	focus = {
		id = FIN_distance_from_the_united_states
		icon = attack_america
		
		x = 2
		y = 4
		relative_position_id = FIN_proximity_to_russia
		
		cost = 5

		cancel_if_invalid = yes
		continue_if_invalid = no
		available_if_capitulated = no
		
		prerequisite = {
			focus = FIN_proximity_to_germany
			focus = FIN_distance_from_germany
		}
		
		mutually_exclusive = {
			focus = FIN_proximity_to_the_united_states
		}
		
		available = { }
		
		bypass = {
			NOT = { country_exists = USA }
		}
		
		completion_reward = {
			USA = { distance_from_finland = yes }
		}
		
		ai_will_do = {
			factor = 10
			modifier = {
				factor = 0
				is_historical_focus_on = yes
			}
		}
	}
	
	focus = {
		id = FIN_proximity_to_the_baltic_states
		icon = align_to_baltic_states
		
		x = 0
		y = 5
		relative_position_id = FIN_proximity_to_russia
		
		cost = 10

		cancel_if_invalid = yes
		continue_if_invalid = no
		available_if_capitulated = no
		
		prerequisite = {
			focus = FIN_proximity_to_the_united_states
			focus = FIN_distance_from_the_united_states
		}
		
		mutually_exclusive = {
			focus = FIN_distance_from_the_baltic_states
		}
		
		available = {
			NOT = { has_war_with = EST }
			NOT = { has_war_with = LAT }
			NOT = { has_war_with = LIT }
		}
		
		bypass = { }
		
		completion_reward = {
			add_political_power = -15
			EST = { proximity_to_finland = yes }
			LAT = { proximity_to_finland = yes }
			LIT = { proximity_to_finland = yes }
		}
		
		ai_will_do = {
			factor = 10
		}
	}
	focus = {
		id = FIN_distance_from_the_baltic_states
		icon = attack_democracy4
		
		x = 2
		y = 5
		relative_position_id = FIN_proximity_to_russia
		
		cost = 5

		cancel_if_invalid = yes
		continue_if_invalid = no
		available_if_capitulated = no
		
		prerequisite = {
			focus = FIN_proximity_to_the_united_states
			focus = FIN_distance_from_the_united_states
		}
		
		mutually_exclusive = {
			focus = FIN_proximity_to_the_baltic_states
		}
		
		available = { }
		
		bypass = {
			NOT = { country_exists = EST }
			NOT = { country_exists = LAT }
			NOT = { country_exists = LIT }
		}
		
		completion_reward = {
			EST = { distance_from_finland = yes }
			LAT = { distance_from_finland = yes }
			LIT = { distance_from_finland = yes }
		}
		
		ai_will_do = {
			factor = 10
			modifier = {
				factor = 0
				is_historical_focus_on = yes
			}
		}
	}
	
	focus = {
		id = FIN_proximity_to_poland
		icon = align_to_poland
		
		x = 0
		y = 6
		relative_position_id = FIN_proximity_to_russia
		
		cost = 10

		cancel_if_invalid = yes
		continue_if_invalid = no
		available_if_capitulated = no
		
		prerequisite = {
			focus = FIN_proximity_to_the_baltic_states
			focus = FIN_distance_from_the_baltic_states
		}
		
		mutually_exclusive = {
			focus = FIN_distance_from_poland
		}
		
		available = {
			NOT = { has_war_with = POL }
		}
		
		bypass = { }
		
		completion_reward = {
			add_political_power = -15
			POL = { proximity_to_finland = yes }
		}
		
		ai_will_do = {
			factor = 10
		}
	}
	focus = {
		id = FIN_distance_from_poland
		icon = attack_poland
		
		x = 2
		y = 6
		relative_position_id = FIN_proximity_to_russia
		
		cost = 5

		cancel_if_invalid = yes
		continue_if_invalid = no
		available_if_capitulated = no
		
		prerequisite = {
			focus = FIN_proximity_to_the_baltic_states
			focus = FIN_distance_from_the_baltic_states
		}
		
		mutually_exclusive = {
			focus = FIN_proximity_to_poland
		}
		
		available = { }
		
		bypass = {
			NOT = { country_exists = POL }
		}
		
		completion_reward = {
			POL = { distance_from_finland = yes }
		}
		
		ai_will_do = {
			factor = 10
			modifier = {
				factor = 0
				is_historical_focus_on = yes
			}
		}
	}
	
	focus = {
		id = FIN_proximity_to_china
		icon = align_to_china
		
		x = 0
		y = 7
		relative_position_id = FIN_proximity_to_russia
		
		cost = 10

		cancel_if_invalid = yes
		continue_if_invalid = no
		available_if_capitulated = no
		
		prerequisite = {
			focus = FIN_proximity_to_poland
			focus = FIN_distance_from_poland
		}
		
		mutually_exclusive = {
			focus = FIN_distance_from_china
		}
		
		available = {
			NOT = { has_war_with = CHI }
		}
		
		bypass = { }
		
		completion_reward = {
			add_political_power = -15
			CHI = { proximity_to_finland = yes }
		}
		
		ai_will_do = {
			factor = 10
			modifier = {
				factor = 0
				is_historical_focus_on = yes
			}
		}
	}
	focus = {
		id = FIN_distance_from_china
		icon = attack_china
		
		x = 2
		y = 7
		relative_position_id = FIN_proximity_to_russia
		
		cost = 5

		cancel_if_invalid = yes
		continue_if_invalid = no
		available_if_capitulated = no
		
		prerequisite = {
			focus = FIN_proximity_to_poland
			focus = FIN_distance_from_poland
		}
		
		mutually_exclusive = {
			focus = FIN_proximity_to_china
		}
		
		bypass = {
			NOT = { country_exists = CHI }
		}
		
		bypass = { }
		
		completion_reward = {
			CHI = { distance_from_finland = yes }
		}
		
		ai_will_do = {
			factor = 10
		}
	}
	
	#Defensive Ministry
	focus = {
		id = FIN_expand_the_ministry_of_defense
		icon = army_logistics
		
		x = 11
		y = 1
		relative_position_id = FIN_government_expansion
		
		cost = 10

		cancel_if_invalid = yes
		continue_if_invalid = no
		available_if_capitulated = no
		
		prerequisite = {
			focus = FIN_government_expansion
		}
		
		mutually_exclusive = { }
		
		available = { }
		
		bypass = { }
		
		completion_reward = {
			country_event = Finland.6
		}
		
		ai_will_do = {
			factor = 10
		}
	}
	
	focus = {
		id = FIN_military_import_programs
		icon = artillery
		
		x = -1
		y = 1
		relative_position_id = FIN_expand_the_ministry_of_defense
		
		cost = 10

		cancel_if_invalid = yes
		continue_if_invalid = no
		available_if_capitulated = no
		
		prerequisite = {
			focus = FIN_expand_the_ministry_of_defense
		}
		
		mutually_exclusive = { }
		
		available = { }
		
		bypass = { }
		
		completion_reward = {
			add_political_power = 100
		}
		
		ai_will_do = {
			factor = 10
		}
	}
	
	focus = {
		id = FIN_reform_the_armed_forces
		icon = infantry_axis2
		
		x = 1
		y = 1
		relative_position_id = FIN_expand_the_ministry_of_defense
		
		cost = 10

		cancel_if_invalid = yes
		continue_if_invalid = no
		available_if_capitulated = no
		
		prerequisite = {
			focus = FIN_expand_the_ministry_of_defense
		}
		
		mutually_exclusive = { }
		
		available = { }
		
		bypass = { }
		
		completion_reward = {
			army_experience = 30
			navy_experience = 30
			air_experience = 30
		}
		
		ai_will_do = {
			factor = 10
		}
	}
	
	focus = {
		id = FIN_hire_fortification_experts
		icon = city_fort
		
		x = 3
		y = 1
		relative_position_id = FIN_expand_the_ministry_of_defense
		
		cost = 10

		cancel_if_invalid = yes
		continue_if_invalid = no
		available_if_capitulated = no
		
		prerequisite = {
			focus = FIN_expand_the_ministry_of_defense
		}
		
		mutually_exclusive = { }
		
		available = { }
		
		bypass = { }
		
		completion_reward = {
			add_ideas = defensive_constructions2
		}
		
		ai_will_do = {
			factor = 10
		}
	}
	
	focus = {
		id = FIN_military_production_in_helsinki
		icon = industry_military
		
		x = -1
		y = 2
		relative_position_id = FIN_expand_the_ministry_of_defense
		
		cost = 10

		cancel_if_invalid = yes
		continue_if_invalid = no
		available_if_capitulated = no
		
		prerequisite = {
			focus = FIN_reform_the_armed_forces
		}
		
		mutually_exclusive = { }
		
		available = {
			has_full_control_of_state = 102
		}
		
		bypass = { }
		
		completion_reward = {
			102 = {	#Uusimaa
				add_extra_state_shared_building_slots = 1
				add_building_construction = {
					type = arms_factory
					level = 1
					instant_build = yes
				}
			}
		}
		
		ai_will_do = {
			factor = 10
		}
	}
	
	focus = {
		id = FIN_expand_upinniemi_naval_base
		icon = naval_dockyard
		
		x = 1
		y = 2
		relative_position_id = FIN_expand_the_ministry_of_defense
		
		cost = 10

		cancel_if_invalid = yes
		continue_if_invalid = no
		available_if_capitulated = no
		
		prerequisite = {
			focus = FIN_reform_the_armed_forces
		}
		
		mutually_exclusive = { }
		
		available = { }
		
		bypass = { }
		
		completion_reward = {
			102 = {	#Uusimaa
				add_building_construction = {
					type = naval_base
					level = 3
					province = 11105
					instant_build = yes
				}
			}
		}
		
		ai_will_do = {
			factor = 10
		}
	}
	
	focus = {
		id = FIN_expand_tampere_pirkkala_air_base
		icon = air_force
		
		x = 3
		y = 2
		relative_position_id = FIN_expand_the_ministry_of_defense
		
		cost = 10

		cancel_if_invalid = yes
		continue_if_invalid = no
		available_if_capitulated = no
		
		prerequisite = {
			focus = FIN_reform_the_armed_forces
		}
		
		mutually_exclusive = { }
		
		available = { }
		
		bypass = { }
		
		completion_reward = {
			102 = {	#Uusimaa
				add_building_construction = {
					type = air_base
					level = 3
					instant_build = yes
				}
			}
		}
		
		ai_will_do = {
			factor = 10
		}
	}
	
	focus = {
		id = FIN_recruit_additional_coastal_jaegers
		icon = amphibious_assault
		
		x = 0
		y = 3
		relative_position_id = FIN_expand_the_ministry_of_defense
		
		cost = 10

		cancel_if_invalid = yes
		continue_if_invalid = no
		available_if_capitulated = no
		
		prerequisite = {
			focus = FIN_military_production_in_helsinki
		}
		prerequisite = {
			focus = FIN_expand_upinniemi_naval_base
		}
		
		mutually_exclusive = { }
		
		available = { }
		
		bypass = { }
		
		completion_reward = {
			add_ideas = amphibious_expertise2
		}
		
		ai_will_do = {
			factor = 10
		}
	}
	
	focus = {
		id = FIN_additional_military_factories
		icon = industry_military
		
		x = -1
		y = 4
		relative_position_id = FIN_expand_the_ministry_of_defense
		
		cost = 10

		cancel_if_invalid = yes
		continue_if_invalid = no
		available_if_capitulated = no
		
		prerequisite = {
			focus = FIN_military_production_in_helsinki
		}
		
		mutually_exclusive = {
			focus = FIN_focus_on_naval_production
		}
		
		available = {
			has_full_control_of_state = 102
			has_full_control_of_state = 101
		}
		
		bypass = { }
		
		completion_reward = {
			102 = {	#Uusimaa
				add_extra_state_shared_building_slots = 1
				add_building_construction = {
					type = arms_factory
					level = 1
					instant_build = yes
				}
			}
			101 = {	#Pohjanmaa
				add_extra_state_shared_building_slots = 1
				add_building_construction = {
					type = arms_factory
					level = 1
					instant_build = yes
				}
			}
		}
		
		ai_will_do = {
			factor = 10
		}
	}
	
	focus = {
		id = FIN_focus_on_naval_production
		icon = naval_dockyard
		
		x = 1
		y = 4
		relative_position_id = FIN_expand_the_ministry_of_defense
		
		cost = 10

		cancel_if_invalid = yes
		continue_if_invalid = no
		available_if_capitulated = no
		
		prerequisite = {
			focus = FIN_expand_upinniemi_naval_base
		}
		
		mutually_exclusive = {
			focus = FIN_additional_military_factories
		}
		
		available = {
			has_full_control_of_state = 102
		}
		
		bypass = { }
		
		completion_reward = {
			add_ideas = naval_production_bonus4
			navy_experience = 100
			102 = {	#Uusimaa
				add_extra_state_shared_building_slots = 1
				add_building_construction = {
					type = dockyard
					level = 1
					instant_build = yes
				}
			}
		}
		
		ai_will_do = {
			factor = 10
		}
	}
	
	#Finland's Main Ally
	
	focus = {
		id = FIN_finlands_main_ally
		icon = improve_relations_red
		
		x = -4
		y = 2
		relative_position_id = FIN_expand_the_foreign_ministry
		
		cost = 10

		cancel_if_invalid = yes
		continue_if_invalid = no
		available_if_capitulated = no
		
		prerequisite = {
			focus = FIN_adopt_a_foreign_policy_doctrine
		}
		prerequisite = {
			focus = FIN_adopt_an_economic_doctrine
		}
		
		mutually_exclusive = { }
		
		available = {
			OR = {
				has_completed_focus = FIN_proximity_to_germany
				has_completed_focus = FIN_proximity_to_sweden
				has_completed_focus = FIN_proximity_to_russia
			}
		}
		
		bypass = { }
		
		completion_reward = {
			add_political_power = 150
		}
		
		ai_will_do = {
			factor = 10
		}
	}
	
	##Germany
	focus = {
		id = FIN_germany
		icon = align_to_germany
		
		x = -4
		y = 1
		relative_position_id = FIN_finlands_main_ally
		
		cost = 10

		cancel_if_invalid = yes
		continue_if_invalid = no
		available_if_capitulated = no
		
		prerequisite = {
			focus = FIN_finlands_main_ally
		}
		
		mutually_exclusive = {
			focus = FIN_sweden
		}
		mutually_exclusive = {
			focus = FIN_russia
		}
		
		available = {
			has_completed_focus = FIN_proximity_to_germany
		}
		
		bypass = { }
		
		completion_reward = {
			GER = {
				add_opinion_modifier = {
					target = FIN
					modifier = has_expressed_loyalty
				}
			}
		}
		
		ai_will_do = {
			factor = 10
			modifier = {
				factor = 0
				is_historical_focus_on = yes
			}
		}
	}
	
	focus = {
		id = FIN_leopard_2a4_imports
		icon = leopard_2a4
		
		x = -4
		y = 1
		relative_position_id = FIN_germany
		
		cost = 10

		cancel_if_invalid = yes
		continue_if_invalid = no
		available_if_capitulated = no
		
		prerequisite = {
			focus = FIN_germany
		}
		
		mutually_exclusive = { }
		
		available = {
			has_completed_focus = FIN_military_import_programs
			OR = {
				is_in_faction = no
				is_in_faction_with = GER
			}
			NOT = { has_war_with = GER }
			GER = { has_tech = MBT_3 }
		}
		
		bypass = { }
		
		completion_reward = {
			add_equipment_to_stockpile = {
				type = MBT_3
				amount = 200
				producer = GER
			}
		}
		
		ai_will_do = {
			factor = 10
		}
	}
	
	focus = {
		id = FIN_finnish_german_trade
		icon = trade
		
		x = -1
		y = 1
		relative_position_id = FIN_germany
		
		cost = 10

		cancel_if_invalid = yes
		continue_if_invalid = no
		available_if_capitulated = no
		
		prerequisite = {
			focus = FIN_germany
		}
		
		mutually_exclusive = { }
		
		available = { }
		
		bypass = { }
		
		completion_reward = {
			GER = {
				#increase_trade_influence_by_2 = yes lmao what's a trade influence. (revist)
			}
		}
		
		ai_will_do = {
			factor = 10
		}
	}
	
	focus = {
		id = FIN_european_involvement
		icon = align_to_europe
		
		x = 1
		y = 1
		relative_position_id = FIN_germany
		
		cost = 10

		cancel_if_invalid = yes
		continue_if_invalid = no
		available_if_capitulated = no
		
		prerequisite = {
			focus = FIN_germany
			focus = FIN_sweden
		}
		
		mutually_exclusive = { }
		
		available = {
			has_idea = EU_member
		}
		
		bypass = { }
		
		completion_reward = {
			every_country = {
				limit = { 
					has_idea = EU_member
					NOT = { original_tag = FIN }
					NOT = { has_war_with = FIN }
				}
				add_opinion_modifier = {
					target = FIN
					modifier = european_commitment
				}
			}
		}
		
		ai_will_do = {
			factor = 10
		}
	}
	
	focus = {
		id = FIN_leopard_2a6_imports
		icon = leopard_2a6
		
		x = -5
		y = 2
		relative_position_id = FIN_germany
		
		cost = 10

		cancel_if_invalid = yes
		continue_if_invalid = no
		available_if_capitulated = no
		
		prerequisite = {
			focus = FIN_leopard_2a4_imports
		}
		
		mutually_exclusive = { }
		
		available = {
			has_completed_focus = FIN_military_import_programs
			OR = {
				is_in_faction = no
				is_in_faction_with = GER
			}
			NOT = { has_war_with = GER }
			GER = { has_tech = MBT_5 }
		}
		
		bypass = { }
		
		completion_reward = {
			add_equipment_to_stockpile = {
				type = MBT_5
				amount = 200
				producer = GER
			}
		}
		
		ai_will_do = {
			factor = 10
		}
	}
	
	focus = {
		id = FIN_praise_the_kaiser
		icon = german_monarchy
		
		x = -3
		y = 2
		relative_position_id = FIN_germany
		
		cost = 10

		cancel_if_invalid = yes
		continue_if_invalid = no
		available_if_capitulated = no
		
		prerequisite = {
			focus = FIN_finnish_german_trade
		}
		
		mutually_exclusive = {
			focus = FIN_join_nato
		}
		
		available = {
			NOT = { has_war_with = GER }
			is_puppet = no
			GER = { is_puppet = no }
			GER = { has_government = nationalist }
		}
		
		bypass = { }
		
		completion_reward = {
			GER = {
				add_opinion_modifier = {
					target = FIN
					modifier = diplomatic_support
				}
			}
			add_popularity = {
				ideology = nationalist
				popularity = 0.1
			}
			add_to_variable = { party_pop_array^23 = 0.1 }
			recalculate_party = yes
		}
		
		ai_will_do = {
			factor = 10
		}
	}
	
	focus = {
		id = FIN_join_nato
		icon = align_to_nato
		
		x = 0
		y = 2
		relative_position_id = FIN_germany
		
		cost = 10

		cancel_if_invalid = yes
		continue_if_invalid = no
		available_if_capitulated = no
		
		prerequisite = {
			focus = FIN_finnish_german_trade
		}
		
		mutually_exclusive = {
			focus = FIN_praise_the_kaiser
		}
		
		available = {
			has_government = democratic
			is_in_faction = no
			USA = { has_government = democratic }
		}
		
		bypass = { }
		
		completion_reward = {
			USA = {
				country_event = NATO.14
			}
			swap_ideas = {
				remove_idea = finnish_neutrality
				add_idea = sisu
			}
			if = {
				limit = { SOV = { is_in_faction = yes NOT = { is_in_faction_with = USA } } }
				SOV = {
					add_opinion_modifier = {
						target = FIN
						modifier = imminent_danger_to_national_security
					}
				}
			}
		}
		
		ai_will_do = {
			factor = 10
		}
	}
	
	focus = {
		id = FIN_restore_the_kingdom_of_finland
		icon = finnish_monarchy
		
		x = -3
		y = 3
		relative_position_id = FIN_germany
		
		cost = 10

		cancel_if_invalid = yes
		continue_if_invalid = no
		available_if_capitulated = no
		
		prerequisite = {
			focus = FIN_praise_the_kaiser
		}
		
		mutually_exclusive = { }
		
		available = { }
		
		bypass = { }
		
		completion_reward = {
			country_event = Finland.7
		}
		
		ai_will_do = {
			factor = 10
		}
	}
	
	focus = {
		id = FIN_nato_drills_on_finnish_soil
		icon = small_arms4
		
		x = -1
		y = 3
		relative_position_id = FIN_germany
		
		cost = 10

		cancel_if_invalid = yes
		continue_if_invalid = no
		available_if_capitulated = no
		
		prerequisite = {
			focus = FIN_join_nato
		}
		
		mutually_exclusive = { }
		
		available = { }
		
		bypass = { }
		
		completion_reward = {
			army_experience = 30
			#every_country = {
			#	limit = {
			#		is_in_faction_with = FIN
			#		NOT = { original_tag = FIN }
			#	}
			#	country_event = nato.5
			#}
		}
		
		ai_will_do = {
			factor = 10
		}
	}
	
	focus = {
		id = FIN_remilitarize_aland
		icon = skull
		
		x = -3
		y = 4
		relative_position_id = FIN_germany
		
		cost = 10

		cancel_if_invalid = yes
		continue_if_invalid = no
		available_if_capitulated = no
		
		prerequisite = {
			focus = FIN_restore_the_kingdom_of_finland
		}
		
		mutually_exclusive = { }
		
		available = {
			has_full_control_of_state = 104
		}
		
		bypass = {
			104 = { is_demilitarized_zone = no }
		}
		
		completion_reward = {
			104 = {
				set_demilitarized_zone = no
			}
		}
		
		ai_will_do = {
			factor = 10
		}
	}
	
	focus = {
		id = FIN_import_nato_equipment
		icon = license_production
		
		x = -1
		y = 4
		relative_position_id = FIN_germany
		
		cost = 10

		cancel_if_invalid = yes
		continue_if_invalid = no
		available_if_capitulated = no
		
		prerequisite = {
			focus = FIN_nato_drills_on_finnish_soil
		}
		
		mutually_exclusive = {
			focus = FIN_import_swedish_equipment
		}
		
		available = {
			has_completed_focus = FIN_military_import_programs
			has_government = democratic
		}
		
		bypass = { }
		
		completion_reward = {
			if = {
				add_equipment_to_stockpile = {
					type = MBT_3
					amount = 15
					producer = ENG
				}
				add_equipment_to_stockpile = {
					type = infantry_equipment_3
					amount = 250
					producer = ENG
				}
				ENG = {
					add_opinion_modifier = { target = FIN modifier = military_deals }
				}
			}
			if = {
				add_equipment_to_stockpile = {
					type = MBT_3
					amount = 15
					producer = FRA
				}
				add_equipment_to_stockpile = {
					type = infantry_equipment_3
					amount = 250
					producer = FRA
				}
				FRA = {
					add_opinion_modifier = { target = FIN modifier = military_deals }
				}
			}
			if = {
				add_equipment_to_stockpile = {
					type = MBT_3
					amount = 15
					producer = GER
				}
				add_equipment_to_stockpile = {
					type = infantry_equipment_3
					amount = 250
					producer = GER
				}
				GER = {
					add_opinion_modifier = { target = FIN modifier = military_deals }
				}
			}
			if = {
				add_equipment_to_stockpile = {
					type = MBT_3
					amount = 15
					producer = USA
				}
				add_equipment_to_stockpile = {
					type = infantry_equipment_3
					amount = 250
					producer = USA
				}
				USA = {
					add_opinion_modifier = { target = FIN modifier = military_deals }
				}
			}
		}
		
		ai_will_do = {
			factor = 10
		}
	}
	
	focus = {
		id = FIN_finnish_panzertruppe
		icon = military_mission
		
		x = -4
		y = 5
		relative_position_id = FIN_germany
		
		cost = 10

		cancel_if_invalid = yes
		continue_if_invalid = no
		available_if_capitulated = no
		
		prerequisite = {
			focus = FIN_leopard_2a4_imports
		}
		prerequisite = {
			focus = FIN_praise_the_kaiser
		}
		
		mutually_exclusive = { }
		
		available = {
			NOT = { has_war_with = GER }
			OR = {
				is_in_faction = no
				is_in_faction_with = GER
			}
		}
		
		bypass = { }
		
		completion_reward = {
			army_experience = 25
			add_tech_bonus = {
				name = tank_bonus
				bonus = 0.4
				uses = 2
				category = Cat_ARMOR
			}
		}
		
		ai_will_do = {
			factor = 10
		}
	}
	
	focus = {
		id = FIN_secret_preparations_of_war_against_russia
		icon = attack_russia
		
		x = -2
		y = 5
		relative_position_id = FIN_germany
		
		cost = 10

		cancel_if_invalid = yes
		continue_if_invalid = no
		available_if_capitulated = no
		
		prerequisite = {
			focus = FIN_import_nato_equipment
			focus = FIN_import_swedish_equipment
			focus = FIN_remilitarize_aland
		}
		
		mutually_exclusive = {
			focus = FIN_defensive_focus
		}
		
		available = {
			NOT = { is_in_faction_with = SOV }
		}
		
		bypass = {
			has_war_with = SOV
		}
		
		completion_reward = {
			army_experience = 30
		}
		
		ai_will_do = {
			factor = 10
			modifier = {
				factor = 0
				is_historical_focus_on = yes
			}
		}
	}
	
	focus = {
		id = FIN_proclamation_of_greater_finland
		icon = greater_finland
		
		x = -2
		y = 6
		relative_position_id = FIN_germany
		
		cost = 3

		cancel_if_invalid = yes
		continue_if_invalid = no
		available_if_capitulated = no
		
		prerequisite = {
			focus = FIN_secret_preparations_of_war_against_russia
		}
		
		mutually_exclusive = {
			focus = FIN_defensive_focus
		}
		
		available = { }
		
		bypass = { }
		
		completion_reward = {
			unlock_national_focus = FIN_greater_finland
		}
		
		ai_will_do = {
			factor = 10
		}
	}
	
	##Sweden
	focus = {
		id = FIN_sweden
		icon = align_to_sweden
		
		x = -2
		y = 1
		relative_position_id = FIN_finlands_main_ally
		
		cost = 10

		cancel_if_invalid = yes
		continue_if_invalid = no
		available_if_capitulated = no
		
		prerequisite = {
			focus = FIN_finlands_main_ally
		}
		
		mutually_exclusive = {
			focus = FIN_germany
		}
		mutually_exclusive = {
			focus = FIN_russia
		}
		
		available = {
			has_completed_focus = FIN_proximity_to_sweden
		}
		
		bypass = { }
		
		completion_reward = {
			SWE = {
				add_opinion_modifier = {
					target = FIN
					modifier = has_expressed_loyalty
				}
			}
		}
		
		ai_will_do = {
			factor = 10
		}
	}
	
	focus = {
		id = FIN_secure_swedish_minority_rights
		icon = military_sphere
		
		x = 1
		y = 1
		relative_position_id = FIN_sweden
		
		cost = 10

		cancel_if_invalid = yes
		continue_if_invalid = no
		available_if_capitulated = no
		
		prerequisite = {
			focus = FIN_sweden
		}
		
		mutually_exclusive = { }
		
		available = { }
		
		bypass = { }
		
		completion_reward = {
			add_political_power = 50
			add_stability = 0.02
			SWE = {
				add_opinion_modifier = {
					target = FIN
					modifier = secured_minority_rights
				}
			}
		}
		
		ai_will_do = {
			factor = 10
		}
	}
	
	focus = {
		id = FIN_ally_with_sweden
		icon = align_to_sweden
		
		x = 0
		y = 2
		relative_position_id = FIN_sweden
		
		cost = 10

		cancel_if_invalid = yes
		continue_if_invalid = no
		available_if_capitulated = no
		
		prerequisite = {
			focus = FIN_secure_swedish_minority_rights
		}
		
		mutually_exclusive = { }
		
		available = { }
		
		bypass = { }
		
		completion_reward = {
			give_guarantee = SWE
			SWE = { country_event = Finland.9 }
		}
		
		ai_will_do = {
			factor = 10
		}
	}
	
	focus = {
		id = FIN_create_jobs_for_the_swedish_minority
		icon = industry_communist2
		
		x = 2
		y = 2
		relative_position_id = FIN_sweden
		
		cost = 10

		cancel_if_invalid = yes
		continue_if_invalid = no
		available_if_capitulated = no
		
		prerequisite = {
			focus = FIN_secure_swedish_minority_rights
		}
		
		mutually_exclusive = { }
		
		available = {
			has_full_control_of_state = 104
		}
		
		bypass = { }
		
		completion_reward = {
			104 = {	#Aland
				add_extra_state_shared_building_slots = 1
				add_building_construction = {
					type = industrial_complex
					level = 1
					instant_build = yes
				}
			}
		}
		
		ai_will_do = {
			factor = 10
		}
	}
	
	focus = {
		id = FIN_military_cooperation_with_sweden
		icon = military_mission
		
		x = -1
		y = 3
		relative_position_id = FIN_sweden
		
		cost = 10

		cancel_if_invalid = yes
		continue_if_invalid = no
		available_if_capitulated = no
		
		prerequisite = {
			focus = FIN_join_nato
			focus = FIN_ally_with_sweden
		}
		
		mutually_exclusive = { }
		
		available = { }
		
		bypass = { }
		
		completion_reward = {
			army_experience = 20
			SWE = { army_experience = 20 }
			add_opinion_modifier = {
				target = SWE
				modifier = military_cooperation
			}
			reverse_add_opinion_modifier = {
				target = SWE
				modifier = military_cooperation
			}
		}
		
		ai_will_do = {
			factor = 10
		}
	}
	
	focus = {
		id = FIN_joint_artillery_projects
		icon = artillery2
		
		x = 1
		y = 3
		relative_position_id = FIN_sweden
		
		cost = 10

		cancel_if_invalid = yes
		continue_if_invalid = no
		available_if_capitulated = no
		
		prerequisite = {
			focus = FIN_ally_with_sweden
		}
		
		mutually_exclusive = { }
		
		available = { }
		
		bypass = { }
		
		completion_reward = {
			add_tech_bonus = {
				name = artillery_bonus
				bonus = 0.3
				uses = 1
				category = Cat_ARTILLERY
			}
			SWE = {
				add_tech_bonus = {
					name = artillery_bonus
					bonus = 0.3
					uses = 1
					category = Cat_ARTILLERY
				}
			}
		}
		
		ai_will_do = {
			factor = 10
		}
	}
	
	focus = {
		id = FIN_import_swedish_equipment
		icon = license_production
		
		x = -1
		y = 4
		relative_position_id = FIN_sweden
		
		cost = 10

		cancel_if_invalid = yes
		continue_if_invalid = no
		available_if_capitulated = no
		
		prerequisite = {
			focus = FIN_military_cooperation_with_sweden
		}
		
		mutually_exclusive = {
			focus = FIN_import_nato_equipment
		}
		
		available = {
			has_completed_focus = FIN_military_import_programs
			OR = {
				is_in_faction_with = SWE
				is_in_faction = no
			}
			NOT = { has_war_with = SWE }
		}
		
		bypass = { }
		
		completion_reward = {
			add_equipment_to_stockpile = {
				type = MBT_3
				amount = 70
				producer = SWE
			}
			add_equipment_to_stockpile = {
				type = infantry_equipment_3
				amount = 800
				producer = SWE
			}
		}
		
		ai_will_do = {
			factor = 10
		}
	}
	
	focus = {
		id = FIN_joint_tank_projects
		icon = tanks
		
		x = 1
		y = 4
		relative_position_id = FIN_sweden
		
		cost = 10

		cancel_if_invalid = yes
		continue_if_invalid = no
		available_if_capitulated = no
		
		prerequisite = {
			focus = FIN_joint_artillery_projects
		}
		
		mutually_exclusive = { }
		
		available = { }
		
		bypass = { }
		
		completion_reward = {
			add_tech_bonus = {
				name = tank_bonus
				bonus = 0.4
				uses = 2
				category = Cat_ARMOR
			}
		}
		
		ai_will_do = {
			factor = 10
		}
	}
	
	focus = {
		id = FIN_defensive_focus
		icon = military_fort
		
		x = -1
		y = 5
		relative_position_id = FIN_sweden
		
		cost = 10

		cancel_if_invalid = yes
		continue_if_invalid = no
		available_if_capitulated = no
		
		prerequisite = {
			focus = FIN_import_nato_equipment
			focus = FIN_import_swedish_equipment
		}
		
		mutually_exclusive = {
			focus = FIN_secret_preparations_of_war_against_russia
		}
		
		available = { }
		
		bypass = { }
		
		completion_reward = {
			add_ideas = defensive_preparations2
		}
		
		ai_will_do = {
			factor = 10
		}
	}
	
	##Russia
	focus = {
		id = FIN_russia
		icon = align_to_russia
		
		x = 1
		y = 1
		relative_position_id = FIN_finlands_main_ally
		
		cost = 10

		cancel_if_invalid = yes
		continue_if_invalid = no
		available_if_capitulated = no
		
		prerequisite = {
			focus = FIN_finlands_main_ally
		}
		
		mutually_exclusive = {
			focus = FIN_germany
		}
		mutually_exclusive = {
			focus = FIN_sweden
		}
		
		available = {
			has_completed_focus = FIN_proximity_to_russia
		}
		
		bypass = { }
		
		completion_reward = {
			SOV = {
				add_opinion_modifier = {
					target = FIN
					modifier = has_expressed_loyalty
				}
			}
		}
		
		ai_will_do = {
			factor = 10
			modifier = {
				factor = 0
				is_historical_focus_on = yes
			}
		}
	}
	
	focus = {
		id = FIN_political_alliance_with_vladimir_putin
		icon = putin
		
		x = 0
		y = 1
		relative_position_id = FIN_russia
		
		cost = 10

		cancel_if_invalid = yes
		continue_if_invalid = no
		available_if_capitulated = no
		
		prerequisite = {
			focus = FIN_russia
		}
		
		mutually_exclusive = { }
		
		available = {
			SOV = { has_government = communism }
			OR = {
				SOV = { has_country_leader = { name = "Vladimir Putin" } }
				SOV = { has_country_leader = { name = "Dimitry Medvedev" } }
			}
		}
		
		bypass = { }
		
		completion_reward = {
			add_political_power = 20
			SOV = {
				add_opinion_modifier = {
					target = FIN
					modifier = oligarchic_corruption
				}
			}
		}
		
		ai_will_do = {
			factor = 10
		}
	}
	
	focus = {
		id = FIN_csto_embassies
		icon = alliance_purple
		
		x = 2
		y = 1
		relative_position_id = FIN_russia
		
		cost = 10

		cancel_if_invalid = yes
		continue_if_invalid = no
		available_if_capitulated = no
		
		prerequisite = {
			focus = FIN_russia
		}
		
		mutually_exclusive = { }
		
		available = {
			SOV = { is_faction_leader = yes }
			NOT = { has_war_with = SOV }
		}
		
		bypass = { }
		
		completion_reward = {
			every_country = {
				limit = {
					NOT = { original_tag = FIN }
					NOT = { original_tag = SOV }
					is_in_faction_with = SOV
				}
				add_opinion_modifier = {
					target = FIN
					modifier = new_embassies
				}
			}
		}
		
		ai_will_do = {
			factor = 10
		}
	}
	
	focus = {
		id = FIN_ease_the_border_tensions
		icon = intelligence_exchange
		
		x = 4
		y = 1
		relative_position_id = FIN_russia
		
		cost = 10

		cancel_if_invalid = yes
		continue_if_invalid = no
		available_if_capitulated = no
		
		prerequisite = {
			focus = FIN_russia
		}
		
		mutually_exclusive = { }
		
		available = {
			NOT = { has_war_with = SOV }
		}
		
		bypass = { }
		
		completion_reward = {
			add_opinion_modifier = {
				target = SOV
				modifier = eased_border_tensions
			}
			SOV = {
				add_opinion_modifier = {
					target = FIN
					modifier = eased_border_tensions
				}
			}
		}
		
		ai_will_do = {
			factor = 10
		}
	}
	
	focus = {
		id = FIN_join_csto
		icon = align_to_csto
		
		x = 1
		y = 2
		relative_position_id = FIN_russia
		
		cost = 10

		cancel_if_invalid = yes
		continue_if_invalid = no
		available_if_capitulated = no
		
		prerequisite = {
			focus = FIN_political_alliance_with_vladimir_putin
			focus = FIN_csto_embassies
			focus = FIN_ease_the_border_tensions
		}
		
		mutually_exclusive = {
			focus = FIN_csto_for_finnish_territories
		}
		
		available = {
			is_puppet = no
			SOV = { is_puppet = no }
			SOV = { is_faction_leader = yes }
		}
		
		bypass = { }
		
		completion_reward = {
			SOV = { add_to_faction = FIN }
			swap_ideas = {
				remove_idea = finnish_neutrality
				add_idea = sisu
			}
			if = {
				limit = {
					NOR = { NOT = { is_in_faction_with = SOV } }
				}
				NOR = {
					add_opinion_modifier = {
						target = FIN
						modifier = major_breach_of_trust
					}
				}
			}
			if = {
				limit = {
					DEN = { NOT = { is_in_faction_with = SOV } }
				}
				DEN = {
					add_opinion_modifier = {
						target = FIN
						modifier = major_breach_of_trust
					}
				}
			}
			if = {
				limit = {
					SWE = { NOT = { is_in_faction_with = SOV } }
				}
				SWE = {
					add_opinion_modifier = {
						target = FIN
						modifier = major_breach_of_trust
					}
				}
			}
			if = {
				limit = {
					EST = { NOT = { is_in_faction_with = SOV } }
				}
				EST = {
					add_opinion_modifier = {
						target = FIN
						modifier = major_breach_of_trust
					}
				}
			}
		}
		
		ai_will_do = {
			factor = 10
		}
	}
	
	focus = {
		id = FIN_csto_for_finnish_territories
		icon = political_pressure
		
		x = 3
		y = 2
		relative_position_id = FIN_russia
		
		cost = 10

		cancel_if_invalid = yes
		continue_if_invalid = no
		available_if_capitulated = no
		
		prerequisite = {
			focus = FIN_political_alliance_with_vladimir_putin
			focus = FIN_csto_embassies
			focus = FIN_ease_the_border_tensions
		}
		
		mutually_exclusive = {
			focus = FIN_join_csto
		}
		
		available = {
			is_puppet = no
			SOV = { is_puppet = no }
			SOV = { is_faction_leader = yes }
		}
		
		bypass = { }
		
		completion_reward = {
			SOV = { country_event = Finland.8 }
			swap_ideas = {
				remove_idea = finnish_neutrality
				add_idea = sisu
			}
		}
		
		ai_will_do = {
			factor = 10
		}
	}
	
	focus = {
		id = FIN_befriend_belarus
		icon = align_to_belarus
		
		x = 0
		y = 3
		relative_position_id = FIN_russia
		
		cost = 10

		cancel_if_invalid = yes
		continue_if_invalid = no
		available_if_capitulated = no
		
		prerequisite = {
			focus = FIN_join_csto
		}
		
		mutually_exclusive = { }
		
		available = {
			country_exists = BLR
		}
		
		bypass = { }
		
		completion_reward = {
			BLR = {
				add_opinion_modifier = {
					target = FIN
					modifier = declaration_of_friendship
				}
			}
		}
		
		ai_will_do = {
			factor = 10
		}
	}
	
	focus = {
		id = FIN_import_russian_equipment
		icon = license_production
		
		x = 2
		y = 3
		relative_position_id = FIN_russia
		
		cost = 10

		cancel_if_invalid = yes
		continue_if_invalid = no
		available_if_capitulated = no
		
		prerequisite = {
			focus = FIN_join_csto
			focus = FIN_csto_for_finnish_territories
		}
		
		mutually_exclusive = {
			focus = FIN_plan_b
		}
		
		available = {
			is_in_faction_with = SOV
			has_completed_focus = FIN_military_import_programs
		}
		
		bypass = { }
		
		completion_reward = {
			add_equipment_to_stockpile = {
				type = MBT_3
				amount = 70
				producer = SOV
			}
			add_equipment_to_stockpile = {
				type = infantry_equipment_3
				amount = 800
				producer = SOV
			}
		}
		
		ai_will_do = {
			factor = 10
		}
	}
	
	focus = {
		id = FIN_plan_b
		icon = greater_finland
		
		x = 4
		y = 3
		relative_position_id = FIN_russia
		
		cost = 10

		cancel_if_invalid = yes
		continue_if_invalid = no
		available_if_capitulated = no
		
		prerequisite = {
			focus = FIN_csto_for_finnish_territories
		}
		
		mutually_exclusive = {
			focus = FIN_import_russian_equipment
		}
		
		available = {
			NOT = { is_in_faction_with = SOV }
		}
		
		bypass = { }
		
		completion_reward = {
			unlock_national_focus = FIN_greater_finland
		}
		
		ai_will_do = {
			factor = 10
		}
	}
	
	focus = {
		id = FIN_befriend_kazakhstan
		icon = align_to_kazakhstan
		
		x = 0
		y = 4
		relative_position_id = FIN_russia
		
		cost = 10

		cancel_if_invalid = yes
		continue_if_invalid = no
		available_if_capitulated = no
		
		prerequisite = {
			focus = FIN_befriend_belarus
		}
		
		mutually_exclusive = { }
		
		available = {
			country_exists = KAZ
		}
		
		bypass = { }
		
		completion_reward = {
			KAZ = {
				add_opinion_modifier = {
					target = FIN
					modifier = declaration_of_friendship
				}
			}
		}
		
		ai_will_do = {
			factor = 10
		}
	}
	
	focus = {
		id = FIN_border_security
		icon = military_sphere
		
		x = 2
		y = 4
		relative_position_id = FIN_russia
		
		cost = 25

		cancel_if_invalid = yes
		continue_if_invalid = no
		available_if_capitulated = no
		
		prerequisite = {
			focus = FIN_import_russian_equipment
		}
		
		mutually_exclusive = { }
		
		available = { }
		
		bypass = { }
		
		completion_reward = {
			148 = {	#Lappi
				add_building_construction = {
					type = bunker
					province = 6134
					level = 2
					instant_build = yes
				}
				add_building_construction = {
					type = bunker
					province = 6045
					level = 2
					instant_build = yes
				}
				add_building_construction = {
					type = bunker
					province = 6128
					level = 3
					instant_build = yes
				}
				add_building_construction = {
					type = bunker
					province = 3154
					level = 4
					instant_build = yes
				}
				add_building_construction = {
					type = bunker
					province = 3097
					level = 3
					instant_build = yes
				}
				add_building_construction = {
					type = bunker
					province = 3069
					level = 2
					instant_build = yes
				}
				add_building_construction = {
					type = bunker
					province = 167
					level = 2
					instant_build = yes
				}
				add_building_construction = {
					type = bunker
					province = 203
					level = 2
					instant_build = yes
				}
				add_building_construction = {
					type = bunker
					province = 11130
					level = 2
					instant_build = yes
				}
			}
		}
		
		ai_will_do = {
			factor = 10
		}
	}
	
	#Greater Finland Tree
	focus = {
		id = FIN_greater_finland
		icon = align_to_finland
		
		x = 27
		y = 0
		
		cost = 10

		cancel_if_invalid = yes
		continue_if_invalid = no
		available_if_capitulated = no
		
		prerequisite = { }
		
		mutually_exclusive = { }
		
		available = {
			always = no
		}
		
		bypass = { }
		
		completion_reward = {
			
		}
		
		ai_will_do = {
			factor = 10
		}
	}
	
	focus = {
		id = FIN_claim_the_borders_of_1938
		icon = greater_finland
		
		x = 0
		y = 1
		relative_position_id = FIN_greater_finland
		
		cost = 10

		cancel_if_invalid = yes
		continue_if_invalid = no
		available_if_capitulated = no
		
		prerequisite = {
			focus = FIN_greater_finland
		}
		
		mutually_exclusive = { }
		
		available = { }
		
		bypass = { }
		
		completion_reward = {
			add_named_threat = {
				name = "Finnish Irredentism"
				threat = 3
			}
			add_state_claim = 643	#Petsamo
			add_state_claim = 644	#Salla
			
			#news_event = finland_news.1
		}
		
		ai_will_do = {
			factor = 10
		}
	}
	
	focus = {
		id = FIN_claim_kola
		icon = political_pressure_blue
		
		x = -1
		y = 2
		relative_position_id = FIN_greater_finland
		
		cost = 10

		cancel_if_invalid = yes
		continue_if_invalid = no
		available_if_capitulated = no
		
		prerequisite = {
			focus = FIN_claim_the_borders_of_1938
		}
		
		mutually_exclusive = { }
		
		available = { }
		
		bypass = { }
		
		completion_reward = {
			add_named_threat = {
				name = "Finnish Claims on Kola"
				threat = 1.5
			}
		}
		
		ai_will_do = {
			factor = 10
		}
	}
	
	focus = {
		id = FIN_claim_eastern_karelia
		icon = political_pressure_dark_green
		
		x = 1
		y = 2
		relative_position_id = FIN_greater_finland
		
		cost = 10

		cancel_if_invalid = yes
		continue_if_invalid = no
		available_if_capitulated = no
		
		prerequisite = {
			focus = FIN_claim_the_borders_of_1938
		}
		
		mutually_exclusive = { }
		
		available = { }
		
		bypass = { }
		
		completion_reward = {
			add_named_threat = {
				name = "Finnish Claims on Eastern Karelia"
				threat = 2.5
			}
		}
		
		ai_will_do = {
			factor = 10
		}
	}
	
	focus = {
		id = FIN_david_against_goliath
		icon = ultimatum
		
		x = 0
		y = 3
		relative_position_id = FIN_greater_finland
		
		cost = 10

		cancel_if_invalid = yes
		continue_if_invalid = no
		available_if_capitulated = no
		
		prerequisite = {
			focus = FIN_claim_eastern_karelia
		}
		prerequisite = {
			focus = FIN_claim_kola
		}
		
		mutually_exclusive = { }
		
		available = { }
		
		bypass = { }
		
		completion_reward = {
			add_named_threat = {
				name = "Finnish-Russian Border Conflict"
				threat = 4
			}
			create_wargoal = {
				target = SOV
				type = take_claimed_state
				generator = {
					643 644
				}
			}
		}
		
		ai_will_do = {
			factor = 10
		}
	}
	
}