#structure done by kalkalash and icons by ahmeteris. special thanks to hiddengearz

focus_tree = {
	id = Syria_Focus_2017
	country = {
		factor = 0
		modifier = {
			add = 10
			AND = {
				OR = {
					original_tag = SYR
					original_tag = FSA
					original_tag = NUS
				}
			}
		}
	}
	default = no
	
	shared_focus = SYR_diplomatic_effort
	shared_focus = SYR_greater_syria
	
	continuous_focus_position = { x = 100 y = 2000 }
	
	#Main branch of post-civil war. Must be finished before can start anything else
	focus = {
		id = SYR_civil_war_victory
		icon = demand_territory2
		cost = 5
		x = 9
		y = 1
		
		ai_will_do = {
			factor = 100
		}
		
		available = {
			has_global_flag = Syria_Civil_War_Over
			has_civil_war = no
		}
		
		bypass = {
			
		}
		
		cancel_if_invalid = yes
		available_if_capitulated = no
		
		complete_tooltip = {
		
		}
		
		completion_reward = {
			add_political_power = 100
		}

	}
	focus = {
		id = SYR_kurdish_question
		icon = self_management
		cost = 10
		prerequisite = {
			focus = SYR_civil_war_victory
		}
		x = 0
		y = 1
		relative_position_id = SYR_civil_war_victory
		
		will_lead_to_war_with = ROJ
		
		ai_will_do = {
			factor = 100
		}
		
		available = {
			has_civil_war = no
			NOT = { has_war_with = ROJ }
			country_exists = ROJ
		}
		
		bypass = {
			OR = {
				NOT = { country_exists = ROJ }
				ROJ = { is_subject_of = ROOT }
				custom_trigger_tooltip = {
					tooltip = TT_SYR_DEAL_WITH_ROJAVA
					has_country_flag = Deal_With_Rojava
				}
			}			
		}
		
		cancel_if_invalid = yes
		available_if_capitulated = no
		
		complete_tooltip = {
		
		}
		
		completion_reward = {
			country_event = SyriaFocus.0
		}

	}
	##Assad branch
	focus = {
		id = SYR_assad_day
		icon = entente
		cost = 10
		prerequisite = {
			focus = SYR_kurdish_question
		}
		x = -5
		y = 2
		relative_position_id = SYR_civil_war_victory
		
		ai_will_do = {
			factor = 100
		}
		
		available = {
			original_tag = SYR
			has_civil_war = no
		}
		
		bypass = {
		}
		
		cancel_if_invalid = yes
		available_if_capitulated = no
		
		complete_tooltip = {
		
		}
		
		completion_reward = {
			add_political_power = 100
			add_popularity = { ideology = communism popularity = 0.1 }
		}
	}
	focus = {
		id = SYR_incorporate_ssnp
		icon = major_alliance
		cost = 10
		prerequisite = {
			focus = SYR_assad_day
		}
		mutually_exclusive = {
			focus = SYR_ssnp_traitors
		}
		x = -6
		y = 3
		relative_position_id = SYR_civil_war_victory
		
		ai_will_do = {
			factor = 15
			modifier = {
				factor = 1.2
				SOV = { has_country_flag = Opinion_On_SSNP_Keep }
			}
			modifier = {
				factor = 1.2
				PER = { has_country_flag = Opinion_On_SSNP_Keep }
			}
		}
		
		available = {
			has_civil_war = no
		}
		
		bypass = {
		}
		
		cancel_if_invalid = yes
		available_if_capitulated = no
		
		complete_tooltip = {
		
		}
		
		completion_reward = {
			swap_ideas = { remove_idea = syrian_social_nationalists add_idea = syrian_social_nationalists_inc }
			every_country = {
				limit = {
					has_country_flag = Opinion_On_SSNP_Purge
				}
				add_opinion_modifier = { target = SYR modifier = insult }
				if = {
					limit = { has_country_flag = SYR_Against_Our_Wishes_2 }
					clr_country_flag = SYR_Against_Our_Wishes_2
					set_country_flag = SYR_Broken_Relations
				}
				if = {
					limit = { has_country_flag = SYR_Against_Our_Wishes_1 }
					clr_country_flag = SYR_Against_Our_Wishes_1
					set_country_flag = SYR_Against_Our_Wishes_2
				}
				if = {
					limit = { 
						NOT = {
							has_country_flag = SYR_Against_Our_Wishes_2
							has_country_flag = SYR_Against_Our_Wishes_1
						}
					}
					set_country_flag = SYR_Against_Our_Wishes_1
				}
			}
		}
		
	}
	focus = {
		id = SYR_ssnp_traitors
		icon = anti_fascist_diplomacy
		cost = 10
		prerequisite = {
			focus = SYR_assad_day
		}
		mutually_exclusive = {
			focus = SYR_incorporate_ssnp
		}
		x = -4
		y = 3
		relative_position_id = SYR_civil_war_victory
		
		ai_will_do = {
			factor = 10
			modifier = {
				add = 1.2
				SOV = { has_country_flag = Opinion_On_SSNP_Purge }
			}
			modifier = {
				add = 1.2
				PER = { has_country_flag = Opinion_On_SSNP_Purge }
			}
		}
		
		available = {
			has_civil_war = no
		}
		
		bypass = {
		}
		
		cancel_if_invalid = yes
		available_if_capitulated = no
		
		complete_tooltip = {
		
		}
		
		completion_reward = {
			remove_ideas = syrian_social_nationalists
			set_country_flag = SSNP_Purged
			every_country = {
				limit = {
					has_country_flag = Opinion_On_SSNP_Keep
				}
				add_opinion_modifier = { target = SYR modifier = insult }
				if = {
					limit = { has_country_flag = SYR_Against_Our_Wishes_2 }
					clr_country_flag = SYR_Against_Our_Wishes_2
					set_country_flag = SYR_Broken_Relations
				}
				if = {
					limit = { has_country_flag = SYR_Against_Our_Wishes_1 }
					clr_country_flag = SYR_Against_Our_Wishes_1
					set_country_flag = SYR_Against_Our_Wishes_2
				}
				if = {
					limit = { 
						NOT = {
							has_country_flag = SYR_Against_Our_Wishes_2
							has_country_flag = SYR_Against_Our_Wishes_1
						}
					}
					set_country_flag = SYR_Against_Our_Wishes_1
				}
			}
			hidden_effect = {
				random_list = { 
					30 = { set_country_flag = SSNP_Coup_Incoming } 
					70 = { }
				}
			}
		}

	}	
	focus = {
		id = SYR_integrate_palestinians
		icon = conscription
		cost = 10
		prerequisite = {
			focus = SYR_incorporate_ssnp
			focus = SYR_ssnp_traitors
		}
		mutually_exclusive = {
			focus = SYR_expel_palestinians
		}
		x = -6
		y = 4
		relative_position_id = SYR_civil_war_victory
		
		ai_will_do = {
			factor = 15
			modifier = {
				factor = 1.2
				SOV = { has_country_flag = Opinion_On_Palestinian_Groups_Keep }
			}
			modifier = {
				factor = 1.2
				PER = { has_country_flag = Opinion_On_Palestinian_Groups_Keep }
			}
		}
		
		available = {
			has_civil_war = no
		}
		
		bypass = {
		}
		
		cancel_if_invalid = yes
		available_if_capitulated = no
		
		complete_tooltip = {
		
		}
		
		completion_reward = {
			set_division_template_lock = { division_template = "Elite Militia Battalion" is_locked = no }
			set_division_template_lock = { division_template = "Militia Brigade" is_locked = no }
			swap_ideas = { remove_idea = palestine_liberation_groups add_idea = palestine_liberation_groups_integrated }
			every_country = {
				limit = {
					has_country_flag = Opinion_On_Palestinian_Groups_Purge
				}
				add_opinion_modifier = { target = SYR modifier = insult }
				if = {
					limit = { has_country_flag = SYR_Against_Our_Wishes_2 }
					clr_country_flag = SYR_Against_Our_Wishes_2
					set_country_flag = SYR_Broken_Relations
				}
				if = {
					limit = { has_country_flag = SYR_Against_Our_Wishes_1 }
					clr_country_flag = SYR_Against_Our_Wishes_1
					set_country_flag = SYR_Against_Our_Wishes_2
				}
				if = {
					limit = { 
						NOT = {
							has_country_flag = SYR_Against_Our_Wishes_2
							has_country_flag = SYR_Against_Our_Wishes_1
						}
					}
					set_country_flag = SYR_Against_Our_Wishes_1
				}
			}
		}

	}
	focus = {
		id = SYR_expel_palestinians
		icon = anti_establishment2
		cost = 10
		prerequisite = {
			focus = SYR_ssnp_traitors
			focus = SYR_incorporate_ssnp
		}
		mutually_exclusive = {
			focus = SYR_integrate_palestinians
		}
		x = -4
		y = 4
		relative_position_id = SYR_civil_war_victory
		
		ai_will_do = {
			factor = 10
			modifier = {
				factor = 1.2
				SOV = { has_country_flag = Opinion_On_Palestinian_Groups_Purge }
			}
			modifier = {
				factor = 1.2
				PER = { has_country_flag = Opinion_On_Palestinian_Groups_Purge }
			}
		}
		
		available = {
			has_civil_war = no
		}
		
		bypass = {
		}
		
		cancel_if_invalid = yes
		available_if_capitulated = no
		
		complete_tooltip = {
		
		}
		
		completion_reward = {
			delete_unit_template_and_units = { division_template = "Elite Militia Battalion" }
			delete_unit_template_and_units = { division_template = "Militia Brigade" }
			remove_ideas = palestine_liberation_groups
			custom_effect_tooltip = TT_SYR_EXPEL_PALESTINIANS
			hidden_effect = {
				#1/4 of starting equipment of above units
				add_equipment_to_stockpile = {
					type = command_control_equipment
					amount = 20
					producer = SOV
				}
				add_equipment_to_stockpile = {
					type = Anti_Air_0			#Strela
					amount = 36
					producer = SOV
				}
				add_equipment_to_stockpile = {
					type = Anti_tank_1			#MILAN
					amount = 18
					producer = FRA
				}
				add_equipment_to_stockpile = {
					type = Anti_tank_0			#Malyutka
					amount = 18
					producer = SOV
				}
				add_equipment_to_stockpile = {
					type = Heavy_Anti_tank_1			#Konkurs
					amount = 9
					producer = SOV
				}
				add_equipment_to_stockpile = {
					type = Heavy_Anti_tank_1			#HOT
					amount = 9
					producer = FRA
				}
				add_equipment_to_stockpile = {
					type = SP_arty_0			#Akatsiya
					amount = 6
					producer = SOV
				}
				add_equipment_to_stockpile = {
					type = infantry_weapons			#AKM
					amount = 1080
					producer = SOV
				}
				add_equipment_to_stockpile = {
					type = infantry_weapons1			#AK-74
					amount = 360
					producer = SOV
				}
				add_equipment_to_stockpile = {
					type = MBT_2			#T-72
					amount = 56
					producer = SOV
				}
				add_equipment_to_stockpile = {
					type = util_vehicle_1			#Safir
					amount = 360
					producer = PER
				}
			}			
			HAM = { add_opinion_modifier = { target = SYR modifier = insult } }
			ISR = { add_opinion_modifier = { target = SYR modifier = gratitude } }
			every_country = {
				limit = {
					has_country_flag = Opinion_On_Palestinian_Groups_Keep
				}
				add_opinion_modifier = { target = SYR modifier = insult }
				if = {
					limit = { has_country_flag = SYR_Against_Our_Wishes_2 }
					clr_country_flag = SYR_Against_Our_Wishes_2
					set_country_flag = SYR_Broken_Relations
				}
				if = {
					limit = { has_country_flag = SYR_Against_Our_Wishes_1 }
					clr_country_flag = SYR_Against_Our_Wishes_1
					set_country_flag = SYR_Against_Our_Wishes_2
				}
				if = {
					limit = { 
						NOT = {
							has_country_flag = SYR_Against_Our_Wishes_2
							has_country_flag = SYR_Against_Our_Wishes_1
						}
					}
					set_country_flag = SYR_Against_Our_Wishes_1
				}
			}
		}

	}
	focus = {
		id = SYR_formalise_shia_militias
		icon = diplomatic_treaty
		cost = 10
		prerequisite = {
			focus = SYR_integrate_palestinians
			focus = SYR_expel_palestinians
		}
		mutually_exclusive = {
			focus = SYR_disarm_militias
		}
		x = -6
		y = 5
		relative_position_id = SYR_civil_war_victory
		
		ai_will_do = {
			factor = 15
			modifier = {
				factor = 1.2
				SOV = { has_country_flag = Opinion_On_Palestinian_Groups_Purge }
			}
			modifier = {
				factor = 1.2
				PER = { has_country_flag = Opinion_On_Palestinian_Groups_Purge }
			}
		}
		
		available = {
			has_civil_war = no
		}
		
		bypass = {
		}
		
		cancel_if_invalid = yes
		available_if_capitulated = no
		
		complete_tooltip = {
		
		}
		
		completion_reward = {
			set_division_template_lock = { division_template = "Militia Battalion" is_locked = no }
			set_division_template_lock = { division_template = "Militia Division" is_locked = no }
			set_division_template_lock = { division_template = "Local Defence Battalion" is_locked = no }
			swap_ideas = { remove_idea = syrian_shiite add_idea = syrian_shiite_integrated }
			every_country = {
				limit = {
					has_country_flag = Opinion_On_Shiite_Groups_Purge
				}
				add_opinion_modifier = { target = SYR modifier = insult }
				if = {
					limit = { has_country_flag = SYR_Against_Our_Wishes_2 }
					clr_country_flag = SYR_Against_Our_Wishes_2
					set_country_flag = SYR_Broken_Relations
				}
				if = {
					limit = { has_country_flag = SYR_Against_Our_Wishes_1 }
					clr_country_flag = SYR_Against_Our_Wishes_1
					set_country_flag = SYR_Against_Our_Wishes_2
				}
				if = {
					limit = { 
						NOT = {
							has_country_flag = SYR_Against_Our_Wishes_2
							has_country_flag = SYR_Against_Our_Wishes_1
						}
					}
					set_country_flag = SYR_Against_Our_Wishes_1
				}
			}
			if = {
				limit = { has_idea = iranian_quds_force }
				visually_display_opinion_rise_iranian_quds_force = yes
				set_country_flag = current_iranian_quds_force
				increase_internal_faction_opinion = yes
			}
			hidden_effect = {
				set_temp_variable = { influence_gain = 20 }
				for_loop_effect = {
					end = influence_array^num
					value = v
					if = {
						limit = {
							check_variable = { influence_array^v = PER }
						}
						add_to_variable = { influence_array_val^v = influence_gain }
						set_country_flag = found
					}
				}
				if = {
					limit = { NOT = { has_country_flag = found } }
						add_to_array = { influence_array = PER.id }
						add_to_array = { influence_array_val = influence_gain }
				}
				clr_country_flag = found
				recalculate_influence = yes
			}
			custom_effect_tooltip = TT_SYR_PER_GAIN_20_INFLUENCE
		}

	}
	focus = {
		id = SYR_disarm_militias
		icon = political_pressure
		cost = 10
		prerequisite = {
			focus = SYR_expel_palestinians
			focus = SYR_integrate_palestinians
		}
		mutually_exclusive = {
			focus = SYR_formalise_shia_militias
		}
		x = -4
		y = 5
		relative_position_id = SYR_civil_war_victory
		
		ai_will_do = {
			factor = 10
			modifier = {
				factor = 1.2
				SOV = { has_country_flag = Opinion_On_Palestinian_Groups_Purge }
			}
			modifier = {
				factor = 1.2
				PER = { has_country_flag = Opinion_On_Palestinian_Groups_Purge }
			}
		}
		
		available = {
			has_civil_war = no
		}
		
		bypass = {
		}
		
		cancel_if_invalid = yes
		available_if_capitulated = no
		
		complete_tooltip = {
		
		}
		
		completion_reward = {
			delete_unit_template_and_units = { division_template = "Militia Battalion" }
			delete_unit_template_and_units = { division_template = "Militia Division" }
			delete_unit_template_and_units = { division_template = "Local Defence Battalion" }
			remove_ideas = syrian_shiite
			custom_effect_tooltip = TT_SYR_EXPEL_PALESTINIANS
			hidden_effect = {
				#1/4 of starting equipment of above units
				add_equipment_to_stockpile = {
					type = command_control_equipment
					amount = 5
					producer = SOV
				}
				add_equipment_to_stockpile = {
					type = Anti_Air_0			#Strela
					amount = 36
					producer = SOV
				}
				add_equipment_to_stockpile = {
					type = Anti_tank_1			#MILAN
					amount = 24
					producer = FRA
				}
				add_equipment_to_stockpile = {
					type = Anti_tank_0			#Malyutka
					amount = 12
					producer = SOV
				}
				add_equipment_to_stockpile = {
					type = Heavy_Anti_tank_1			#Konkurs
					amount = 8
					producer = SOV
				}
				add_equipment_to_stockpile = {
					type = Heavy_Anti_tank_1			#HOT
					amount = 6
					producer = FRA
				}
				add_equipment_to_stockpile = {
					type = SP_arty_0			#Akatsiya
					amount = 4
					producer = SOV
				}
				add_equipment_to_stockpile = {
					type = infantry_weapons			#AKM
					amount = 840
					producer = SOV
				}
				add_equipment_to_stockpile = {
					type = infantry_weapons1			#AK-74
					amount = 600
					producer = SOV
				}
				add_equipment_to_stockpile = {
					type = MBT_2			#T-72
					amount = 10
					producer = SOV
				}
				add_equipment_to_stockpile = {
					type = util_vehicle_1			#Safir
					amount = 150
					producer = PER
				}
				add_equipment_to_stockpile = {
					type = util_vehicle_1			#UAZ-469
					amount = 120
					producer = SOV
				}
			}	
			every_country = {
				limit = {
					has_country_flag = Opinion_On_Shiite_Groups_Keep
				}
				add_opinion_modifier = { target = SYR modifier = insult }
				if = {
					limit = { has_country_flag = SYR_Against_Our_Wishes_2 }
					clr_country_flag = SYR_Against_Our_Wishes_2
					set_country_flag = SYR_Broken_Relations
				}
				if = {
					limit = { has_country_flag = SYR_Against_Our_Wishes_1 }
					clr_country_flag = SYR_Against_Our_Wishes_1
					set_country_flag = SYR_Against_Our_Wishes_2
				}
				if = {
					limit = { 
						NOT = {
							has_country_flag = SYR_Against_Our_Wishes_2
							has_country_flag = SYR_Against_Our_Wishes_1
						}
					}
					set_country_flag = SYR_Against_Our_Wishes_1
				}
			}
			if = {
				limit = { has_idea = iranian_quds_force }
				visually_display_opinion_fall_iranian_quds_force = yes
				set_country_flag = current_iranian_quds_force
				decrease_internal_faction_opinion = yes
			}
			hidden_effect = {
				set_temp_variable = { influence_gain = -20 }
				for_loop_effect = {
					end = influence_array^num
					value = v
					if = {
						limit = {
							check_variable = { influence_array^v = PER }
						}
						add_to_variable = { influence_array_val^v = influence_gain }
						set_country_flag = found
					}
				}
				if = {
					limit = { NOT = { has_country_flag = found } }
						add_to_array = { influence_array = PER.id }
						add_to_array = { influence_array_val = influence_gain }
				}
				clr_country_flag = found
				recalculate_influence = yes
			}
			custom_effect_tooltip = TT_SYR_PER_LOSE_20_INFLUENCE
		}

	}
	
	focus = {
		id = SYR_ssnp_coup
		icon = strike_at_democracy1
		cost = 10
		prerequisite = {
			focus = SYR_incorporate_ssnp
		}
		prerequisite = {
			focus = SYR_formalise_shia_militias
			focus = SYR_disarm_militias
		}
		mutually_exclusive = {
			focus = SYR_russian_tool
			focus = SYR_iranian_puppet
		}
		x = -8
		y = 6
		relative_position_id = SYR_civil_war_victory
		
		ai_will_do = {
			factor = 5
		}
		
		available = {
			has_civil_war = no
			nationalist > 0.10
		}
		
		bypass = {
			has_government = nationalist
		}
		
		cancel_if_invalid = yes
		available_if_capitulated = no
		
		complete_tooltip = {
		
		}
		
		completion_reward = {
			if = {
				limit = {
					nationalist < 0.10
				}
				set_politics = {
					ruling_party = nationalist	
					elections_allowed = no
				}
				add_popularity = { ideology = nationalist popularity = 0.30 }
				random_list = {
					60 = {
						start_civil_war = {
							ideology = communism
							size = 0.5
						}
					}
					40 = {
					}
				}
			}
			if = {
				limit = {
					nationalist > 0.20
					nationalist < 0.30
				}
				set_politics = {
					ruling_party = nationalist	
					elections_allowed = no
				}
				add_popularity = { ideology = nationalist popularity = 0.30 }
				random_list = {
					40 = {
						start_civil_war = {
							ideology = communism
							size = 0.5
						}
					}
					60 = {
					}
				}
			}
			if = {
				limit = {
					nationalist > 30
				}
				set_politics = {
					ruling_party = nationalist	
					elections_allowed = no
				}
				add_popularity = { ideology = nationalist popularity = 0.30 }
			}	
			if = {
				limit = { has_idea = iranian_quds_force }
				remove_ideas = iranian_quds_force
				add_ideas = the_military
			}
			set_country_flag = SYR_Post_War_Tree_Finished
		}

	}	
	focus = {
		id = SYR_russian_tool
		icon = align_to_russia
		cost = 10
		prerequisite = {
			focus = SYR_formalise_shia_militias
			focus = SYR_disarm_militias
		}
		mutually_exclusive = {
			focus = SYR_iranian_puppet
			focus = SYR_ssnp_coup
		}
		x = -6
		y = 6
		relative_position_id = SYR_civil_war_victory
		
		ai_will_do = {
			factor = 10
		}
		
		available = {
			has_civil_war = no
			custom_trigger_tooltip = {
				tooltip = TT_SYR_BROKEN_RELATIONS_SOV
				NOT = { SOV = { has_country_flag = SYR_Broken_Relations } }
			}
			SOV = { exists = yes }
		}
		
		bypass = {
		}
		
		cancel_if_invalid = yes
		available_if_capitulated = no
		
		complete_tooltip = {
			
		}
		
		completion_reward = {
			SOV = { country_event = SyriaFocus.16 }
		}

	}
	focus = {
		id = SYR_iranian_puppet
		icon = align_to_iran
		cost = 10
		prerequisite = {
			focus = SYR_disarm_militias
			focus = SYR_formalise_shia_militias
		}
		mutually_exclusive = {
			focus = SYR_russian_tool
			focus = SYR_ssnp_coup
		}
		x = -4
		y = 6
		relative_position_id = SYR_civil_war_victory
		
		ai_will_do = {
			factor = 10
		}
		
		available = {
			has_civil_war = no
			custom_trigger_tooltip = {
				tooltip = TT_SYR_BROKEN_RELATIONS_PER
				NOT = { PER = { has_country_flag = SYR_Broken_Relations } }
			}
			PER = { exists = yes }
		}
		
		bypass = {
		}
		
		cancel_if_invalid = yes
		available_if_capitulated = no
		
		complete_tooltip = {
			
		}
		
		completion_reward = {
			PER = { country_event = SyriaFocus.16 }
		}

	}
	focus = {
		id = SYR_on_our_own
		icon = close_air_support
		cost = 10
		prerequisite = {
			focus = SYR_disarm_militias
			focus = SYR_formalise_shia_militias
		}
		mutually_exclusive = {
			focus = SYR_ssnp_coup
		}
		x = -2
		y = 6
		relative_position_id = SYR_civil_war_victory
		
		ai_will_do = {
			factor = 10
		}
		
		available = {
			has_civil_war = no
			OR = {
				custom_trigger_tooltip = {
					tooltip = TT_SYR_BROKEN_RELATIONS_BOTH
					PER = { has_country_flag = SYR_Broken_Relations }
					SOV = { has_country_flag = SYR_Broken_Relations }
				}
				custom_trigger_tooltip = {
					tooltip = TT_SYR_REQUESTS_REJECTED
					has_country_flag = SYR_Request_Rejected
				}
			}
		}
		
		bypass = {
		}
		
		cancel_if_invalid = yes
		available_if_capitulated = no
		
		complete_tooltip = {
			
		}
		
		completion_reward = {
			add_political_power = 100
			set_country_flag = SYR_Post_War_Tree_Finished
		}

	}
	
	##Free Syria Branch
	focus = {
		id = SYR_free_syria
		icon = democracy2
		cost = 10
		prerequisite = {
			focus = SYR_kurdish_question
		}
		x = 0
		y = 2
	
		relative_position_id = SYR_civil_war_victory
		
		ai_will_do = {
			factor = 10
		}
		
		available = {
			original_tag = FSA
			has_civil_war = no
		}
		
		bypass = {
		}
		
		cancel_if_invalid = yes
		available_if_capitulated = no
		
		complete_tooltip = {
		
		}
		
		completion_reward = {
			add_political_power = 100
			add_popularity = { ideology = neutrality popularity = 0.05 }
			add_popularity = { ideology = democratic popularity = 0.05 }
		}

	}
	focus = {
		id = SYR_syrian_arab_army
		icon = infantry_axis2
		cost = 10
		prerequisite = {
			focus = SYR_free_syria
		}
		x = 0
		y = 3
		relative_position_id = SYR_civil_war_victory
		
		ai_will_do = {
			factor = 10
		}
		
		available = {
			tag = FSA
			has_civil_war = no
		}
		
		bypass = {
		}
		
		cancel_if_invalid = yes
		available_if_capitulated = no
		
		complete_tooltip = {
		
		}
		
		completion_reward = {
			custom_effect_tooltip = TT_GET_EVENTS_FOCUS
		}

	}
	focus = {
		id = SYR_political_plurality
		icon = giant_wakes
		cost = 10
		prerequisite = {
			focus = SYR_syrian_arab_army
		}
		x = 0
		y = 4
		relative_position_id = SYR_civil_war_victory
		
		ai_will_do = {
			factor = 10
		}
		
		available = {
			tag = FSA
			has_civil_war = no
		}
		
		bypass = {
		}
		
		cancel_if_invalid = yes
		available_if_capitulated = no
		
		completion_reward = {
			custom_effect_tooltip = TT_GET_EVENTS_FOCUS
		}

	}	
	focus = {
		id = SYR_federal_republic_of_syria 
		icon = treaty
		cost = 10
		prerequisite = {
			focus = SYR_political_plurality
		}
		mutually_exclusive = { 
			focus = SYR_unitary_republic_of_syria
		}
		x = 1
		y = 5
		relative_position_id = SYR_civil_war_victory
		
		ai_will_do = {
			factor = 10
			modifier = {
				factor = 1.5
				has_country_flag = Promised_Federated_Syria
			}
		}
		
		available = {
			tag = FSA
			has_civil_war = no
		}
		
		bypass = {
		}
		
		cancel_if_invalid = yes
		available_if_capitulated = no
		
		completion_reward = {
			add_political_power = 200
			drop_cosmetic_tag = yes
			set_cosmetic_tag = SYR_Federal_State
			#Rojava
			if = {
				limit = { NOT = { country_exists = ROJ } }
				release_puppet = ROJ
				hidden_effect = {
					set_autonomy = {
						target = ROJ
						autonomy_state = autonomy_autonomous_state
					}
				}
			}
			#Druze State
			if = {
				limit = { NOT = { country_exists = DRU } }
				release_puppet = DRU
				hidden_effect = {
					set_autonomy = {
						target = DRU
						autonomy_state = autonomy_autonomous_state
					}
				}
			}
			#Alawite State
			if = {
				limit = { NOT = { country_exists = ALA } }
				release_puppet = ALA
				hidden_effect = {
					set_autonomy = {
						target = ALA
						autonomy_state = autonomy_autonomous_state
					}
				}
			}
			hidden_effect = { news_event = { id = SyriaFocusNews.5 hours = 6 } }
		}

	}
	focus = {
		id = SYR_unitary_republic_of_syria
		icon = neutrality
		cost = 10
		prerequisite = {
			focus = SYR_political_plurality
		}
		mutually_exclusive = { 
			focus = SYR_federal_republic_of_syria
		}
		x = -1
		y = 5
		relative_position_id = SYR_civil_war_victory
		
		ai_will_do = {
			factor = 10
		}
		
		available = {
			tag = FSA
			has_civil_war = no
		}
		
		bypass = {
		}
		
		cancel_if_invalid = yes
		available_if_capitulated = no
		
		completion_reward = {
			add_political_power = 150
			add_ideas = multi_ethnic_state_idea
			if = { 
				limit = { has_country_flag = Promised_Federated_Syria }
				custom_effect_tooltip = TT_SYR_PROMISED_FEDERATION_ROJ			
				set_country_flag = SYR_federation_promise_broken
			}
		}

	}
	focus = {
		id = SYR_elections
		icon = support_democracy
		cost = 10
		prerequisite = {
			focus = SYR_unitary_republic_of_syria
			focus = SYR_federal_republic_of_syria
		}
		x = 0
		y = 6
		relative_position_id = SYR_civil_war_victory
		
		ai_will_do = {
			factor = 10
		}
		
		available = {
			tag = FSA
			has_civil_war = no
		}
		
		bypass = {
		}
		
		cancel_if_invalid = yes
		available_if_capitulated = no
		
		completion_reward = {
			custom_effect_tooltip = TT_SYR_HOLD_ELECTIONS
			hidden_effect = {
				set_politics = { 
					ruling_party = neutrality
					elections_allowed = yes
				}
			}
			set_country_flag = SYR_Post_War_Tree_Finished
		}

	}
	
	##Tahrir Al-Sham branch
	focus = {
		id = SYR_islamic_emirate
		icon = sunni_politics
		cost = 10
		prerequisite = {
			focus = SYR_kurdish_question
		}
		x = 4
		y = 2
		relative_position_id = SYR_civil_war_victory
		
		ai_will_do = {
			factor = 10
		}
		
		available = {
			tag = NUS
			has_civil_war = no
		}
		
		bypass = {
		}
		
		cancel_if_invalid = yes
		available_if_capitulated = no
		
		completion_reward = {
			add_political_power = 100
			relative_change_pos_16 = yes
		}

	}
	focus = {
		id = SYR_tahrir_go_alone
		icon = ultimatum
		cost = 10
		prerequisite = {
			focus = SYR_islamic_emirate
		}
		mutually_exclusive = {
			focus = SYR_tahrir_show_true_colors
		}
		x = 5
		y = 3
		relative_position_id = SYR_civil_war_victory
		
		ai_will_do = {
			factor = 5
		}
		
		available = {
			tag = NUS
			has_civil_war = no
		}
		
		bypass = {
			is_in_faction = yes
		}
		
		cancel_if_invalid = yes
		available_if_capitulated = no
		
		completion_reward = {
			create_faction = Levant_Liberation_Committee
		}

	}
	focus = {
		id = SYR_tahrir_show_true_colors
		icon = dangerous_deal
		cost = 10
		prerequisite = {
			focus = SYR_islamic_emirate
		}
		mutually_exclusive = {
			focus = SYR_tahrir_go_alone
		}
		x = 3
		y = 3
		relative_position_id = SYR_civil_war_victory
		
		ai_will_do = {
			factor = 10
			modifier = {
				factor = 0
				NOT = {
					country_exists = AQY
					country_exists = SHB
					country_exists = TAL
				}
			}
		}
		
		available = {
			tag = NUS
			has_civil_war = no
		}
		
		bypass = {
			is_in_faction = yes
		}
		
		cancel_if_invalid = yes
		available_if_capitulated = no
		
		completion_reward = {
			add_ideas = al_qaeda_network
			if = {
				limit = { country_exists = AQY }
				add_opinion_modifier = {
					target = AQY
					modifier = supports_us
				}
				AQY = {
					add_opinion_modifier = {
						target = ROOT
						modifier = supports_us
					}
				}
			}	
			if = {
				limit = { country_exists = SHB }
				add_opinion_modifier = {
					target = SHB
					modifier = supports_us
				}
				SHB = {
					add_opinion_modifier = {
						target = ROOT
						modifier = supports_us
					}
				}
			}
			if = {
				limit = { country_exists = TAL }
				add_opinion_modifier = {
					target = TAL
					modifier = supports_us
				}
				TAL = {
					add_opinion_modifier = {
						target = ROOT
						modifier = supports_us
					}
				}
			}	
			if = {
				limit = { country_exists = TTP }
				add_opinion_modifier = {
					target = TTP
					modifier = supports_us
				}
				TTP = {
					add_opinion_modifier = {
						target = ROOT
						modifier = supports_us
					}
				}
			}		
		}

	}
	focus = {
		id = SYR_align_with_isis
		icon = isis_allegiance
		cost = 10
		prerequisite = {
			focus = SYR_tahrir_go_alone
		}
		mutually_exclusive = {
			focus = SYR_true_caliphate
		}
		x = 6
		y = 4
		relative_position_id = SYR_civil_war_victory
		
		ai_will_do = {
			factor = 5
		}
		
		available = {
			tag = NUS
			has_civil_war = no
			custom_trigger_tooltip = {
				tooltip = TT_SYR_BECOME_ISIS_LIMIT
				NOT = {
					any_country = {
						has_country_flag = new_ISIS
					}
				}
			}
		}
		
		bypass = {
		}
		
		cancel_if_invalid = yes
		available_if_capitulated = no
		
		completion_reward = {
			set_cosmetic_tag = ISI
			custom_effect_tooltip = TT_SYR_BECOME_ISIS
			hidden_effect = { load_focus_tree = focus }
		}

	}
	focus = {
		id = SYR_true_caliphate
		icon = demand_territory
		cost = 10
		prerequisite = {
			focus = SYR_tahrir_show_true_colors
			focus = SYR_tahrir_go_alone
		}
		mutually_exclusive = {
			focus = SYR_align_with_isis
		}
		x = 4
		y = 4
		relative_position_id = SYR_civil_war_victory
		
		ai_will_do = {
			factor = 10
		}
		
		available = {
			tag = NUS
			has_civil_war = no
		}
		
		bypass = {
		}
		
		cancel_if_invalid = yes
		available_if_capitulated = no
		
		completion_reward = {
			add_ideas = true_caliphate
		}

	}
	focus = {
		id = SYR_global_recruitment
		icon = conscription
		cost = 10
		prerequisite = {
			focus = SYR_true_caliphate
		}
		x = 4
		y = 5
		relative_position_id = SYR_civil_war_victory
		
		ai_will_do = {
			factor = 10
		}
		
		available = {
			tag = NUS
			has_civil_war = no
		}
		
		bypass = {
		}
		
		cancel_if_invalid = yes
		available_if_capitulated = no
		
		completion_reward = {
			add_ideas = global_salafist_recruitment
		}

	}
	focus = {
		id = SYR_campaign_of_terror
		icon = secret_weapons
		cost = 10
		prerequisite = {
			focus = SYR_global_recruitment
		}
		x = 4
		y = 6
		relative_position_id = SYR_civil_war_victory
		
		ai_will_do = {
			factor = 10
		}
		
		available = {
			tag = NUS
			has_civil_war = no
		}
		
		bypass = {
		}
		
		cancel_if_invalid = yes
		available_if_capitulated = no
		
		completion_reward = {
			add_named_threat = {
				threat = 10
				name = SYR.Campaign_of_terror
			}
			custom_effect_tooltip = TT_SYR_GENOCIDE
			#Druze
			185 = { add_manpower = -7700 }
			hidden_effect = { 185 = { remove_core_of = DRU } }
			184 = { add_manpower = -5400 }
			hidden_effect = { 184 = { remove_core_of = DRU } }
			if = {
				limit = { owns_state = 587 }
				587 = { add_manpower = -450 }
				hidden_effect = { 587 = { remove_core_of = DRU } }
			}
			#Alawites
			189 = { add_manpower = -35000 }
			hidden_effect = { 189 = { remove_core_of = ALA } }
			if = {
				limit = { owns_state = 158 }
				158 = { add_manpower = -15800 }
				hidden_effect = { 158 = { remove_core_of = ALA } }
			}
			#Rojava
			575 = { add_manpower = -7900 }
			hidden_effect = { 575 = { remove_core_of = ROJ } }
			571 = { add_manpower = -6500 }
			hidden_effect = { 571 = { remove_core_of = ROJ } }
			193 = { add_manpower = -19500 }
			hidden_effect = { 193 = { remove_core_of = ROJ } }
			set_country_flag = SYR_Post_War_Tree_Finished
		}

	}
	
	##Diplomatic Branch
	focus = {
		id = SYR_concentrate_on_lebanon
		icon = intelligence_exchange
		cost = 10
		x = 20
		y = 1
		
		ai_will_do = {
			factor = 10
		}
		
		available = {
			custom_trigger_tooltip = {
				tooltip = TT_SYR_POST_WAR_FINISHED
				has_country_flag = SYR_Post_War_Tree_Finished
			}
		}
		
		bypass = {
		}
		
		cancel_if_invalid = yes
		available_if_capitulated = no
		
		completion_reward = {
			add_political_power = 100
			hidden_effect = {
				activate_targeted_decision = { target = LEB decision = SYR_support_baathism }
				activate_targeted_decision = { target = HEZ decision = SYR_support_baathism }
				activate_targeted_decision = { target = LEB decision = SYR_support_western_ideals }
				activate_targeted_decision = { target = HEZ decision = SYR_support_western_ideals }
				activate_targeted_decision = { target = LEB decision = SYR_support_salafism }
				activate_targeted_decision = { target = HEZ decision = SYR_support_salafism }
				activate_targeted_decision = { target = LEB decision = SYR_support_muslim_brotherhood }
				activate_targeted_decision = { target = HEZ decision = SYR_support_muslim_brotherhood }
				activate_targeted_decision = { target = LEB decision = SYR_support_ssnp }
				activate_targeted_decision = { target = HEZ decision = SYR_support_ssnp }
			}
		}		

	}
	###Anti-Hezbollah branch
	focus = {
		id = SYR_against_hezbollah
		icon = anti_communism
		cost = 10
		prerequisite = {
			focus = SYR_concentrate_on_lebanon
		}
		mutually_exclusive = {
			focus = SYR_support_hezbollah
		}
		x = -1
		y = 1
		relative_position_id = SYR_concentrate_on_lebanon
		
		ai_will_do = {
			factor = 2
			modifier = {
				factor = 0
				is_subject_of = PER
			}
			modifier = {
				factor = 5
				OR = {
					original_tag = FSA
					original_tag = NUS
					NOT = { has_government = communism }
				}
			}
		}
		
		available = {
			country_exists = HEZ
			NOT = { HEZ = { is_subject_of = ROOT } }
		}
		
		bypass = {
		}
		
		cancel_if_invalid = yes
		available_if_capitulated = no
		
		completion_reward = {
			custom_effect_tooltip = TT_SYR_HEZ_DIPLOMACY
			if = {
				limit = { has_idea = iranian_quds_force }
				visually_display_opinion_fall_iranian_quds_force = yes
				set_country_flag = current_iranian_quds_force
				decrease_internal_faction_opinion = yes
			} 
		}

	}
	focus = {
		id = SYR_lebanese_support
		icon = volunteer_alliance #Kaiserreich
		cost = 10
		prerequisite = {
			focus = SYR_against_hezbollah
		}
		x = -2
		y = 2
		relative_position_id = SYR_concentrate_on_lebanon
		
		ai_will_do = {
			factor = 10
		}
		
		available = {
			country_exists = LEB
		}
		
		bypass = {
			OR = {
				LEB = { is_subject_of = ROOT }
				LEB = { is_in_faction_with = ROOT }
				has_completed_focus = SYR_strike_hezbollah
			}
		}
		
		cancel_if_invalid = yes
		available_if_capitulated = no
		
		completion_reward = {
			LEB = { country_event = { id = SyriaFocus.27 hours = 6 } }
		}

	}
	focus = {
		id = SYR_strike_hezbollah
		icon = backstab #kaiserreich 
		cost = 10
		prerequisite = {
			focus = SYR_against_hezbollah
			focus = SYR_lebanese_support
		}
		x = -1
		y = 3
		relative_position_id = SYR_concentrate_on_lebanon
		
		ai_will_do = {
			factor = 10
			modifier = {
				factor = 0
				any_neighbor_country = {
					has_war_with = ROOT
				}
			}
		}
		
		available = {
			country_exists = HEZ
			HEZ = { NOT = { is_subject_of = ROOT } }
		}
		
		bypass = {
			NOT = { country_exists = HEZ }
			HEZ = { is_subject_of = ROOT }
		}
		
		will_lead_to_war_with = HEZ
		
		cancel_if_invalid = yes
		available_if_capitulated = no
		
		completion_reward = {
			declare_war_on = {
				target = HEZ
				type = annex_everything
			}
			if = {
				limit = { LEB = { has_country_flag = LEB_agreed_to_help_SYR } }
				LEB = {
					add_to_war = {
						targeted_alliance = SYR
						enemy = HEZ
					}
				}
				else = {
					every_state = {
						limit = { is_controlled_by = HEZ }
						add_claim_by = ROOT
					}
				}
			}
		}

	}
	focus = {
		id = SYR_shadow_over_lebanon
		icon = become_puppet
		cost = 10
		prerequisite = {
			focus = SYR_strike_hezbollah
		}
		x = -1
		y = 4
		relative_position_id = SYR_concentrate_on_lebanon
		
		ai_will_do = {
			factor = 10
		}
		
		available = {
			country_exists = LEB
			LEB = { NOT = { is_subject_of = ROOT } }
			HEZ = { exists = no }
		}
		
		bypass = {
			LEB = { is_subject_of = ROOT }
		}
		
		cancel_if_invalid = yes
		available_if_capitulated = no
		
		completion_reward = {
			LEB = { country_event = { id = SyriaFocus.30 days = 3 } }
		}

	}
	###Pro-Hezbollah branch
	focus = {
		id = SYR_support_hezbollah
		icon = small_arms
		cost = 10
		prerequisite = {
			focus = SYR_concentrate_on_lebanon
		}
		mutually_exclusive = {
			focus = SYR_against_hezbollah
		}
		x = 1
		y = 1
		relative_position_id = SYR_concentrate_on_lebanon
		
		ai_will_do = {
			factor = 10
			modifier = {
				factor = 0.2
				OR = {
					original_tag = FSA
					original_tag = NUS
					NOT = { has_government = communism }
				}
			}
			modifier = {
				factor = 0
				has_government = fascism
			}
		}
		
		available = {
			country_exists = HEZ
		}
		
		bypass = {
			HEZ = { is_subject_of = ROOT }
		}
		
		cancel_if_invalid = yes
		available_if_capitulated = no
		
		completion_reward = {
			HEZ = {
				add_opinion_modifier = {
					target = FROM
					modifier = supports_us
				}
			}
		}

	}
	focus = {
		id = SYR_prepare_lebanon_coup #Infiltrate Lebanon
		icon = combined_arms
		cost = 10
		prerequisite = {
			focus = SYR_support_hezbollah
		}
		x = 1
		y = 2
		relative_position_id = SYR_concentrate_on_lebanon

		ai_will_do = {
			factor = 10
		}
		
		available = {
			country_exists = LEB
		}
		
		bypass = {
			LEB = { is_subject_of = ROOT }
		}
		
		cancel_if_invalid = yes
		available_if_capitulated = no
		
		completion_reward = {
			LEB = { 
				add_timed_idea = {
					idea = minor_emerging_influence
					days = 360
				} 
			}
		}
		
	}
	focus = {
		id = SYR_lebanese_coup
		icon = aggressive_diplomacy
		cost = 10
		prerequisite = {
			focus = SYR_prepare_lebanon_coup
		}
		x = 1
		y = 3
		relative_position_id = SYR_concentrate_on_lebanon
		
		ai_will_do = {
			factor = 10
		}
		
		available = {
			country_exists = LEB
			LEB = {
				communism > 0.20
			}
		}
		
		bypass = {
			OR = {
				LEB = { is_subject_of = ROOT }
				LEB = { has_government = communism }
			}
		}
		
		cancel_if_invalid = yes
		available_if_capitulated = no
		
		completion_reward = {
			if = {
				limit = { 
					LEB = { communism < 0.3 } 
				}
				random_list = {
					40 = {
						country_event = SyriaFocus.33
					}
					60 = {
						country_event = SyriaFocus.34
					}
				}
			}
			if = {
				limit = {
					LEB = {
						AND = {
							communism > 0.3
							communism < 0.4
						}
					}
				}
				random_list = {
					60 = {
						country_event = SyriaFocus.33
					}
					40 = {
						country_event = SyriaFocus.34
					}
				}
			}
			if = {
				limit = {
					LEB = {
						AND = {
							communism > 0.4
							communism < 0.5
						}
					}
				}
				random_list = {
					80 = {
						country_event = SyriaFocus.33
					}
					20 = {
						country_event = SyriaFocus.34
					}
				}
			}
			if = {
				limit = {
					LEB = {	communism > 0.5 }
				}
				country_event = SyriaFocus.33
			}
		}

	}
	focus = {
		id = SYR_shadow_over_hezbollah
		icon = gunpoint_diplomacy
		cost = 10
		prerequisite = {
			focus = SYR_lebanese_coup
		}
		x = 1
		y = 4
		relative_position_id = SYR_concentrate_on_lebanon

		ai_will_do = {
			factor = 10
		}
		
		available = {
			country_exists = HEZ
			NOT = { is_subject_of = PER }
			HEZ = { is_subject = no }
			LEB = { exists = no }
		}
		
		cancel_if_invalid = yes
		available_if_capitulated = no
		
		completion_reward = {
			HEZ = { country_event = { id = SyriaFocus.35 days = 3 } }
			PER = {
				add_opinion_modifier = {
					target = FROM
					modifier = reduced_our_influence
				}
			}
			set_country_flag = Insulted_Iran
		}
	
	}
	#Diplomacy towards South
	# focus = {
		# id = SYR_jordan_diplomacy
		# icon = jihad
		# cost = 10
		# prerequisite = {
			# focus = SYR_concentrate_on_lebanon
		# }
		# x = 0
		# y = 1
		# relative_position_id = SYR_concentrate_on_lebanon
		
		# ai_will_do = {
			# factor = 10
		# }
		
		# available = {
			# country_exists = JOR
		# }
		
		# bypass = {
			# NOT = { country_exists = JOR }
		# }
		
		# cancel_if_invalid = yes
		# available_if_capitulated = no
		
		# completion_reward = {
			# custom_effect_tooltip = TT_SYR_JOR_DIPLOMACY
			# hidden_effect = {
				# activate_targeted_decision = { target = JOR decision = SYR_support_baathism }
				# activate_targeted_decision = { target = JOR decision = SYR_support_western_ideals }
				# activate_targeted_decision = { target = JOR decision = SYR_support_salafism }
				# activate_targeted_decision = { target = JOR decision = SYR_support_muslim_brotherhood }
				# activate_targeted_decision = { target = JOR decision = SYR_support_ssnp }
				# activate_targeted_decision = { target = SAU decision = SYR_support_baathism }
				# activate_targeted_decision = { target = SAU decision = SYR_support_western_ideals }
				# activate_targeted_decision = { target = SAU decision = SYR_support_salafism }
				# activate_targeted_decision = { target = SAU decision = SYR_support_muslim_brotherhood }
				# activate_targeted_decision = { target = SAU decision = SYR_support_ssnp }
			# }
		# }

	# }
	# focus = {
		# id = SYR_golan_question_renounce
		# icon = forceful_treaty
		# cost = 10
		# prerequisite = {
			# focus = SYR_jordan_diplomacy
		# }
		# mutually_exclusive = {
			# focus = SYR_golan_question_claim
		# }
		# x = -1
		# y = 2
		# relative_position_id = SYR_concentrate_on_lebanon
		
		# ai_will_do = {
			# factor = 10
		# }
		
		# available = {
			# ISR = { owns_state = 587 }
		# }
		
		# bypass = {
			# OR = {
				# ISR = { not = { owns_state = 587 } }
				# AND = {
					# NOT = { 587 = { is_claimed_by = ROOT } }
					# NOT = { 587 = { is_core_of = ROOT } }
				# }
			# }
		# }
		
		# cancel_if_invalid = yes
		# available_if_capitulated = no
		
		# completion_reward = {
			# remove_state_claim = 587
			# remove_state_core = 587
			# relative_change_neg_10 = yes
			# set_country_flag = Relinquished_Golan
			# hidden_effect = {
				# news_event = { id = SyriaFocusNews.10 hours = 6 }
			# }
		# }

	# }
	# focus = {
		# id = SYR_golan_question_claim
		# icon = lion
		# cost = 10
		# prerequisite = {
			# focus = SYR_jordan_diplomacy
		# }
		# mutually_exclusive = {
			# focus = SYR_golan_question_renounce
		# }
		# x = 1
		# y = 2
		# relative_position_id = SYR_concentrate_on_lebanon
		
		# ai_will_do = {
			# factor = 10
		# }
		
		# available = {
			# ISR = { owns_state = 587 }
		# }
		
		# bypass = {
			# ISR = { not = { owns_state = 587 } }
		# }
		
		# cancel_if_invalid = yes
		# available_if_capitulated = no
		
		# completion_reward = {
			# add_state_core = 587
			# clr_country_flag = Relinquished_Golan
			# ISR = { country_event = { id = SyriaFocus.38 hours = 3 } }
		# }

	# }
	focus = {
		id = SYR_reform_navy
		icon = army_doctrine
		cost = 10
		x = 16
		y = 12
		
		ai_will_do = {
			factor = 100
		}
		
		available = {
			always = no
		}
		
		bypass = {
			
		}
		
		cancel_if_invalid = yes
		available_if_capitulated = no
		
		complete_tooltip = {
		
		}
		
		completion_reward = {
		
		}

	}
	focus = {
		id = SYR_reinforce_airforce
		icon = modern_fighter
		cost = 10
		x = 26
		y = 10
		
		ai_will_do = {
			factor = 100
		}
		
		available = {
			always = no
		}
		
		bypass = {
			
		}
		
		cancel_if_invalid = yes
		available_if_capitulated = no
		
		complete_tooltip = {
		
		}
		
		completion_reward = {
		
		}

	}
	focus = {
		id = SYR_restructure_military
		icon = artillery2
		cost = 10
		x = 16
		y = 8
		
		ai_will_do = {
			factor = 100
		}
		
		available = {
			always = no
		}
		
		bypass = {
			
		}
		
		cancel_if_invalid = yes
		available_if_capitulated = no
		
		complete_tooltip = {
		
		}
		
		completion_reward = {
		
		}

	}
	focus = {
		id = SYR_rebuild_economy
		icon = agriculture
		cost = 10
		x = 39
		y = 6
		
		ai_will_do = {
			factor = 100
		}
		
		available = {
			always = no
		}
		
		bypass = {
			
		}
		
		cancel_if_invalid = yes
		available_if_capitulated = no
		
		complete_tooltip = {
		
		}
		
		completion_reward = {
		
		}

	}
	# focus = {
		# id = SYR_iraq_diplomacy
		# icon = diplomacy
		# cost = 10
		# prerequisite = {
			# focus = SYR_concentrate_on_lebanon
		# }
		# x = 3
		# y = 1
		# relative_position_id = SYR_concentrate_on_lebanon

	# }
	# focus = {
		# id = SYR_iran_dues
		# icon = iran_guard
		# cost = 10
		# prerequisite = {
			# focus = SYR_iraq_diplomacy
		# }
		# x = 3
		# y = 2
		# relative_position_id = SYR_concentrate_on_lebanon

	# }
	# focus = {
		# id = SYR_hatay_question
		# icon = position_armies
		# cost = 10
		# prerequisite = {
			# focus = SYR_concentrate_on_lebanon
		# }
		# x = 5
		# y = 1
		# relative_position_id = SYR_concentrate_on_lebanon

	# }
	focus = {
		id = SYR_national_oil_production
		icon = oil_production
		cost = 10
		prerequisite = {
			focus = SYR_rebuild_economy
		}
		mutually_exclusive = {
			focus = SYR_foreign_oil_fields
		}
		x = 5
		y = 1
		relative_position_id = SYR_rebuild_economy

	}
	focus = {
		id = SYR_foreign_oil_fields
		icon = oil_trade
		cost = 10
		prerequisite = {
			focus = SYR_rebuild_economy
		}
		mutually_exclusive = {
			focus = SYR_national_oil_production
		}
		x = 3
		y = 1
		relative_position_id = SYR_rebuild_economy

	}
	focus = {
		id = SYR_national_phosphate_expansion
		icon = production2
		cost = 10
		prerequisite = {
			focus = SYR_foreign_oil_fields
			focus = SYR_national_oil_production
		}
		mutually_exclusive = {
			focus = SYR_foreign_phosphate_expansion
		}
		x = 5
		y = 2
		relative_position_id = SYR_rebuild_economy

	}
	# focus = {
		# id = SYR_stance_west
		# icon = align_to_united_nations
		# cost = 10
		# prerequisite = {
			# focus = SYR_concentrate_on_lebanon
		# }
		# x = 8
		# y = 1
		# relative_position_id = SYR_concentrate_on_lebanon

	# }
	# focus = {
		# id = SYR_development_USA
		# icon = mission_to_the_us
		# cost = 10
		# prerequisite = {
			# focus = SYR_stance_west
		# }
		# x = 7
		# y = 2
		# relative_position_id = SYR_concentrate_on_lebanon

	# }
	focus = {
		id = SYR_rebuild_schools
		icon = consumer_goods
		cost = 10
		prerequisite = {
			focus = SYR_rebuild_economy
		}
		x = 7
		y = 1
		relative_position_id = SYR_rebuild_economy

	}
	focus = {
		id = SYR_education_reform
		icon = research
		cost = 10
		prerequisite = {
			focus = SYR_rebuild_schools
		}
		x = 7
		y = 2
		relative_position_id = SYR_rebuild_economy

	}
	# focus = {
		# id = SYR_development_germany
		# icon = german_confederation
		# cost = 10
		# prerequisite = {
			# focus = SYR_stance_west
		# }
		# x = 8
		# y = 3
		# relative_position_id = SYR_concentrate_on_lebanon

	# }
	# focus = {
		# id = SYR_development_UK
		# icon = british_nationalism
		# cost = 10
		# prerequisite = {
			# focus = SYR_stance_west
		# }
		# x = 9
		# y = 2
		# relative_position_id = SYR_concentrate_on_lebanon

	# }
	focus = {
		id = SYR_rebuild_hospitals
		icon = construction
		cost = 10
		prerequisite = {
			focus = SYR_rebuild_economy
		}
		x = 9
		y = 1
		relative_position_id = SYR_rebuild_economy

	}
	focus = {
		id = SYR_housing_projects
		icon = sustainable_development
		cost = 10
		prerequisite = {
			focus = SYR_rebuild_hospitals
		}
		x = 9
		y = 2
		relative_position_id = SYR_rebuild_economy

	}
	focus = {
		id = SYR_refugee_incentives
		icon = construction3
		cost = 10
		prerequisite = {
			focus = SYR_housing_projects
		}
		x = 9
		y = 3
		relative_position_id = SYR_rebuild_economy

	}
	# focus = {
		# id = SYR_two_state_solution
		# icon = union_negotiations
		# cost = 10
		# prerequisite = {
			# focus = SYR_golan_question_renounce
		# }
		# mutually_exclusive = {
			# focus = SYR_support_palestine
		# }
		# x = -2
		# y = 3
		# relative_position_id = SYR_concentrate_on_lebanon

	# }
	# focus = {
		# id = SYR_support_palestine
		# icon = major_alliance
		# cost = 10
		# prerequisite = {
			# focus = SYR_golan_question_renounce
		# }
		# mutually_exclusive = {
			# focus = SYR_two_state_solution
		# }
		# x = 0
		# y = 3
		# relative_position_id = SYR_concentrate_on_lebanon

	# }
	# focus = {
		# id = SYR_russia_dues
		# icon = tsarist_russia
		# cost = 10
		# prerequisite = {
			# focus = SYR_hatay_question
		# }
		# x = 5
		# y = 2
		# relative_position_id = SYR_concentrate_on_lebanon

	# }
	focus = {
		id = SYR_2nd_agrarian_reform
		icon = agriculture2 #Kaiserreich icon
		cost = 10
		prerequisite = {
			focus = SYR_rebuild_economy
		}
		x = 0
		y = 1
		relative_position_id = SYR_rebuild_economy

	}
	focus = {
		id = SYR_loan_money_iran
		icon = iran_resistence_economy
		cost = 10
		prerequisite = {
			focus = SYR_rebuild_economy
		}
		mutually_exclusive = {
			focus = SYR_loan_money_saudi
		}
		x = -5
		y = 1
		relative_position_id = SYR_rebuild_economy

	}
	focus = {
		id = SYR_loan_money_russia
		icon = russian_ruble
		cost = 10
		prerequisite = {
			focus = SYR_loan_money_iran
			focus = SYR_loan_money_saudi
		}
		mutually_exclusive = {
			focus = SYR_loan_money_eu
		}
		x = -5
		y = 2
		relative_position_id = SYR_rebuild_economy

	}
	focus = {
		id = SYR_loan_money_china
		icon = align_to_china
		cost = 10
		prerequisite = {
			focus = SYR_loan_money_russia
			focus = SYR_loan_money_eu
		}
		mutually_exclusive = {
			focus = SYR_loan_money_us
		}
		x = -5
		y = 3
		relative_position_id = SYR_rebuild_economy

	}
	focus = {
		id = SYR_loan_money_us
		icon = align_to_america
		cost = 10
		prerequisite = {
			focus = SYR_loan_money_eu
			focus = SYR_loan_money_russia
		}
		mutually_exclusive = {
			focus = SYR_loan_money_china
		}
		x = -3
		y = 3
		relative_position_id = SYR_rebuild_economy

	}
	focus = {
		id = SYR_loan_money_eu
		icon = euro
		cost = 10
		prerequisite = {
			focus = SYR_loan_money_iran
			focus = SYR_loan_money_saudi
		}
		mutually_exclusive = {
			focus = SYR_loan_money_russia
		}
		x = -3
		y = 2
		relative_position_id = SYR_rebuild_economy

	}
	focus = {
		id = SYR_loan_money_saudi
		icon = align_to_saudi_arabia
		cost = 10
		prerequisite = {
			focus = SYR_rebuild_economy
		}
		mutually_exclusive = {
			focus = SYR_loan_money_iran
		}
		x = -3
		y = 1
		relative_position_id = SYR_rebuild_economy

	}
	focus = {
		id = SYR_foreign_phosphate_expansion
		icon = improve_relations_green
		cost = 10
		prerequisite = {
			focus = SYR_foreign_oil_fields
			focus = SYR_national_oil_production
		}
		mutually_exclusive = {
			focus = SYR_national_phosphate_expansion
		}
		x = 3
		y = 2
		relative_position_id = SYR_rebuild_economy

	}
	focus = {
		id = SYR_foreign_weapon_deal
		icon = combined_arms
		cost = 10
		prerequisite = {
			focus = SYR_restructure_military
		}
		x = -3
		y = 1
		relative_position_id = SYR_restructure_military

	}
	focus = {
		id = SYR_purge_military
		icon = recruitment
		cost = 10
		prerequisite = {
			focus = SYR_restructure_military
		}
		x = 0
		y = 1
		relative_position_id = SYR_restructure_military

	}
	focus = {
		id = SYR_new_officer_corps
		icon = military_mission
		cost = 10
		prerequisite = {
			focus = SYR_purge_military
		}
		x = 0
		y = 2
		relative_position_id = SYR_restructure_military

	}
	focus = {
		id = SYR_anti_guerilla_army
		icon = infiltration
		cost = 10
		prerequisite = {
			focus = SYR_restructure_military
		}
		mutually_exclusive = {
			focus = SYR_large_scale_army
		}
		x = 2
		y = 1
		relative_position_id = SYR_restructure_military

	}
	focus = {
		id = SYR_large_scale_army
		icon = tanks4
		cost = 10
		prerequisite = {
			focus = SYR_restructure_military
		}
		mutually_exclusive = {
			focus = SYR_anti_guerilla_army
		}
		x = 4
		y = 1
		relative_position_id = SYR_restructure_military

	}
	focus = {
		id = SYR_conscription
		icon = conscription
		cost = 10
		prerequisite = {
			focus = SYR_anti_guerilla_army
			focus = SYR_large_scale_army
		}
		x = 3
		y = 2
		relative_position_id = SYR_restructure_military

	}
	focus = {
		id = SYR_loyal_elite
		icon = army_reform
		cost = 10
		prerequisite = {
			focus = SYR_conscription
		}
		mutually_exclusive = {
			focus = SYR_people_army
		}
		x = 2
		y = 3
		relative_position_id = SYR_restructure_military

	}
	focus = {
		id = SYR_people_army
		icon = military_academy
		cost = 10
		prerequisite = {
			focus = SYR_conscription
		}
		mutually_exclusive = {
			focus = SYR_loyal_elite
		}
		x = 4
		y = 3
		relative_position_id = SYR_restructure_military

	}
	focus = {
		id = SYR_tartus_base
		icon = navy
		cost = 10
		prerequisite = {
			focus = SYR_reform_navy
		}
		x = -2
		y = 1
		relative_position_id = SYR_reform_navy

	}
	focus = {
		id = SYR_tartus_dockyards
		icon = war_against_russia
		cost = 10
		prerequisite = {
			focus = SYR_tartus_base
		}
		x = -2
		y = 2
		relative_position_id = SYR_reform_navy

	}
	focus = {
		id = SYR_submarines
		icon = submarines
		cost = 10
		prerequisite = {
			focus = SYR_reform_navy
		}
		mutually_exclusive = {
			focus = SYR_surface_fleet
		}
		x = 0
		y = 1
		relative_position_id = SYR_reform_navy

	}
	focus = {
		id = SYR_surface_fleet
		icon = battleships2
		cost = 10
		prerequisite = {
			focus = SYR_reform_navy
		}
		mutually_exclusive = {
			focus = SYR_submarines
		}
		x = 2
		y = 1
		relative_position_id = SYR_reform_navy

	}
	focus = {
		id = SYR_new_naval_generation
		icon = navy3
		cost = 10
		prerequisite = {
			focus = SYR_submarines
			focus = SYR_surface_fleet
		}
		x = 1
		y = 2
		relative_position_id = SYR_reform_navy

	}
	focus = {
		id = SYR_domestic_ship_production
		icon = naval_dockyard
		cost = 10
		prerequisite = {
			focus = SYR_tartus_dockyards
		}
		mutually_exclusive = {
			focus = SYR_russian_naval_school
		}
		x = -3
		y = 3
		relative_position_id = SYR_reform_navy

	}
	focus = {
		id = SYR_russian_naval_school
		icon = align_to_russia2
		cost = 10
		prerequisite = {
			focus = SYR_tartus_dockyards
		}
		mutually_exclusive = {
			focus = SYR_domestic_ship_production
		}
		x = -1
		y = 3
		relative_position_id = SYR_reform_navy

	}
	focus = {
		id = SYR_arms_factories
		icon = industry_military
		cost = 10
		prerequisite = {
			focus = SYR_foreign_weapon_deal
		}
		x = -3
		y = 2
		relative_position_id = SYR_restructure_military

	}
	focus = {
		id = SYR_domestic_research
		icon = research2
		cost = 10
		prerequisite = {
			focus = SYR_arms_factories
		}
		mutually_exclusive = {
			focus = SYR_iranian_military_cooperation
		}
		x = -4
		y = 3
		relative_position_id = SYR_restructure_military

	}
	focus = {
		id = SYR_iranian_military_cooperation
		icon = iran_emblem
		cost = 10
		prerequisite = {
			focus = SYR_arms_factories
		}
		mutually_exclusive = {
			focus = SYR_domestic_research
		}
		x = -2
		y = 3
		relative_position_id = SYR_restructure_military

	}
	focus = {
		id = SYR_iranian_aircraft
		icon = bombs
		cost = 10
		prerequisite = {
			focus = SYR_reinforce_airforce
		}
		mutually_exclusive = {
			focus = SYR_western_procurement
			focus = SYR_russian_procurement
			focus = SYR_asian_procurement
		}
		x = -3
		y = 1
		relative_position_id = SYR_reinforce_airforce

	}
	focus = {
		id = SYR_russian_procurement
		icon = bombs2
		cost = 10
		prerequisite = {
			focus = SYR_reinforce_airforce
		}
		mutually_exclusive = {
			focus = SYR_western_procurement
			focus = SYR_iranian_aircraft
			focus = SYR_asian_procurement
		}
		x = -1
		y = 1
		relative_position_id = SYR_reinforce_airforce

	}
	focus = {
		id = SYR_asian_procurement
		icon = naval_bombers
		cost = 10
		prerequisite = {
			focus = SYR_reinforce_airforce
		}
		mutually_exclusive = {
			focus = SYR_western_procurement
			focus = SYR_russian_procurement
			focus = SYR_iranian_aircraft
		}
		x = 1
		y = 1
		relative_position_id = SYR_reinforce_airforce

	}
	focus = {
		id = SYR_western_procurement
		icon = air_defense
		cost = 10
		prerequisite = {
			focus = SYR_reinforce_airforce
		}
		mutually_exclusive = {
			focus = SYR_asian_procurement
			focus = SYR_russian_procurement
			focus = SYR_iranian_aircraft
		}
		x = 3
		y = 1
		relative_position_id = SYR_reinforce_airforce

	}
	focus = {
		id = SYR_aerial_training
		icon = flying_tigers
		cost = 10
		prerequisite = {
			focus = SYR_iranian_aircraft
			focus = SYR_russian_procurement
			focus = SYR_asian_procurement
			focus = SYR_western_procurement
		}
		x = 0
		y = 2
		relative_position_id = SYR_reinforce_airforce

	}
	focus = {
		id = SYR_telecom
		icon = radar
		cost = 10
		prerequisite = {
			focus = SYR_2nd_agrarian_reform
		}
		x = 0
		y = 2
		relative_position_id = SYR_rebuild_economy

	}
	focus = {
		id = SYR_electronic_army
		icon = cryptologic_bomb
		cost = 10
		prerequisite = {
			focus = SYR_domestic_research
			focus = SYR_iranian_military_cooperation
		}
		x = -3
		y = 4
		relative_position_id = SYR_restructure_military

	}
	focus = {
		id = SYR_increase_nationalisation
		icon = giant_wakes
		cost = 10
		prerequisite = {
			focus = SYR_telecom
		}
		mutually_exclusive = {
			focus = SYR_increase_economic_freedom
		}
		x = -1
		y = 3
		relative_position_id = SYR_rebuild_economy

	}
	focus = {
		id = SYR_increase_economic_freedom
		icon = industry_civilian
		cost = 10
		prerequisite = {
			focus = SYR_telecom
		}
		mutually_exclusive = {
			focus = SYR_increase_nationalisation
		}
		x = 1
		y = 3
		relative_position_id = SYR_rebuild_economy

	}
	focus = {
		id = SYR_free_trade_partner
		icon = trade
		cost = 10
		prerequisite = {
			focus = SYR_foreign_phosphate_expansion
			focus = SYR_national_phosphate_expansion
		}
		x = 4
		y = 3
		relative_position_id = SYR_rebuild_economy

	}
	focus = {
		id = SYR_invest_in_financial
		icon = consumer_goods
		cost = 10
		prerequisite = {
			focus = SYR_increase_nationalisation
			focus = SYR_increase_economic_freedom
		}
		x = -1
		y = 4
		relative_position_id = SYR_rebuild_economy

	}
	focus = {
		id = SYR_invest_heavy_industry
		icon = construction2
		cost = 10
		prerequisite = {
			focus = SYR_increase_nationalisation
			focus = SYR_increase_economic_freedom
		}
		x = 1
		y = 4
		relative_position_id = SYR_rebuild_economy

	}
	focus = {
		id = SYR_invigorate_tourism
		icon = propaganda
		cost = 10
		prerequisite = {
			focus = SYR_cooperate_syrair
		}
		prerequisite = {
			focus = SYR_invest_in_financial
		}
		x = 11
		y = 2
		relative_position_id = SYR_reinforce_airforce

	}
	focus = {
		id = SYR_cooperate_syrair
		icon = bombers
		cost = 10
		prerequisite = {
			focus = SYR_reinforce_airforce
		}
		x = 5
		y = 1
		relative_position_id = SYR_reinforce_airforce

	}
	focus = {
		id = SYR_syrian_railways
		icon = construct_infrastructure
		cost = 10
		prerequisite = {
			focus = SYR_invest_heavy_industry
		}
		x = 1
		y = 5
		relative_position_id = SYR_rebuild_economy

	}
	focus = {
		id = SYR_renegotiate_loans
		icon = molotov_ribbentrop_pact
		cost = 10
		prerequisite = {
			focus = SYR_invest_in_financial
		}
		prerequisite = {
			focus = SYR_loan_money_china
		}
		prerequisite = {
			focus = SYR_loan_money_us
		}
		x = -4
		y = 5
		relative_position_id = SYR_rebuild_economy

	}
	focus = {
		id = SYR_fly_damas
		icon = escort_fighters
		cost = 10
		prerequisite = {
			focus = SYR_cooperate_syrair
		}
		x = 4
		y = 2
		relative_position_id = SYR_reinforce_airforce

	}
	focus = {
		id = SYR_syrian_pearl
		icon = fighters2
		cost = 10
		prerequisite = {
			focus = SYR_cooperate_syrair
		}
		x = 6
		y = 2
		relative_position_id = SYR_reinforce_airforce

	}
	focus = {
		id = SYR_new_universities
		icon = tech_sharing
		cost = 10
		prerequisite = {
			focus = SYR_education_reform
		}
		x = 7
		y = 3
		relative_position_id = SYR_rebuild_economy

	}
}