﻿add_namespace = britain_news

#Britain returns the Falklands
news_event = {
	id = britain_news.1
	title = britain_news.1.t
	desc = britain_news.1.d
	picture = GFX_argentinian_flag
	
	is_triggered_only = yes
	major = yes
	
	option = {
		name = britain_news.1.o1
		log = "[GetDateText]: [This.GetName]: britain_news.1.o1 executed"
	}
}

#Britain goes with Europe
news_event = {
	id = britain_news.55
	title = britain_news.55.t
	desc = britain_news.55.d
	picture = GFX_eu
	
	is_triggered_only = yes
	
	option = {
		name = britain_news.55.o1
		log = "[GetDateText]: [This.GetName]: britain_news.55.o1 executed"
		trigger = {
			original_tag = ENG
		}
	}
	
	option = {
		name = britain_news.55.o2
		log = "[GetDateText]: [This.GetName]: britain_news.55.o2 executed"
		trigger = {
			NOT = { original_tag = ENG }
			OR = {
				is_in_faction_with = ENG
				has_idea = EU_member
			}
			NOT = { has_war_with = ENG }
		}
	}
	
	option = {
		name = britain_news.55.o3
		log = "[GetDateText]: [This.GetName]: britain_news.55.o3 executed"
		trigger = {
			NOT = { original_tag = ENG }
			NOT = { is_in_faction_with = ENG }
			NOT = { has_idea = EU_member }
			NOT = { has_war_with = ENG }
			has_idea = commonwealth_of_nations_member
		}
	}
	
	option = {
		name = britain_news.55.o4
		log = "[GetDateText]: [This.GetName]: britain_news.55.o4 executed"
		trigger = {
			NOT = { original_tag = ENG }
			NOT = { is_in_faction_with = ENG }
			NOT = { has_idea = EU_member }
			NOT = { has_war_with = ENG }
			NOT = { has_idea = commonwealth_of_nations_member }
		}
	}
	
	option = {
		name = britain_news.55.o5
		log = "[GetDateText]: [This.GetName]: britain_news.55.o5 executed"
		trigger = {
			has_war_with = ENG
		}
	}
}
#Britain goes with the Commonwealth
news_event = {
	id = britain_news.56
	title = britain_news.56.t
	desc = britain_news.56.d
	picture = GFX_eu
	
	is_triggered_only = yes
	
	option = {
		name = britain_news.56.o1
		log = "[GetDateText]: [This.GetName]: britain_news.56.o1 executed"
		trigger = {
			OR = {
				original_tag = ENG
				has_idea = commonwealth_of_nations_member
			}
		}
	}
	
	option = {
		name = britain_news.56.o2
		log = "[GetDateText]: [This.GetName]: britain_news.56.o2 executed"
		trigger = {
			NOT = { original_tag = ENG }
			NOT = { has_idea = commonwealth_of_nations_member }
			has_idea = EU_member
		}
	}
	
	option = {
		name = britain_news.56.o3
		log = "[GetDateText]: [This.GetName]: britain_news.56.o3 executed"
		trigger = {
			NOT = { original_tag = ENG }
			NOT = { has_idea = commonwealth_of_nations_member }
			NOT = { has_idea = EU_member }
		}
	}
}
#Britain on its own
news_event = {
	id = britain_news.57
	title = britain_news.57.t
	desc = britain_news.57.d
	picture = GFX_eu
	
	is_triggered_only = yes
	
	option = {
		name = britain_news.57.o1
		log = "[GetDateText]: [This.GetName]: britain_news.57.o1 executed"
		trigger = { original_tag = ENG }
	}
	
	option = {
		name = britain_news.57.o2
		log = "[GetDateText]: [This.GetName]: britain_news.57.o2 executed"
		trigger = { NOT = { original_tag = ENG } }
	}
}

#Britain moves left
news_event = {
	id = britain_news.59
	title = britain_news.59.t
	desc = britain_news.59.d
	picture = GFX_jeremy_corbyn
	
	is_triggered_only = yes
	major = yes
	
	option = {
		name = britain_news.59.o1
		log = "[GetDateText]: [This.GetName]: britain_news.59.o1 executed"
	}
}

#Britain moves right
news_event = {
	id = britain_news.60
	title = britain_news.60.t
	desc = britain_news.60.d
	picture = GFX_nigel_farage
	
	is_triggered_only = yes
	major = yes
	
	option = {
		name = britain_news.60.o1
		log = "[GetDateText]: [This.GetName]: britain_news.60.o1 executed"
	}
}

#Britain defies Remain
news_event = {
	id = britain_news.61
	title = britain_news.61.t
	desc = britain_news.61.d
	picture = GFX_british_flag
	
	is_triggered_only = yes
	major = yes
	
	option = {
		name = britain_news.61.o1
		log = "[GetDateText]: [This.GetName]: britain_news.61.o1 executed"
		trigger = {
			original_tag = ENG
		}
	}
	option = {
		name = britain_news.61.o2
		log = "[GetDateText]: [This.GetName]: britain_news.61.o2 executed"
		trigger = {
			NOT = { original_tag = ENG }
			has_idea = EU_member
		}
	}
	option = {
		name = britain_news.61.o3
		log = "[GetDateText]: [This.GetName]: britain_news.61.o3 executed"
		trigger = {
			NOT = { original_tag = ENG }
			NOT = { has_idea = EU_member }
		}
	}
}

#Britain reaches for South Africa (britain_news.62)
news_event = {
	id = britain_news.62
	title = britain_news.62.t
	desc = britain_news.62.d
	picture = GFX_british_flag
	
	is_triggered_only = yes
	major = yes
	
	option = {
		name = britain_news.62.o1
		log = "[GetDateText]: [This.GetName]: britain_news.62.o1 executed"
		trigger = {
			OR = {
				original_tag = ENG
				is_in_faction_with = ENG
			}
		}
	}
	option = {
		name = britain_news.62.o2
		log = "[GetDateText]: [This.GetName]: britain_news.62.o2 executed"
		trigger = {
			NOT = { is_in_faction_with = ENG }
			OR = {
				original_tag = SAF
				is_in_faction_with = SAF
			}
		}
	}
	option = {
		name = britain_news.62.o3
		log = "[GetDateText]: [This.GetName]: britain_news.62.o3 executed"
		trigger = {
			NOT = { original_tag = ENG }
			NOT = { original_tag = SAF }
			NOT = { is_in_faction_with = ENG }
			NOT = { is_in_faction_with = SAF }
		}
	}
}

#Britain strikes the Raj (britain_news.63)
news_event = {
	id = britain_news.63
	title = britain_news.63.t
	desc = britain_news.63.d
	picture = GFX_british_flag
	
	is_triggered_only = yes
	major = yes
	
	option = {
		name = britain_news.63.o1
		log = "[GetDateText]: [This.GetName]: britain_news.63.o1 executed"
		trigger = {
			OR = {
				original_tag = ENG
				is_in_faction_with = ENG
			}
		}
	}
	option = {
		name = britain_news.63.o2
		log = "[GetDateText]: [This.GetName]: britain_news.63.o2 executed"
		trigger = {
			NOT = { is_in_faction_with = ENG }
			OR = {
				original_tag = RAJ
				is_in_faction_with = RAJ
			}
		}
	}
	option = {
		name = britain_news.63.o3
		log = "[GetDateText]: [This.GetName]: britain_news.63.o2 executed"
		trigger = {
			NOT = { original_tag = ENG }
			NOT = { original_tag = RAJ }
			NOT = { is_in_faction_with = ENG }
			NOT = { is_in_faction_with = RAJ }
		}
	}
}

#Britain prepares unification treaties
news_event = {
	id = britain_news.64
	title = britain_news.64.t
	desc = britain_news.64.d
	picture = GFX_nigel_farage
	
	is_triggered_only = yes
	major = yes
	
	option = {
		name = britain_news.64.o1
		log = "[GetDateText]: [This.GetName]: britain_news.64.o1 executed"
	}
}