# Written by Killerrabbit

# For deleting flags in a safe way in budget and similar
#also changes approval rating

determine_largest_outlook = {
	if = {
			limit = { democratic > 0.50 NOT = { has_country_flag = break } }
			country_event = { id = western_win.0 }
			set_country_flag = break
		}
		if = {
			limit = { communism > 0.50 NOT = { has_country_flag = break } }
			country_event = { id = emerging_win.0 }
			set_country_flag = break
		}
		if = {
			limit = { nationalist > 0.50 NOT = { has_country_flag = break } }
			country_event = { id = nationalist_win.0 }
			set_country_flag = break
		}
		if = {
			limit = { neutrality > 0.50 NOT = { has_country_flag = break } }
			country_event = { id = non_alligned_win.0 }
			set_country_flag = break
		}
		if = {
			limit = { fascism > 0.50 NOT = { has_country_flag = break } }
			country_event = { id = salafist_win.0 }
			set_country_flag = break
		}
		
		if = {
			limit = { democratic > 0.49 NOT = { has_country_flag = break } }
			country_event = { id = western_win.0 }
			set_country_flag = break
		}
		if = {
			limit = { communism > 0.49 NOT = { has_country_flag = break } }
			country_event = { id = emerging_win.0 }
			set_country_flag = break
		}
		if = {
			limit = { nationalist > 0.49 NOT = { has_country_flag = break } }
			country_event = { id = nationalist_win.0 }
			set_country_flag = break
		}
		if = {
			limit = { neutrality > 0.49 NOT = { has_country_flag = break } }
			country_event = { id = non_alligned_win.0 }
			set_country_flag = break
		}
		if = {
			limit = { fascism > 0.49 NOT = { has_country_flag = break } }
			country_event = { id = salafist_win.0 }
			set_country_flag = break
		}
		
		if = {
			limit = { democratic > 0.48 NOT = { has_country_flag = break } }
			country_event = { id = western_win.0 }
			set_country_flag = break
		}
		if = {
			limit = { communism > 0.48 NOT = { has_country_flag = break } }
			country_event = { id = emerging_win.0 }
			set_country_flag = break
		}
		if = {
			limit = { nationalist > 0.48 NOT = { has_country_flag = break } }
			country_event = { id = nationalist_win.0 }
			set_country_flag = break
		}
		if = {
			limit = { neutrality > 0.48 NOT = { has_country_flag = break } }
			country_event = { id = non_alligned_win.0 }
			set_country_flag = break
		}
		if = {
			limit = { fascism > 0.48 NOT = { has_country_flag = break } }
			country_event = { id = salafist_win.0 }
			set_country_flag = break
		}
		
		if = {
			limit = { democratic > 0.47 NOT = { has_country_flag = break } }
			country_event = { id = western_win.0 }
			set_country_flag = break
		}
		if = {
			limit = { communism > 0.47 NOT = { has_country_flag = break } }
			country_event = { id = emerging_win.0 }
			set_country_flag = break
		}
		if = {
			limit = { nationalist > 0.47 NOT = { has_country_flag = break } }
			country_event = { id = nationalist_win.0 }
			set_country_flag = break
		}
		if = {
			limit = { neutrality > 0.47 NOT = { has_country_flag = break } }
			country_event = { id = non_alligned_win.0 }
			set_country_flag = break
		}
		if = {
			limit = { fascism > 0.47 NOT = { has_country_flag = break } }
			country_event = { id = salafist_win.0 }
			set_country_flag = break
		}
		
		if = {
			limit = { democratic > 0.46 NOT = { has_country_flag = break } }
			country_event = { id = western_win.0 }
			set_country_flag = break
		}
		if = {
			limit = { communism > 0.46 NOT = { has_country_flag = break } }
			country_event = { id = emerging_win.0 }
			set_country_flag = break
		}
		if = {
			limit = { nationalist > 0.46 NOT = { has_country_flag = break } }
			country_event = { id = nationalist_win.0 }
			set_country_flag = break
		}
		if = {
			limit = { neutrality > 0.46 NOT = { has_country_flag = break } }
			country_event = { id = non_alligned_win.0 }
			set_country_flag = break
		}
		if = {
			limit = { fascism > 0.46 NOT = { has_country_flag = break } }
			country_event = { id = salafist_win.0 }
			set_country_flag = break
		}
		
		if = {
			limit = { democratic > 0.45 NOT = { has_country_flag = break } }
			country_event = { id = western_win.0 }
			set_country_flag = break
		}
		if = {
			limit = { communism > 0.45 NOT = { has_country_flag = break } }
			country_event = { id = emerging_win.0 }
			set_country_flag = break
		}
		if = {
			limit = { nationalist > 0.45 NOT = { has_country_flag = break } }
			country_event = { id = nationalist_win.0 }
			set_country_flag = break
		}
		if = {
			limit = { neutrality > 0.45 NOT = { has_country_flag = break } }
			country_event = { id = non_alligned_win.0 }
			set_country_flag = break
		}
		if = {
			limit = { fascism > 0.45 NOT = { has_country_flag = break } }
			country_event = { id = salafist_win.0 }
			set_country_flag = break
		}
		
		if = {
			limit = { democratic > 0.44 NOT = { has_country_flag = break } }
			country_event = { id = western_win.0 }
			set_country_flag = break
		}
		if = {
			limit = { communism > 0.44 NOT = { has_country_flag = break } }
			country_event = { id = emerging_win.0 }
			set_country_flag = break
		}
		if = {
			limit = { nationalist > 0.44 NOT = { has_country_flag = break } }
			country_event = { id = nationalist_win.0 }
			set_country_flag = break
		}
		if = {
			limit = { neutrality > 0.44 NOT = { has_country_flag = break } }
			country_event = { id = non_alligned_win.0 }
			set_country_flag = break
		}
		if = {
			limit = { fascism > 0.44 NOT = { has_country_flag = break } }
			country_event = { id = salafist_win.0 }
			set_country_flag = break
		}
		
		if = {
			limit = { democratic > 0.43 NOT = { has_country_flag = break } }
			country_event = { id = western_win.0 }
			set_country_flag = break
		}
		if = {
			limit = { communism > 0.43 NOT = { has_country_flag = break } }
			country_event = { id = emerging_win.0 }
			set_country_flag = break
		}
		if = {
			limit = { nationalist > 0.43 NOT = { has_country_flag = break } }
			country_event = { id = nationalist_win.0 }
			set_country_flag = break
		}
		if = {
			limit = { neutrality > 0.43 NOT = { has_country_flag = break } }
			country_event = { id = non_alligned_win.0 }
			set_country_flag = break
		}
		if = {
			limit = { fascism > 0.43 NOT = { has_country_flag = break } }
			country_event = { id = salafist_win.0 }
			set_country_flag = break
		}
		
		if = {
			limit = { democratic > 0.42 NOT = { has_country_flag = break } }
			country_event = { id = western_win.0 }
			set_country_flag = break
		}
		if = {
			limit = { communism > 0.42 NOT = { has_country_flag = break } }
			country_event = { id = emerging_win.0 }
			set_country_flag = break
		}
		if = {
			limit = { nationalist > 0.42 NOT = { has_country_flag = break } }
			country_event = { id = nationalist_win.0 }
			set_country_flag = break
		}
		if = {
			limit = { neutrality > 0.42 NOT = { has_country_flag = break } }
			country_event = { id = non_alligned_win.0 }
			set_country_flag = break
		}
		if = {
			limit = { fascism > 0.42 NOT = { has_country_flag = break } }
			country_event = { id = salafist_win.0 }
			set_country_flag = break
		}
		
		if = {
			limit = { democratic > 0.41 NOT = { has_country_flag = break } }
			country_event = { id = western_win.0 }
			set_country_flag = break
		}
		if = {
			limit = { communism > 0.41 NOT = { has_country_flag = break } }
			country_event = { id = emerging_win.0 }
			set_country_flag = break
		}
		if = {
			limit = { nationalist > 0.41 NOT = { has_country_flag = break } }
			country_event = { id = nationalist_win.0 }
			set_country_flag = break
		}
		if = {
			limit = { neutrality > 0.41 NOT = { has_country_flag = break } }
			country_event = { id = non_alligned_win.0 }
			set_country_flag = break
		}
		if = {
			limit = { fascism > 0.41 NOT = { has_country_flag = break } }
			country_event = { id = salafist_win.0 }
			set_country_flag = break
		}
		
		if = {
			limit = { democratic > 0.40 NOT = { has_country_flag = break } }
			country_event = { id = western_win.0 }
			set_country_flag = break
		}
		if = {
			limit = { communism > 0.40 NOT = { has_country_flag = break } }
			country_event = { id = emerging_win.0 }
			set_country_flag = break
		}
		if = {
			limit = { nationalist > 0.40 NOT = { has_country_flag = break } }
			country_event = { id = nationalist_win.0 }
			set_country_flag = break
		}
		if = {
			limit = { neutrality > 0.40 NOT = { has_country_flag = break } }
			country_event = { id = non_alligned_win.0 }
			set_country_flag = break
		}
		if = {
			limit = { fascism > 0.40 NOT = { has_country_flag = break } }
			country_event = { id = salafist_win.0 }
			set_country_flag = break
		}
		
		if = {
			limit = { democratic > 0.39 NOT = { has_country_flag = break } }
			country_event = { id = western_win.0 }
			set_country_flag = break
		}
		if = {
			limit = { communism > 0.39 NOT = { has_country_flag = break } }
			country_event = { id = emerging_win.0 }
			set_country_flag = break
		}
		if = {
			limit = { nationalist > 0.39 NOT = { has_country_flag = break } }
			country_event = { id = nationalist_win.0 }
			set_country_flag = break
		}
		if = {
			limit = { neutrality > 0.39 NOT = { has_country_flag = break } }
			country_event = { id = non_alligned_win.0 }
			set_country_flag = break
		}
		if = {
			limit = { fascism > 0.39 NOT = { has_country_flag = break } }
			country_event = { id = salafist_win.0 }
			set_country_flag = break
		}
		
		if = {
			limit = { democratic > 0.38 NOT = { has_country_flag = break } }
			country_event = { id = western_win.0 }
			set_country_flag = break
		}
		if = {
			limit = { communism > 0.38 NOT = { has_country_flag = break } }
			country_event = { id = emerging_win.0 }
			set_country_flag = break
		}
		if = {
			limit = { nationalist > 0.38 NOT = { has_country_flag = break } }
			country_event = { id = nationalist_win.0 }
			set_country_flag = break
		}
		if = {
			limit = { neutrality > 0.38 NOT = { has_country_flag = break } }
			country_event = { id = non_alligned_win.0 }
			set_country_flag = break
		}
		if = {
			limit = { fascism > 0.38 NOT = { has_country_flag = break } }
			country_event = { id = salafist_win.0 }
			set_country_flag = break
		}
		
		if = {
			limit = { democratic > 0.37 NOT = { has_country_flag = break } }
			country_event = { id = western_win.0 }
			set_country_flag = break
		}
		if = {
			limit = { communism > 0.37 NOT = { has_country_flag = break } }
			country_event = { id = emerging_win.0 }
			set_country_flag = break
		}
		if = {
			limit = { nationalist > 0.37 NOT = { has_country_flag = break } }
			country_event = { id = nationalist_win.0 }
			set_country_flag = break
		}
		if = {
			limit = { neutrality > 0.37 NOT = { has_country_flag = break } }
			country_event = { id = non_alligned_win.0 }
			set_country_flag = break
		}
		if = {
			limit = { fascism > 0.37 NOT = { has_country_flag = break } }
			country_event = { id = salafist_win.0 }
			set_country_flag = break
		}
		
		if = {
			limit = { democratic > 0.36 NOT = { has_country_flag = break } }
			country_event = { id = western_win.0 }
			set_country_flag = break
		}
		if = {
			limit = { communism > 0.36 NOT = { has_country_flag = break } }
			country_event = { id = emerging_win.0 }
			set_country_flag = break
		}
		if = {
			limit = { nationalist > 0.36 NOT = { has_country_flag = break } }
			country_event = { id = nationalist_win.0 }
			set_country_flag = break
		}
		if = {
			limit = { neutrality > 0.36 NOT = { has_country_flag = break } }
			country_event = { id = non_alligned_win.0 }
			set_country_flag = break
		}
		if = {
			limit = { fascism > 0.36 NOT = { has_country_flag = break } }
			country_event = { id = salafist_win.0 }
			set_country_flag = break
		}
		
		if = {
			limit = { democratic > 0.35 NOT = { has_country_flag = break } }
			country_event = { id = western_win.0 }
			set_country_flag = break
		}
		if = {
			limit = { communism > 0.35 NOT = { has_country_flag = break } }
			country_event = { id = emerging_win.0 }
			set_country_flag = break
		}
		if = {
			limit = { nationalist > 0.35 NOT = { has_country_flag = break } }
			country_event = { id = nationalist_win.0 }
			set_country_flag = break
		}
		if = {
			limit = { neutrality > 0.35 NOT = { has_country_flag = break } }
			country_event = { id = non_alligned_win.0 }
			set_country_flag = break
		}
		if = {
			limit = { fascism > 0.35 NOT = { has_country_flag = break } }
			country_event = { id = salafist_win.0 }
			set_country_flag = break
		}
		
		if = {
			limit = { democratic > 0.34 NOT = { has_country_flag = break } }
			country_event = { id = western_win.0 }
			set_country_flag = break
		}
		if = {
			limit = { communism > 0.34 NOT = { has_country_flag = break } }
			country_event = { id = emerging_win.0 }
			set_country_flag = break
		}
		if = {
			limit = { nationalist > 0.34 NOT = { has_country_flag = break } }
			country_event = { id = nationalist_win.0 }
			set_country_flag = break
		}
		if = {
			limit = { neutrality > 0.34 NOT = { has_country_flag = break } }
			country_event = { id = non_alligned_win.0 }
			set_country_flag = break
		}
		if = {
			limit = { fascism > 0.34 NOT = { has_country_flag = break } }
			country_event = { id = salafist_win.0 }
			set_country_flag = break
		}
		
		if = {
			limit = { democratic > 0.33 NOT = { has_country_flag = break } }
			country_event = { id = western_win.0 }
			set_country_flag = break
		}
		if = {
			limit = { communism > 0.33 NOT = { has_country_flag = break } }
			country_event = { id = emerging_win.0 }
			set_country_flag = break
		}
		if = {
			limit = { nationalist > 0.33 NOT = { has_country_flag = break } }
			country_event = { id = nationalist_win.0 }
			set_country_flag = break
		}
		if = {
			limit = { neutrality > 0.33 NOT = { has_country_flag = break } }
			country_event = { id = non_alligned_win.0 }
			set_country_flag = break
		}
		if = {
			limit = { fascism > 0.33 NOT = { has_country_flag = break } }
			country_event = { id = salafist_win.0 }
			set_country_flag = break
		}
		
		if = {
			limit = { democratic > 0.32 NOT = { has_country_flag = break } }
			country_event = { id = western_win.0 }
			set_country_flag = break
		}
		if = {
			limit = { communism > 0.32 NOT = { has_country_flag = break } }
			country_event = { id = emerging_win.0 }
			set_country_flag = break
		}
		if = {
			limit = { nationalist > 0.32 NOT = { has_country_flag = break } }
			country_event = { id = nationalist_win.0 }
			set_country_flag = break
		}
		if = {
			limit = { neutrality > 0.32 NOT = { has_country_flag = break } }
			country_event = { id = non_alligned_win.0 }
			set_country_flag = break
		}
		if = {
			limit = { fascism > 0.32 NOT = { has_country_flag = break } }
			country_event = { id = salafist_win.0 }
			set_country_flag = break
		}
		
		if = {
			limit = { democratic > 0.31 NOT = { has_country_flag = break } }
			country_event = { id = western_win.0 }
			set_country_flag = break
		}
		if = {
			limit = { communism > 0.31 NOT = { has_country_flag = break } }
			country_event = { id = emerging_win.0 }
			set_country_flag = break
		}
		if = {
			limit = { nationalist > 0.31 NOT = { has_country_flag = break } }
			country_event = { id = nationalist_win.0 }
			set_country_flag = break
		}
		if = {
			limit = { neutrality > 0.31 NOT = { has_country_flag = break } }
			country_event = { id = non_alligned_win.0 }
			set_country_flag = break
		}
		if = {
			limit = { fascism > 0.31 NOT = { has_country_flag = break } }
			country_event = { id = salafist_win.0 }
			set_country_flag = break
		}
		
		if = {
			limit = { democratic > 0.30 NOT = { has_country_flag = break } }
			country_event = { id = western_win.0 }
			set_country_flag = break
		}
		if = {
			limit = { communism > 0.30 NOT = { has_country_flag = break } }
			country_event = { id = emerging_win.0 }
			set_country_flag = break
		}
		if = {
			limit = { nationalist > 0.30 NOT = { has_country_flag = break } }
			country_event = { id = nationalist_win.0 }
			set_country_flag = break
		}
		if = {
			limit = { neutrality > 0.30 NOT = { has_country_flag = break } }
			country_event = { id = non_alligned_win.0 }
			set_country_flag = break
		}
		if = {
			limit = { fascism > 0.30 NOT = { has_country_flag = break } }
			country_event = { id = salafist_win.0 }
			set_country_flag = break
		}
		
		if = {
			limit = { democratic > 0.29 NOT = { has_country_flag = break } }
			country_event = { id = western_win.0 }
			set_country_flag = break
		}
		if = {
			limit = { communism > 0.29 NOT = { has_country_flag = break } }
			country_event = { id = emerging_win.0 }
			set_country_flag = break
		}
		if = {
			limit = { nationalist > 0.29 NOT = { has_country_flag = break } }
			country_event = { id = nationalist_win.0 }
			set_country_flag = break
		}
		if = {
			limit = { neutrality > 0.29 NOT = { has_country_flag = break } }
			country_event = { id = non_alligned_win.0 }
			set_country_flag = break
		}
		if = {
			limit = { fascism > 0.29 NOT = { has_country_flag = break } }
			country_event = { id = salafist_win.0 }
			set_country_flag = break
		}
		
		if = {
			limit = { democratic > 0.28 NOT = { has_country_flag = break } }
			country_event = { id = western_win.0 }
			set_country_flag = break
		}
		if = {
			limit = { communism > 0.28 NOT = { has_country_flag = break } }
			country_event = { id = emerging_win.0 }
			set_country_flag = break
		}
		if = {
			limit = { nationalist > 0.28 NOT = { has_country_flag = break } }
			country_event = { id = nationalist_win.0 }
			set_country_flag = break
		}
		if = {
			limit = { neutrality > 0.28 NOT = { has_country_flag = break } }
			country_event = { id = non_alligned_win.0 }
			set_country_flag = break
		}
		if = {
			limit = { fascism > 0.28 NOT = { has_country_flag = break } }
			country_event = { id = salafist_win.0 }
			set_country_flag = break
		}
		
		if = {
			limit = { democratic > 0.27 NOT = { has_country_flag = break } }
			country_event = { id = western_win.0 }
			set_country_flag = break
		}
		if = {
			limit = { communism > 0.27 NOT = { has_country_flag = break } }
			country_event = { id = emerging_win.0 }
			set_country_flag = break
		}
		if = {
			limit = { nationalist > 0.27 NOT = { has_country_flag = break } }
			country_event = { id = nationalist_win.0 }
			set_country_flag = break
		}
		if = {
			limit = { neutrality > 0.27 NOT = { has_country_flag = break } }
			country_event = { id = non_alligned_win.0 }
			set_country_flag = break
		}
		if = {
			limit = { fascism > 0.27 NOT = { has_country_flag = break } }
			country_event = { id = salafist_win.0 }
			set_country_flag = break
		}
		
		if = {
			limit = { democratic > 0.26 NOT = { has_country_flag = break } }
			country_event = { id = western_win.0 }
			set_country_flag = break
		}
		if = {
			limit = { communism > 0.26 NOT = { has_country_flag = break } }
			country_event = { id = emerging_win.0 }
			set_country_flag = break
		}
		if = {
			limit = { nationalist > 0.26 NOT = { has_country_flag = break } }
			country_event = { id = nationalist_win.0 }
			set_country_flag = break
		}
		if = {
			limit = { neutrality > 0.26 NOT = { has_country_flag = break } }
			country_event = { id = non_alligned_win.0 }
			set_country_flag = break
		}
		if = {
			limit = { fascism > 0.26 NOT = { has_country_flag = break } }
			country_event = { id = salafist_win.0 }
			set_country_flag = break
		}
		
		if = {
			limit = { democratic > 0.25 NOT = { has_country_flag = break } }
			country_event = { id = western_win.0 }
			set_country_flag = break
		}
		if = {
			limit = { communism > 0.25 NOT = { has_country_flag = break } }
			country_event = { id = emerging_win.0 }
			set_country_flag = break
		}
		if = {
			limit = { nationalist > 0.25 NOT = { has_country_flag = break } }
			country_event = { id = nationalist_win.0 }
			set_country_flag = break
		}
		if = {
			limit = { neutrality > 0.25 NOT = { has_country_flag = break } }
			country_event = { id = non_alligned_win.0 }
			set_country_flag = break
		}
		if = {
			limit = { fascism > 0.25 NOT = { has_country_flag = break } }
			country_event = { id = salafist_win.0 }
			set_country_flag = break
		}
		
		if = {
			limit = { democratic > 0.24 NOT = { has_country_flag = break } }
			country_event = { id = western_win.0 }
			set_country_flag = break
		}
		if = {
			limit = { communism > 0.24 NOT = { has_country_flag = break } }
			country_event = { id = emerging_win.0 }
			set_country_flag = break
		}
		if = {
			limit = { nationalist > 0.24 NOT = { has_country_flag = break } }
			country_event = { id = nationalist_win.0 }
			set_country_flag = break
		}
		if = {
			limit = { neutrality > 0.24 NOT = { has_country_flag = break } }
			country_event = { id = non_alligned_win.0 }
			set_country_flag = break
		}
		if = {
			limit = { fascism > 0.24 NOT = { has_country_flag = break } }
			country_event = { id = salafist_win.0 }
			set_country_flag = break
		}
		
		if = {
			limit = { democratic > 0.23 NOT = { has_country_flag = break } }
			country_event = { id = western_win.0 }
			set_country_flag = break
		}
		if = {
			limit = { communism > 0.23 NOT = { has_country_flag = break } }
			country_event = { id = emerging_win.0 }
			set_country_flag = break
		}
		if = {
			limit = { nationalist > 0.23 NOT = { has_country_flag = break } }
			country_event = { id = nationalist_win.0 }
			set_country_flag = break
		}
		if = {
			limit = { neutrality > 0.23 NOT = { has_country_flag = break } }
			country_event = { id = non_alligned_win.0 }
			set_country_flag = break
		}
		if = {
			limit = { fascism > 0.23 NOT = { has_country_flag = break } }
			country_event = { id = salafist_win.0 }
			set_country_flag = break
		}
		
		if = {
			limit = { democratic > 0.22 NOT = { has_country_flag = break } }
			country_event = { id = western_win.0 }
			set_country_flag = break
		}
		if = {
			limit = { communism > 0.22 NOT = { has_country_flag = break } }
			country_event = { id = emerging_win.0 }
			set_country_flag = break
		}
		if = {
			limit = { nationalist > 0.22 NOT = { has_country_flag = break } }
			country_event = { id = nationalist_win.0 }
			set_country_flag = break
		}
		if = {
			limit = { neutrality > 0.22 NOT = { has_country_flag = break } }
			country_event = { id = non_alligned_win.0 }
			set_country_flag = break
		}
		if = {
			limit = { fascism > 0.22 NOT = { has_country_flag = break } }
			country_event = { id = salafist_win.0 }
			set_country_flag = break
		}
		
		if = {
			limit = { democratic > 0.21 NOT = { has_country_flag = break } }
			country_event = { id = western_win.0 }
			set_country_flag = break
		}
		if = {
			limit = { communism > 0.21 NOT = { has_country_flag = break } }
			country_event = { id = emerging_win.0 }
			set_country_flag = break
		}
		if = {
			limit = { nationalist > 0.21 NOT = { has_country_flag = break } }
			country_event = { id = nationalist_win.0 }
			set_country_flag = break
		}
		if = {
			limit = { neutrality > 0.21 NOT = { has_country_flag = break } }
			country_event = { id = non_alligned_win.0 }
			set_country_flag = break
		}
		if = {
			limit = { fascism > 0.21 NOT = { has_country_flag = break } }
			country_event = { id = salafist_win.0 }
			set_country_flag = break
		}
		
		if = {
			limit = { democratic > 0.20 NOT = { has_country_flag = break } }
			country_event = { id = western_win.0 }
			set_country_flag = break
		}
		if = {
			limit = { communism > 0.20 NOT = { has_country_flag = break } }
			country_event = { id = emerging_win.0 }
			set_country_flag = break
		}
		if = {
			limit = { nationalist > 0.20 NOT = { has_country_flag = break } }
			country_event = { id = nationalist_win.0 }
			set_country_flag = break
		}
		if = {
			limit = { neutrality > 0.20 NOT = { has_country_flag = break } }
			country_event = { id = non_alligned_win.0 }
			set_country_flag = break
		}
		if = {
			limit = { fascism > 0.20 NOT = { has_country_flag = break } }
			country_event = { id = salafist_win.0 }
			set_country_flag = break
		}
		
		if = {
			limit = { democratic > 0.19 NOT = { has_country_flag = break } }
			country_event = { id = western_win.0 }
			set_country_flag = break
		}
		if = {
			limit = { communism > 0.19 NOT = { has_country_flag = break } }
			country_event = { id = emerging_win.0 }
			set_country_flag = break
		}
		if = {
			limit = { nationalist > 0.19 NOT = { has_country_flag = break } }
			country_event = { id = nationalist_win.0 }
			set_country_flag = break
		}
		if = {
			limit = { neutrality > 0.19 NOT = { has_country_flag = break } }
			country_event = { id = non_alligned_win.0 }
			set_country_flag = break
		}
		if = {
			limit = { fascism > 0.19 NOT = { has_country_flag = break } }
			country_event = { id = salafist_win.0 }
			set_country_flag = break
		}
		
		clr_country_flag = break
}	
