set_leader_ABK = {

	if = { limit = { has_country_flag = set_Monarchist }

		if = { limit = { check_variable = { Monarchist_leader = 0 } }
			add_to_variable = { Monarchist_leader = 1 }
			hidden_effect = { kill_country_leader = yes }

			create_country_leader = {
				name = "Nikita Georgevitch"
				picture = "generic.dds"
				ideology = Monarchist
				traits = {
					nationalist_Monarchist
				}
			}

			if = { limit = { has_country_flag = do_not_retire } subtract_from_variable = { Monarchist_leader = 1 } }
			if = { limit = { date < 2016.1.2 } set_temp_variable = { b = 1 } } #skip if 2017
		}
		if = { limit = { check_variable = { Monarchist_leader = 1 } NOT = { check_variable = { b = 1 } } }
			add_to_variable = { Monarchist_leader = 1 }
			hidden_effect = { kill_country_leader = yes }

			create_country_leader = {
				name = "Andrew Nikititch Shervashidze"
				picture = "generic.dds"
				ideology = Monarchist
				traits = {
					nationalist_Monarchist
				}
			}

			if = { limit = { has_country_flag = do_not_retire } subtract_from_variable = { Monarchist_leader = 1 } }
			set_temp_variable = { b = 1 }
		}
	}
	else_if = { limit = { has_country_flag = set_Autocracy }
		if = { limit = { check_variable = { Autocracy_leader = 0 } }
			add_to_variable = { Autocracy_leader = 1 }
			hidden_effect = { kill_country_leader = yes }

			create_country_leader = {
				name = "Raul Khajimba"
				picture = "ABK_Raul_Khajimba.dds"
				ideology = Autocracy
				traits = {
					emerging_Autocracy
				}
			}

			if = { limit = { has_country_flag = do_not_retire } subtract_from_variable = { Autocracy_leader = 1 } }
			if = { limit = { date < 2016.1.2 } set_temp_variable = { b = 1 } } #skip if 2017
		}
		if = { limit = { check_variable = { Autocracy_leader = 1 } NOT = { check_variable = { b = 1 } } }
			add_to_variable = { Autocracy_leader = 1 }
			hidden_effect = { kill_country_leader = yes }

			create_country_leader = {
				name = "Aslan Bzhania"
				picture = "generic.dds"
				ideology = Autocracy
				traits = {
					emerging_Autocracy
				}
			}

			if = { limit = { has_country_flag = do_not_retire } subtract_from_variable = { Autocracy_leader = 1 } }
			set_temp_variable = { b = 1 }
		}
	}
}