set_leader_ENG = {

	if = { limit = { has_country_flag = set_conservatism }

		if = { limit = { check_variable = { conservatism_leader = 0 } }
			add_to_variable = { conservatism_leader = 1 }
			hidden_effect = { kill_country_leader = yes }

			create_country_leader = {
				name = "Wiliam Hague"
				picture = "William_Hague.dds"
				ideology = conservatism
				traits = {
					western_conservatism
				}
			}

			if = { limit = { has_country_flag = do_not_retire } subtract_from_variable = { conservatism_leader = 1 } }
			if = { limit = { date < 2016.1.2 } set_temp_variable = { b = 1 } } #skip if 2017
		}
		if = { limit = { check_variable = { conservatism_leader = 1 } NOT = { check_variable = { b = 1 } } }
			add_to_variable = { conservatism_leader = 1 }
			hidden_effect = { kill_country_leader = yes }

			create_country_leader = {
				name = "Boris Johnson"
				picture = "boris_johnson.dds"
				ideology = conservatism
				traits = {
					western_conservatism
				}
			}

			if = { limit = { has_country_flag = do_not_retire } subtract_from_variable = { conservatism_leader = 1 } }
			set_temp_variable = { b = 1 }
		}
		if = { limit = { check_variable = { conservatism_leader = 2 } NOT = { check_variable = { b = 1 } } }
			add_to_variable = { conservatism_leader = 1 }
			hidden_effect = { kill_country_leader = yes }

			create_country_leader = {
				name = "David Cameron"
				picture = "David_Cameron.dds"
				ideology = conservatism
				traits = {
					western_conservatism
				}
			}

			if = { limit = { has_country_flag = do_not_retire } subtract_from_variable = { conservatism_leader = 1 } }
			set_temp_variable = { b = 1 }
		}
	}
	else_if = { limit = { has_country_flag = set_liberalism }
		if = { limit = { check_variable = { liberalism_leader = 0 } }
			add_to_variable = { liberalism_leader = 1 }
			hidden_effect = { kill_country_leader = yes }

			create_country_leader = {
				name = "Charles Kennedy"
				picture = "Charles_Kennedy.dds"
				ideology = liberalism
				traits = {
					western_liberalism
				}
			}

			if = { limit = { has_country_flag = do_not_retire } subtract_from_variable = { liberalism_leader = 1 } }
			if = { limit = { date < 2016.1.2 } set_temp_variable = { b = 1 } } #skip if 2017
		}
		if = { limit = { check_variable = { liberalism_leader = 1 } NOT = { check_variable = { b = 1 } } }
			add_to_variable = { liberalism_leader = 1 }
			hidden_effect = { kill_country_leader = yes }

			create_country_leader = {
				name = "Tim Farron"
				picture = "tim_farron.dds"
				ideology = liberalism
				traits = {
					western_liberalism
				}
			}

			if = { limit = { has_country_flag = do_not_retire } subtract_from_variable = { liberalism_leader = 1 } }
			set_temp_variable = { b = 1 }
		}
		if = { limit = { check_variable = { liberalism_leader = 2 } NOT = { check_variable = { b = 1 } } }
			add_to_variable = { liberalism_leader = 1 }
			hidden_effect = { kill_country_leader = yes }

			create_country_leader = {
				name = "Nick Clegg"
				picture = "nick_clegg.dds"
				ideology = liberalism
				traits = {
					western_liberalism
				}
			}

			if = { limit = { has_country_flag = do_not_retire } subtract_from_variable = { liberalism_leader = 1 } }
			set_temp_variable = { b = 1 }
		}
	}
	else_if = { limit = { has_country_flag = set_Communist-State }
		if = { limit = { check_variable = { Communist-State_leader = 0 } }
			add_to_variable = { Communist-State_leader = 1 }
			hidden_effect = { kill_country_leader = yes }

			create_country_leader = {
				name = "Robert David Griffiths"
				picture = "Robert_Griffiths.dds"
				ideology = Communist-State
				traits = {
					emerging_Communist-State
				}
			}

			if = { limit = { has_country_flag = do_not_retire } subtract_from_variable = { Communist-State_leader = 1 } }
			if = { limit = { date < 2016.1.2 } set_temp_variable = { b = 1 } } #skip if 2017
		}
	}
	else_if = { limit = { has_country_flag = set_anarchist_communism }
		if = { limit = { check_variable = { anarchist_communism_leader = 0 } }
			add_to_variable = { anarchist_communism_leader = 1 }
			hidden_effect = { kill_country_leader = yes }

			create_country_leader = {
				name = "Socialist Conference"
				picture = "Socialist_Party.dds"
				ideology = anarchist_communism
				traits = {
					emerging_anarchist_communism
				}
			}

			if = { limit = { has_country_flag = do_not_retire } subtract_from_variable = { anarchist_communism_leader = 1 } }
			if = { limit = { date < 2016.1.2 } set_temp_variable = { b = 1 } } #skip if 2017
		}
	}
	else_if = { limit = { has_country_flag = set_Neutral_conservatism }
		if = { limit = { check_variable = { Neutral_conservatism_leader = 0 } }
			add_to_variable = { Neutral_conservatism_leader = 1 }
			hidden_effect = { kill_country_leader = yes }

			create_country_leader = {
				name = "Ram Gidoomal"
				picture = "Ram_Gidoomal.dds"
				ideology = Neutral_conservatism
				traits = {
					neutrality_Neutral_conservatism
				}
			}

			if = { limit = { has_country_flag = do_not_retire } subtract_from_variable = { Neutral_conservatism_leader = 1 } }
			if = { limit = { date < 2016.1.2 } set_temp_variable = { b = 1 } } #skip if 2017
		}
		if = { limit = { check_variable = { Neutral_conservatism_leader = 1 } NOT = { check_variable = { b = 1 } } }
			add_to_variable = { Neutral_conservatism_leader = 1 }
			hidden_effect = { kill_country_leader = yes }

			create_country_leader = {
				name = "Sidney Cordle"
				picture = "Sidney_Cordle.dds"
				ideology = Neutral_conservatism
				traits = {
					neutrality_Neutral_conservatism
				}
			}

			if = { limit = { has_country_flag = do_not_retire } subtract_from_variable = { Neutral_conservatism_leader = 1 } }
			set_temp_variable = { b = 1 }
		}
	}
	else_if = { limit = { has_country_flag = set_oligarchism }
		if = { limit = { check_variable = { oligarchism_leader = 0 } }
			add_to_variable = { oligarchism_leader = 1 }
			hidden_effect = { kill_country_leader = yes }

			create_country_leader = {
				name = " "
				picture = "generic.dds"
				ideology = oligarchism
				traits = {
					neutrality_oligarchism
				}
			}

			if = { limit = { has_country_flag = do_not_retire } subtract_from_variable = { oligarchism_leader = 1 } }
			if = { limit = { date < 2016.1.2 } set_temp_variable = { b = 1 } } #skip if 2017
		}
	}
	else_if = { limit = { has_country_flag = set_neutral_Social }
		if = { limit = { check_variable = { neutral_Social_leader = 0 } }
			add_to_variable = { neutral_Social_leader = 1 }
			hidden_effect = { kill_country_leader = yes }

			create_country_leader = {
				name = "John Bates"
				picture = "generic.dds"
				ideology = neutral_Social
				traits = {
					neutrality_neutral_Social
				}
			}

			if = { limit = { has_country_flag = do_not_retire } subtract_from_variable = { neutral_Social_leader = 1 } }
			if = { limit = { date < 2016.1.2 } set_temp_variable = { b = 1 } } #skip if 2017
		}
		if = { limit = { check_variable = { neutral_Social_leader = 1 } NOT = { check_variable = { b = 1 } } }
			add_to_variable = { neutral_Social_leader = 1 }
			hidden_effect = { kill_country_leader = yes }

			create_country_leader = {
				name = "Peter Johnson"
				picture = "generic.dds"
				ideology = neutral_Social
				traits = {
					neutrality_neutral_Social
				}
			}

			if = { limit = { has_country_flag = do_not_retire } subtract_from_variable = { neutral_Social_leader = 1 } }
			set_temp_variable = { b = 1 }
		}
	}
	else_if = { limit = { has_country_flag = set_Neutral_Autocracy }
		if = { limit = { check_variable = { Neutral_Autocracy_leader = 0 } }
			add_to_variable = { Neutral_Autocracy_leader = 1 }
			hidden_effect = { kill_country_leader = yes }

			create_country_leader = {
				name = "Luke Howard"
				picture = "luke_howard.dds"
				ideology = Neutral_Autocracy
				traits = {
					neutrality_Neutral_Autocracy
				}
			}

			if = { limit = { has_country_flag = do_not_retire } subtract_from_variable = { Neutral_Autocracy_leader = 1 } }
			if = { limit = { date < 2016.1.2 } set_temp_variable = { b = 1 } } #skip if 2017
		}
	}
	else_if = { limit = { has_country_flag = set_Neutral_Communism }
		if = { limit = { check_variable = { Neutral_Communism_leader = 0 } }
			add_to_variable = { Neutral_Communism_leader = 1 }
			hidden_effect = { kill_country_leader = yes }

			create_country_leader = {
				name = "Joshua Ogunleye"
				picture = "generic.dds"
				ideology = Neutral_Communism
				traits = {
					neutrality_Neutral_Communism
				}
			}

			if = { limit = { has_country_flag = do_not_retire } subtract_from_variable = { Neutral_Communism_leader = 1 } }
			if = { limit = { date < 2016.1.2 } set_temp_variable = { b = 1 } } #skip if 2017
		}
		if = { limit = { check_variable = { Neutral_Communism_leader = 1 } NOT = { check_variable = { b = 1 } } }
			add_to_variable = { Neutral_Communism_leader = 1 }
			hidden_effect = { kill_country_leader = yes }

			create_country_leader = {
				name = "Eamonn McCann"
				picture = "Eamonn_McCann.dds"
				ideology = Neutral_Communism
				traits = {
					neutrality_Neutral_Communism
				}
			}

			if = { limit = { has_country_flag = do_not_retire } subtract_from_variable = { Neutral_Communism_leader = 1 } }
			set_temp_variable = { b = 1 }
		}
	}
	else_if = { limit = { has_country_flag = set_Neutral_Muslim_Brotherhood }
		if = { limit = { check_variable = { Neutral_Muslim_Brotherhood_leader = 0 } }
			add_to_variable = { Neutral_Muslim_Brotherhood_leader = 1 }
			hidden_effect = { kill_country_leader = yes }

			create_country_leader = {
				name = "Shura Council"
				picture = "generic.dds"
				ideology = Neutral_Muslim_Brotherhood
				traits = {
					neutrality_Neutral_Muslim_Brotherhood
				}
			}

			if = { limit = { has_country_flag = do_not_retire } subtract_from_variable = { Neutral_Muslim_Brotherhood_leader = 1 } }
			if = { limit = { date < 2016.1.2 } set_temp_variable = { b = 1 } } #skip if 2017
		}
		if = { limit = { check_variable = { Neutral_Muslim_Brotherhood_leader = 1 } NOT = { check_variable = { b = 1 } } }
			add_to_variable = { Neutral_Muslim_Brotherhood_leader = 1 }
			hidden_effect = { kill_country_leader = yes }

			create_country_leader = {
				name = "Dr. Omer El-Hamdoon"
				picture = "Omer_El-Hamdoon.dds"
				ideology = Neutral_Muslim_Brotherhood
				traits = {
					neutrality_Neutral_Muslim_Brotherhood
				}
			}

			if = { limit = { has_country_flag = do_not_retire } subtract_from_variable = { Neutral_Muslim_Brotherhood_leader = 1 } }
			set_temp_variable = { b = 1 }
		}
	}
	else_if = { limit = { has_country_flag = set_Neutral_green }
		if = { limit = { check_variable = { Neutral_green_leader = 0 } }
			add_to_variable = { Neutral_green_leader = 1 }
			hidden_effect = { kill_country_leader = yes }

			create_country_leader = {
				name = "Margaret Wright"
				picture = "Margaret_Wright.dds"
				ideology = Neutral_green
				traits = {
					neutrality_Neutral_green
				}
			}

			if = { limit = { has_country_flag = do_not_retire } subtract_from_variable = { Neutral_green_leader = 1 } }
			if = { limit = { date < 2016.1.2 } set_temp_variable = { b = 1 } } #skip if 2017
		}
		if = { limit = { check_variable = { Neutral_green_leader = 1 } NOT = { check_variable = { b = 1 } } }
			add_to_variable = { Neutral_green_leader = 1 }
			hidden_effect = { kill_country_leader = yes }

			create_country_leader = {
				name = "Johnathan Baretley/Sian Berry"
				picture = "Jonathan_Bartley.dds"
				ideology = Neutral_green
				traits = {
					neutrality_Neutral_green
				}
			}

			if = { limit = { has_country_flag = do_not_retire } subtract_from_variable = { Neutral_green_leader = 1 } }
			set_temp_variable = { b = 1 }
		}
	}
	else_if = { limit = { has_country_flag = set_Nat_Autocracy }
		if = { limit = { check_variable = { Nat_Autocracy_leader = 0 } }
			add_to_variable = { Nat_Autocracy_leader = 1 }
			hidden_effect = { kill_country_leader = yes }

			create_country_leader = {
				name = "Gen. Sir Charles Guthrie"
				picture = "Charles_Guthrie.dds"
				ideology = Nat_Autocracy
				traits = {
					nationalist_Nat_Autocracy
				}
			}

			if = { limit = { has_country_flag = do_not_retire } subtract_from_variable = { Nat_Autocracy_leader = 1 } }
			if = { limit = { date < 2016.1.2 } set_temp_variable = { b = 1 } } #skip if 2017
		}
		if = { limit = { check_variable = { Nat_Autocracy_leader = 1 } NOT = { check_variable = { b = 1 } } }
			add_to_variable = { Nat_Autocracy_leader = 1 }
			hidden_effect = { kill_country_leader = yes }

			create_country_leader = {
				name = "Acm. Sir Stuart Peach"
				picture = "Stuart_Peach.dds"
				ideology = Nat_Autocracy
				traits = {
					nationalist_Nat_Autocracy
				}
			}

			if = { limit = { has_country_flag = do_not_retire } subtract_from_variable = { Nat_Autocracy_leader = 1 } }
			set_temp_variable = { b = 1 }
		}
	}
	else_if = { limit = { has_country_flag = set_Nat_Fascism }
		if = { limit = { check_variable = { Nat_Fascism_leader = 0 } }
			add_to_variable = { Nat_Fascism_leader = 1 }
			hidden_effect = { kill_country_leader = yes }

			create_country_leader = {
				name = "Nick Griffin"
				picture = "Nick_Griffin.dds"
				ideology = Nat_Fascism
				traits = {
					nationalist_Nat_Fascism
				}
			}

			if = { limit = { has_country_flag = do_not_retire } subtract_from_variable = { Nat_Fascism_leader = 1 } }
			if = { limit = { date < 2016.1.2 } set_temp_variable = { b = 1 } } #skip if 2017
		}
		if = { limit = { check_variable = { Nat_Fascism_leader = 1 } NOT = { check_variable = { b = 1 } } }
			add_to_variable = { Nat_Fascism_leader = 1 }
			hidden_effect = { kill_country_leader = yes }

			create_country_leader = {
				name = "Adam Walker"
				picture = "adam_walker.dds"
				ideology = Nat_Fascism
				traits = {
					nationalist_Nat_Fascism
				}
			}

			if = { limit = { has_country_flag = do_not_retire } subtract_from_variable = { Nat_Fascism_leader = 1 } }
			set_temp_variable = { b = 1 }
		}
	}
	else_if = { limit = { has_country_flag = set_Nat_Populism }
		if = { limit = { check_variable = { Nat_Populism_leader = 0 } }
			add_to_variable = { Nat_Populism_leader = 1 }
			hidden_effect = { kill_country_leader = yes }

			create_country_leader = {
				name = "Michael Holmes"
				picture = "Michael_Holmes.dds"
				ideology = Nat_Populism
				traits = {
					nationalist_Nat_Populism
				}
			}

			if = { limit = { has_country_flag = do_not_retire } subtract_from_variable = { Nat_Populism_leader = 1 } }
			if = { limit = { date < 2016.1.2 } set_temp_variable = { b = 1 } } #skip if 2017
		}
		if = { limit = { check_variable = { Nat_Populism_leader = 1 } NOT = { check_variable = { b = 1 } } }
			add_to_variable = { Nat_Populism_leader = 1 }
			hidden_effect = { kill_country_leader = yes }

			create_country_leader = {
				name = "Paul Nuttall"
				picture = "Paul_Nuttall.dds"
				ideology = Nat_Populism
				traits = {
					nationalist_Nat_Populism
				}
			}

			if = { limit = { has_country_flag = do_not_retire } subtract_from_variable = { Nat_Populism_leader = 1 } }
			set_temp_variable = { b = 1 }
		}
	}
	else_if = { limit = { has_country_flag = set_Monarchist }
		if = { limit = { check_variable = { Monarchist_leader = 0 } }
			add_to_variable = { Monarchist_leader = 1 }
			hidden_effect = { kill_country_leader = yes }

			create_country_leader = {
				name = "Elizabeth II"
				picture = "Elizabeth_II.dds"
				ideology = Monarchist
				traits = {
					nationalist_Monarchist
				}
			}

			if = { limit = { has_country_flag = do_not_retire } subtract_from_variable = { Monarchist_leader = 1 } }
			if = { limit = { date < 2016.1.2 } set_temp_variable = { b = 1 } } #skip if 2017
		}
		if = { limit = { check_variable = { Monarchist_leader = 1 } NOT = { check_variable = { b = 1 } } }
			add_to_variable = { Monarchist_leader = 1 }
			hidden_effect = { kill_country_leader = yes }

			create_country_leader = {
				name = "Charles III"
				picture = "Prince_Charles.dds"
				ideology = Monarchist
				traits = {
					nationalist_Monarchist
				}
			}

			if = { limit = { has_country_flag = do_not_retire } subtract_from_variable = { socialism_leader = 1 } }
			set_temp_variable = { b = 1 }
		}
	}
	else_if = { limit = { has_country_flag = set_socialism }
		if = { limit = { check_variable = { socialism_leader = 0 } }
			add_to_variable = { socialism_leader = 1 }
			hidden_effect = { kill_country_leader = yes }

			create_country_leader = {
				name = "Jeremy Corbyn"
				picture = "Jeremy_Corbyn.dds"
				ideology = socialism
				traits = {
					western_socialism
				}
			}

			if = { limit = { has_country_flag = do_not_retire } subtract_from_variable = { socialism_leader = 1 } }
			set_temp_variable = { b = 1 }
		}
		if = { limit = { check_variable = { socialism_leader = 1 } NOT = { check_variable = { b = 1 } } }
			add_to_variable = { socialism_leader = 1 }
			hidden_effect = { kill_country_leader = yes }

			create_country_leader = {
				name = "Angela Eagle"
				picture = "angela_eagle.dds"
				ideology = socialism
				traits = {
					western_socialism
				}
			}

			if = { limit = { has_country_flag = do_not_retire } subtract_from_variable = { socialism_leader = 1 } }
			set_temp_variable = { b = 1 }
		}
	}
	else_if = { limit = { has_country_flag = set_Caliphate }
		if = { limit = { check_variable = { Caliphate_leader = 0 } }
			add_to_variable = { Caliphate_leader = 1 }
			hidden_effect = { kill_country_leader = yes }

			create_country_leader = {
				name = "Anjem Choudary"
				picture = "Anjem_Choudary.dds"
				ideology = Caliphate
				traits = {
					salafist_Caliphate
				}
			}

			if = { limit = { has_country_flag = do_not_retire } subtract_from_variable = { Caliphate_leader = 1 } }
			set_temp_variable = { b = 1 }
		}
	}
	else_if = { limit = { has_country_flag = set_Neutral_Libertarian }
		if = { limit = { check_variable = { Neutral_Libertarian_leader = 0 } }
			add_to_variable = { Neutral_Libertarian_leader = 1 }
			hidden_effect = { kill_country_leader = yes }

			create_country_leader = {
				name = "Adam Brown"
				picture = "Adam_Brown.dds"
				ideology = Neutral_Libertarian
				traits = {
					neutrality_Neutral_Libertarian
				}
			}

			if = { limit = { has_country_flag = do_not_retire } subtract_from_variable = { Neutral_Libertarian_leader = 1 } }
			set_temp_variable = { b = 1 }
		}
		if = { limit = { check_variable = { Neutral_Libertarian_leader = 1 } NOT = { check_variable = { b = 1 } } }
			add_to_variable = { Neutral_Libertarian_leader = 1 }
			hidden_effect = { kill_country_leader = yes }

			create_country_leader = {
				name = "Nigel Farage"
				picture = "Nigel_Farage.dds"
				ideology = Neutral_Libertarian
				traits = {
					businessman
					neutrality_Neutral_Libertarian
					honest
					rash
					stubborn
					emotional
				}
			}

			if = { limit = { has_country_flag = do_not_retire } subtract_from_variable = { Neutral_Libertarian_leader = 1 } }
			set_temp_variable = { b = 1 }
		}
	}
}